Skol-enhetskod,Engelska,Matematik,Svenska,simple_sum,bingwen_sum,name
22777703,19.7,16.5,16.5,52.7,52.7,Johannes skola
21871265,17.9,17.3,17.2,52.4,52.4,Sollentuna musikklasser
96984023,18.2,17.2,16.6,52.0,51.9,Östermalmsskolan
45553352,18.8,16.4,16.7,51.9,51.9,Sthlms Int. Montessoriskola
11496096,18.0,15.7,18.1,51.8,52.0,Kunskapsskolan Saltsjöbaden
12332278,18.7,16.6,16.5,51.8,51.8,Engelska Skolan i Täby
35547286,17.7,16.9,16.9,51.5,51.5,Carlssons skola
99648792,18.2,16.2,16.8,51.2,51.3,Adolf Fredriks musikklasser
68939834,18.1,16.8,15.8,50.7,50.6,Hillelskolan
39195819,17.6,16.7,16.4,50.7,50.7,Sanduddens skola
81396509,17.7,16.9,16.0,50.6,50.5,Banérportsskolan
63581692,17.4,16.5,16.6,50.5,50.5,Enebybergs skola
83584296,18.5,17.3,14.6,50.4,50.1,Internationella Engelska Skolan Älvsjö
20253736,17.2,16.4,16.7,50.3,50.3,Tegelhagsskolan
36281817,17.4,16.7,16.2,50.3,50.2,Höglandsskolan
46206050,16.9,16.9,16.4,50.2,50.1,Vittra Vallentuna
44175786,17.6,16.0,16.5,50.1,50.2,Boo Gårds skola
63300625,17.9,15.7,16.4,50.0,50.1,Duvboskolan
90732940,17.1,15.8,17.0,49.9,50.0,Engelska Skolan i Bromma
87382179,17.8,16.2,15.8,49.8,49.8,Väringaskolan
90561266,17.4,16.1,16.3,49.8,49.8,Hedvig Eleonora skola
25253749,17.4,16.0,16.3,49.7,49.7,Albatross Montessoriskola
66851849,18.1,16.1,15.4,49.6,49.5,Olovslundsskolan
60131588,17.1,16.2,16.3,49.6,49.6,Sticklinge skola
80532455,17.7,16.1,15.8,49.6,49.6,Torsviks skola 4-6
52965560,18.9,15.7,15.0,49.6,49.5,Europaskolan i Vasastan
32479095,16.8,15.5,17.2,49.5,49.7,Vaxmoraskolan
64065082,18.8,14.9,15.8,49.5,49.6,Fredrikshovs slotts skola
21346638,17.2,16.0,16.3,49.5,49.5,Järla skola
36066067,17.3,16.4,15.6,49.3,49.2,Musikskolan Lilla Akademien
15594566,17.4,15.7,16.2,49.3,49.3,Äppelviksskolan
42328518,17.6,15.9,15.8,49.3,49.3,Franska Skolan/Ecole francaise
11018018,17.0,15.3,16.8,49.1,49.3,Pops Academy
47986219,18.4,15.3,15.3,49.0,49.0,Futuraskolan Rådan
74358019,18.8,15.7,14.5,49.0,48.9,Engelska Skolan i Nacka
43289917,17.2,15.8,16.0,49.0,49.0,Vasaskolan
43261877,18.2,14.5,16.2,48.9,49.1,Montessoriskolan i Vaxholm
94987345,17.7,15.4,15.8,48.9,48.9,Ekebyskolan
19942197,16.9,16.4,15.6,48.9,48.8,Sandåkraskolan
56867397,17.2,15.3,16.2,48.7,48.8,Silverbäckens skola
89510449,17.3,15.2,16.0,48.5,48.6,Kungsklippeskolan
94677983,16.3,15.5,16.6,48.4,48.5,Tullgårdsskolan
58338225,17.6,14.7,16.1,48.4,48.5,Rindö skola
79969356,18.6,14.4,15.3,48.3,48.4,Europaskolan på Södermalm
10360193,15.6,17.5,15.2,48.3,48.1,Första Sportskolan gr
23312767,17.0,15.2,16.0,48.2,48.3,Milstensskolan
35933721,17.4,15.3,15.4,48.1,48.1,Rudboda skola
83623446,16.2,16.5,15.3,48.0,47.9,Rösjöskolan
44836298,16.9,15.8,15.2,47.9,47.8,Sigfridsborgs skola
46097781,17.4,14.8,15.7,47.9,48.0,Christinaskolan
43869172,16.6,15.8,15.4,47.8,47.8,Fredsborgskolan
78508835,17.8,14.6,15.4,47.8,47.9,Sverigefinska skolan Sthlm
46165232,16.9,15.6,15.3,47.8,47.8,Mälarhöjdens skola
32231541,17.3,15.3,15.2,47.8,47.8,Täby Friskola-Enhagen
89424201,16.5,14.8,16.5,47.8,48.0,Nya Tidens Montessorisk. Täby
72370577,16.7,15.9,15.1,47.7,47.6,Stocksundsskolan
80612612,16.7,14.9,16.0,47.6,47.7,Kristinebergsskolan
13665610,16.7,15.5,15.4,47.6,47.6,Brinkskolan
36513280,17.7,15.6,14.3,47.6,47.5,Futuraskolan Lidingö/Gåshaga
64736967,18.0,15.3,14.3,47.6,47.5,Västbergaskolan
87521048,17.5,14.9,15.1,47.5,47.5,Engelbrektsskolan
67346137,16.5,15.9,15.1,47.5,47.4,"Utbildning Silverdal, gr"
29158808,16.1,15.6,15.6,47.3,47.3,Observatorielundens skola
87425546,16.7,14.5,16.1,47.3,47.5,Kunskapsskolan Nacka
61686233,17.4,14.3,15.5,47.2,47.3,Rålambshovsskolan
78918091,15.2,16.1,15.8,47.1,47.1,Kyrkskolan
52863414,17.4,14.6,15.1,47.1,47.1,Vasa Real
29725531,18.3,14.0,14.8,47.1,47.2,Engelska Skolan Norr
97686250,17.6,14.7,14.8,47.1,47.1,Rödabergsskolan
33159363,15.7,15.4,15.9,47.0,47.1,Munsö skola
38935587,17.7,15.1,14.2,47.0,46.9,Engelska Skolan i Enskede gr
26852132,16.1,15.7,15.2,47.0,47.0,Solhemsskolan
45436515,16.4,14.7,15.8,46.9,47.0,Sofia skola
43166282,17.2,15.1,14.6,46.9,46.9,Nälstaskolan
83828066,16.5,14.8,15.6,46.9,47.0,Nya Elementar
33483759,16.2,15.3,15.3,46.8,46.8,Olympen Telefonplan
36276828,16.2,14.6,16.0,46.8,46.9,Futuraskolan International Lidingö
77314942,16.7,14.9,15.1,46.7,46.7,Norra Ängby skola
97718207,15.8,15.4,15.5,46.7,46.7,Gottsta
56501561,16.6,15.2,14.8,46.6,46.6,Essingeskolan
55382103,16.2,14.8,15.5,46.5,46.6,Björngårdsskolan
17165481,16.2,15.7,14.6,46.5,46.4,Brotorpsskolan
41176931,15.7,15.9,14.9,46.5,46.4,Gärdesskolan
62544265,17.1,13.8,15.5,46.4,46.6,Fria Maria Barnskola
12757193,16.7,13.4,16.3,46.4,46.7,Vittra Östertälje
88795871,16.2,14.9,15.3,46.4,46.4,Södra Ängby skola
74631147,16.3,15.0,15.0,46.3,46.3,Enskedefältets skola
82982309,16.9,14.9,14.5,46.3,46.3,Internationella Engelska Skolan Kista
20561651,16.0,15.3,14.9,46.2,46.2,Herrängens skola
23066257,16.4,14.5,15.3,46.2,46.3,Kulturama gr. Hammarby Sjöstad
43138370,15.7,14.4,16.0,46.1,46.3,Vittra Brotorp
48328583,16.7,14.5,14.9,46.1,46.1,Årstaskolan
71677992,16.9,15.3,13.9,46.1,46.0,Rönninge skola
41764666,15.4,15.5,15.2,46.1,46.1,Långbrodalsskolan
84884375,16.0,15.3,14.7,46.0,45.9,Myrsjöskolan
58258843,15.8,14.5,15.7,46.0,46.1,Rösjöskolan
69329486,16.9,14.9,14.2,46.0,45.9,Källängens skola
74482611,18.6,13.7,13.6,45.9,45.9,Engelska skolan i Hässelby
97942210,17.4,14.4,14.1,45.9,45.9,Internationella Engelska Skolan Huddinge
89317818,15.3,15.4,15.1,45.8,45.8,Kyrkskolan
65991314,15.7,14.7,15.4,45.8,45.9,Kärrdalsskolan
97683561,15.4,15.0,15.4,45.8,45.8,Johan Skytteskolan
90850620,15.9,15.2,14.7,45.8,45.8,Grundskolan Metapontum
96622957,15.5,14.9,15.4,45.8,45.9,Backeboskolan
18193338,15.2,15.7,14.9,45.8,45.7,Svandammsskolan F-6
72624886,17.9,14.5,13.4,45.8,45.7,Internationella Engelska Skolan Liljeholmen
59848694,16.3,14.2,15.2,45.7,45.8,Danderyds Montessoriskola
78821726,15.9,12.7,17.0,45.6,46.0,Ekebyskolan
67788311,15.9,14.7,15.0,45.6,45.6,Älvkvarnsskolan
86937935,15.9,15.6,14.1,45.6,45.5,Sågtorpsskolan
60904587,17.4,14.1,14.1,45.6,45.6,Internationella Engelska Skolan Tyresö
63321041,16.4,15.0,14.1,45.5,45.4,Kungl. Svenska Balettskolan gr
47979659,16.2,14.0,15.3,45.5,45.6,Backluraskolan
22904289,15.9,15.9,13.7,45.5,45.3,Vilans skola
25555358,16.7,14.4,14.4,45.5,45.5,Eiraskolan
64836806,17.1,13.8,14.5,45.4,45.5,Vallaskolan
92347699,16.8,13.3,15.3,45.4,45.6,Bromstensskolan
65487837,16.9,14.8,13.7,45.4,45.3,Futuraskolan Stockholm
37112288,16.0,13.7,15.7,45.4,45.6,Kulturama Grundsk. Sundbyberg
34135484,17.3,14.4,13.6,45.3,45.2,Montessoriskolan Castello
75614609,17.5,14.0,13.8,45.3,45.3,Södermalmsskolan
63954028,16.6,14.2,14.5,45.3,45.3,Kunskapsskolan Fruängen
12187987,16.9,13.8,14.6,45.3,45.4,Katarina Södra skola
44673074,15.7,13.8,15.8,45.3,45.5,Abrahamsbergsskolan
82140090,17.4,13.7,14.2,45.3,45.3,Blommensbergsskolan
64285853,16.2,14.5,14.6,45.3,45.3,Saltsjö-Duvnäs skola
31758556,15.7,14.5,15.1,45.3,45.4,Margretelundsskolan
43375546,16.0,15.4,13.8,45.2,45.0,Rälsen AB åk 4-9
87665835,15.2,14.5,15.5,45.2,45.3,Strandskolan
72248694,16.0,14.7,14.5,45.2,45.2,Enskede skola
64065898,16.0,13.2,16.0,45.2,45.5,Maestroskolan Nacka
96330648,15.7,14.3,15.2,45.2,45.3,Näsbyparksskolan
64081877,16.2,14.4,14.5,45.1,45.1,Snättringeskolan
79093755,17.1,14.0,14.0,45.1,45.1,Engelska Skolan i Järfälla
15331669,16.3,14.6,14.2,45.1,45.1,Sjöstadsskolan
91816093,16.1,14.8,14.1,45.0,44.9,Sturebyskolan
40904373,15.2,14.9,14.9,45.0,45.0,Närlundaskolan
99022046,15.4,14.5,15.1,45.0,45.1,Sköndalsskolan
51772207,15.9,13.2,15.9,45.0,45.3,Hamnskolan
90886859,15.9,14.7,14.4,45.0,45.0,Utsäljeskolan
32886383,15.9,15.2,13.9,45.0,44.9,Mörtviksskolan
75834458,16.3,14.4,14.3,45.0,45.0,Björknässkolan
48760074,16.1,12.2,16.6,44.9,45.3,Vittra Frösunda
75527289,17.2,13.2,14.5,44.9,45.0,Västerhaninge Montessoriskola
29410344,16.9,13.6,14.4,44.9,45.0,Kungsholmens grundskola
95747197,15.7,14.6,14.6,44.9,44.9,Brevik skola
22807677,15.7,14.3,14.8,44.8,44.9,Näsbydalskolan
44002887,15.0,14.3,15.5,44.8,44.9,Ellagårdsskolan
24199792,16.6,14.2,14.0,44.8,44.8,Da Vinciskolan
62737044,15.8,13.8,15.1,44.7,44.8,Runbacka skolor/Runan
38854084,15.4,13.7,15.5,44.6,44.8,Steningehöjdens skola
75656508,16.4,14.3,13.9,44.6,44.6,Vasastans Montessoriskola
69043808,16.1,14.2,14.3,44.6,44.6,Byleskolan
15697742,14.7,14.8,15.1,44.6,44.6,Galaxskolan
71078874,15.5,14.9,14.2,44.6,44.5,Fornuddens skola
42434583,14.9,15.0,14.6,44.5,44.5,Brunns skola
23756252,14.7,15.3,14.5,44.5,44.4,Sjökarbyskolan
24142153,15.4,14.7,14.3,44.4,44.4,Futuraskolan Bergtorp
24606968,15.3,14.5,14.6,44.4,44.4,Härneviskolan
46616391,16.0,13.9,14.5,44.4,44.5,Beckombergaskolan
40467992,16.2,13.7,14.4,44.3,44.4,Futuraskolan Hertig Karl
85321366,15.6,14.4,14.3,44.3,44.3,Skuru skola
44046131,16.2,14.5,13.6,44.3,44.2,Sundbyskolan
29371242,16.9,12.9,14.4,44.2,44.4,Campus Manilla
96403088,14.6,14.6,14.9,44.1,44.1,Midgårdsskolan
65839656,16.2,14.4,13.5,44.1,44.0,Byängsskolan
81266343,16.6,13.7,13.7,44.0,44.0,Kunskapsskolan Tyresö
41888515,15.3,13.7,15.0,44.0,44.1,Fårdala skola
34540901,16.6,13.5,13.9,44.0,44.0,Estniska Skolan i Stockholm
83020784,15.9,13.6,14.5,44.0,44.1,Tyresö skola
27357778,14.3,12.7,17.0,44.0,44.4,Oxhagsskolan
74920766,14.9,14.5,14.5,43.9,43.9,Mariehällsskolan
94902263,14.9,14.7,14.2,43.8,43.8,Viks skola
74489639,16.7,13.0,14.1,43.8,43.9,Kringlaskolan
52615785,15.3,14.0,14.4,43.7,43.7,Eriksbergsskolan
10225038,15.6,14.8,13.3,43.7,43.6,Solfagraskolan
98477278,15.5,14.1,14.1,43.7,43.7,Edboskolan
16348406,16.6,13.3,13.8,43.7,43.8,Matteusskolan
90719952,15.0,12.8,15.8,43.6,43.9,Edsbro skola
76952966,15.8,13.2,14.6,43.6,43.7,Skanskvarnsskolan
69895255,16.6,13.4,13.6,43.6,43.6,Mariaskolan
24172067,16.1,13.6,13.9,43.6,43.6,Kulturskolan Raketen
42215279,15.2,13.6,14.8,43.6,43.7,S:t Pers skola
15572902,15.9,13.8,13.8,43.5,43.5,Helenelundsskolan
59955409,16.7,12.5,14.3,43.5,43.7,Utbildning Rotebro/Gillboskola
53075005,15.1,13.5,14.9,43.5,43.6,Skarpnäcks skola
66634449,16.0,11.7,15.8,43.5,43.9,Vittra Jakobsberg
86831724,15.8,13.8,13.8,43.4,43.4,Igelboda skola
27323097,16.1,14.8,12.5,43.4,43.2,Alfaskolan
23617768,14.7,14.3,14.4,43.4,43.4,Katarina Norra skola
45882318,14.8,14.5,14.1,43.4,43.4,Töjnaskolan
25772114,16.5,13.4,13.5,43.4,43.4,Vaxö skola
41213404,15.0,14.5,13.9,43.4,43.3,Källbrinksskolan
81857869,16.3,13.4,13.6,43.3,43.3,Skärsätra skola
56299553,14.6,13.4,15.3,43.3,43.5,Bergaskolan
86597125,15.6,13.9,13.8,43.3,43.3,Hässelby Villastads skola
11777750,15.8,13.3,14.2,43.3,43.4,Saltsjöbadens samskola
99373839,15.7,13.4,14.2,43.3,43.4,Ekebyhovskolan
57368693,15.6,13.5,14.1,43.2,43.3,Sickla skola
69909271,14.8,14.8,13.6,43.2,43.1,Resarö skola
15547680,15.1,14.9,13.1,43.1,42.9,Vibyskolan
32965692,15.4,13.7,14.0,43.1,43.1,Johannes Petri skola
59249600,15.1,13.6,14.4,43.1,43.2,Eriksdalsskolan
27595656,15.0,14.4,13.7,43.1,43.0,Birkaskolan
93320132,14.6,13.8,14.7,43.1,43.2,S:ta Gertruds skola
57206066,15.8,14.2,13.0,43.0,42.9,Vallatorpsskolan
20137688,15.8,13.6,13.6,43.0,43.0,Käppala skola 5-9
94943347,13.3,12.6,17.1,43.0,43.5,S:t Eriks Katolska Skola
52885189,14.1,14.4,14.5,43.0,43.0,Ektorps skola
60570294,14.6,14.1,14.3,43.0,43.0,Brunnsängskolan
13679897,15.2,13.0,14.7,42.9,43.1,Bagarmossens skola
32993837,15.3,13.1,14.5,42.9,43.0,Ursvikskolan
66475520,15.3,14.3,13.2,42.8,42.7,Träkvista skola
43038662,15.6,13.1,14.1,42.8,42.9,Färentuna skola
58102266,16.0,10.8,16.0,42.8,43.3,Vittra Sollentuna
84584068,14.3,14.5,14.0,42.8,42.8,Frötuna skola
36262199,15.3,13.3,14.1,42.7,42.8,Nytorpsskolan
68288321,16.0,12.9,13.8,42.7,42.8,Sofielundsskolan
72672270,15.3,12.8,14.6,42.7,42.9,Aspuddens skola
37147254,14.8,14.6,13.3,42.7,42.6,Kumla skola
52064811,15.0,13.8,13.8,42.6,42.6,Skederids skola
59468219,16.0,12.4,14.2,42.6,42.8,Slättgårdsskolan
50848996,14.4,13.5,14.7,42.6,42.7,Raoul Wallenbergskolan Bromma
95676943,15.8,13.5,13.2,42.5,42.5,Kevingeskolan
21576764,14.7,14.5,13.3,42.5,42.4,Söderfjärdsskolan
12768012,15.8,13.3,13.4,42.5,42.5,Råsundaskolan
27273328,14.2,13.5,14.8,42.5,42.6,Årstadalsskolan
59975651,15.1,14.3,13.0,42.4,42.3,Svanbergaskolan
46706680,16.0,12.9,13.5,42.4,42.5,Ulriksdalsskolan
47640376,15.6,12.9,13.9,42.4,42.5,Dalarö skola
98239828,14.3,14.2,13.9,42.4,42.4,"Ekebyholmsskolan, gr"
16855764,14.6,12.9,14.9,42.4,42.6,Hjälmstaskolan
95869861,14.5,14.3,13.5,42.3,42.2,Kvisthamraskolan
91352227,14.6,13.3,14.4,42.3,42.4,Studemaskolan
65717061,14.5,13.9,13.8,42.2,42.2,Gröndalsskolan F-9
46796995,15.0,13.2,14.0,42.2,42.3,Kunskapsskolan Spånga
75580959,14.6,13.8,13.8,42.2,42.2,Rikstens skola
77585025,15.6,12.6,14.0,42.2,42.3,Gärdesskolan
41405700,14.9,13.9,13.3,42.1,42.0,Storkyrkoskolan
51305351,14.4,14.1,13.6,42.1,42.0,Tråsättraskolan
47462120,15.6,13.0,13.5,42.1,42.2,Norrvikens skola
22847273,15.3,11.9,14.8,42.0,42.3,Ängskolan
72627865,15.1,12.8,14.0,41.9,42.0,Alviksskolan
59900714,15.5,14.2,12.2,41.9,41.7,Vittra Södermalm
15483394,14.8,13.1,13.9,41.8,41.9,Segeltorpsskolan
54847211,16.4,11.6,13.8,41.8,42.0,Entréskolan Stockholm
21336983,15.8,13.5,12.5,41.8,41.7,Ormstaskolan
14479858,14.8,13.5,13.5,41.8,41.8,Tallkrogens skola
88283203,14.9,13.4,13.4,41.7,41.7,Ösbyskolan
22019000,16.6,11.5,13.6,41.7,41.9,Södertörns friskola
33565539,14.2,14.3,13.2,41.7,41.6,Gustav Vasaskolan
70398560,13.8,12.4,15.5,41.7,42.0,Kämpetorpsskolan
29796042,14.0,14.2,13.4,41.6,41.5,Tornadoskolan AB
58310322,14.5,13.6,13.5,41.6,41.6,Trädgårdsstadsskolan
82047013,14.7,13.6,13.3,41.6,41.6,Älta skola
11364996,14.3,14.4,12.7,41.4,41.2,Lemshaga Akademi
34814578,14.7,13.0,13.7,41.4,41.5,Viaskolan 6-9
53133366,14.8,13.1,13.5,41.4,41.4,Orminge skola
57184925,15.7,11.8,13.9,41.4,41.6,Hökarängsskolan
24716970,15.4,11.6,14.3,41.3,41.6,Högalidsskolan
89692072,15.4,11.5,14.4,41.3,41.6,Freinetskolan Hugin
38975788,13.8,13.5,14.0,41.3,41.4,Tungelsta skola
89605548,12.8,13.6,14.9,41.3,41.4,Trollbodaskolan
57370453,14.9,13.9,12.5,41.3,41.2,Karbyskolan
28313791,14.6,13.0,13.7,41.3,41.4,Tomtbergaskolan
14945659,14.6,14.3,12.3,41.2,41.0,Almaskolan
16068461,14.7,13.3,13.1,41.1,41.1,Nyckelskolan
39171821,14.8,12.4,13.9,41.1,41.2,Örbyskolan
50783450,13.9,13.9,13.2,41.0,40.9,Vistaskolan
73272488,14.2,13.3,13.5,41.0,41.0,Skärgårdsstadsskolan
16426165,16.1,11.3,13.6,41.0,41.2,Kunskapsskolan Enskede
92007673,15.4,12.9,12.7,41.0,41.0,Västertorpsskolan
34295441,15.0,13.6,12.3,40.9,40.8,Karlbergsskolan
77630712,15.1,12.0,13.8,40.9,41.1,Värmdö Skärgårdsskola
96594250,13.2,13.7,14.0,40.9,40.9,Häggviksskolan
72066571,16.6,11.6,12.6,40.8,40.9,Internationella Engelska Skolan Skärholmen
73893187,16.9,10.1,13.8,40.8,41.2,Maria Elementarskola
38653015,13.9,12.6,14.3,40.8,41.0,Pershagenskolan
97400863,15.2,13.5,12.0,40.7,40.6,Vinsta grundskola västra
54806839,15.3,12.2,13.2,40.7,40.8,Viby friskola
25506439,14.3,14.0,12.4,40.7,40.5,Kassmyraskolan
16969143,14.5,13.3,12.9,40.7,40.7,Hagnässkolan
70329261,14.7,13.1,12.9,40.7,40.7,Hägerstensåsens skola
99640618,14.2,13.3,13.1,40.6,40.6,Lillhagaskolan
63542436,14.0,12.7,13.9,40.6,40.7,Sätunaskolan
49021135,14.6,12.7,13.3,40.6,40.7,Södervikskolan
85777315,15.0,11.7,13.8,40.5,40.7,Mikaelskolan
38661388,13.6,13.8,13.1,40.5,40.4,Broängsskolan
36520624,14.2,13.0,13.2,40.4,40.4,Nybohovsskolan
14440920,13.7,13.2,13.5,40.4,40.4,Visättraskolan
98925408,14.5,12.0,13.9,40.4,40.6,Viksjöskolan
43088454,14.0,13.3,13.0,40.3,40.3,Björkhagens skola
53398338,15.1,13.1,12.1,40.3,40.2,Klara Privata Gr. Södermalm
86985859,14.1,12.7,13.5,40.3,40.4,Malmsjö skola
15049834,13.9,12.2,14.2,40.3,40.5,Lilla Alby skola
52293921,13.9,13.0,13.4,40.3,40.3,Bällstabergsskolan
84103650,14.4,11.9,14.0,40.3,40.5,Kårsta skola
78491090,15.0,11.4,13.9,40.3,40.5,Tingvallaskolan
31903219,14.9,12.0,13.3,40.2,40.3,Magelungsskolan
34386033,13.6,13.0,13.6,40.2,40.3,Parkskolan
72378947,15.0,11.1,14.0,40.1,40.4,Vallentuna Friskola
14472068,15.2,11.9,13.0,40.1,40.2,Södermalmskyrkans Kristna sk.
88712672,12.9,14.0,13.1,40.0,39.9,Söraskolan
45133950,13.1,12.1,14.8,40.0,40.3,Freinetskolan Mimer
29278599,15.2,13.2,11.6,40.0,39.8,Lovisedalsskolan
92284588,14.1,12.7,13.2,40.0,40.0,Ekhammarskolan
85558618,13.9,13.3,12.8,40.0,40.0,Falkbergsskolan
15080815,14.4,13.4,12.2,40.0,39.9,Fjällenskolan
42601396,14.4,12.2,13.4,40.0,40.1,Trångsundsskolan
16983719,14.4,13.3,12.2,39.9,39.8,Broskolan
56949296,14.3,11.6,14.0,39.9,40.1,Blackebergsskolan
84411355,15.4,11.4,13.0,39.8,40.0,Kunskapsskolan Botkyrka
26281697,15.4,9.2,15.2,39.8,40.4,Montessoriskolan - Gustafslund
72392930,14.6,12.1,13.1,39.8,39.9,Ängsnässkolan
49631077,14.2,12.2,13.4,39.8,39.9,Högsätra skola 6-9
25309669,15.9,11.8,12.0,39.7,39.7,Kunskapsskolan Täby
97762139,13.5,12.9,13.3,39.7,39.7,Sandbergska skolan
81680693,15.3,11.5,12.9,39.7,39.8,HagaLyckebyskolan
45364437,14.5,11.5,13.5,39.5,39.7,Bandhagens skola
45874608,13.8,12.2,13.5,39.5,39.6,Bålbro skola
17957898,15.9,11.2,12.3,39.4,39.5,Rudanskolan
38394561,13.2,12.1,14.1,39.4,39.6,Södertälje friskola
79466321,14.6,12.9,11.9,39.4,39.3,Hölöskolan
15312030,15.6,11.3,12.5,39.4,39.5,Lommarskolan
24561769,14.2,12.1,13.1,39.4,39.5,Hemmestaskolan
80378022,16.0,10.7,12.7,39.4,39.6,Botkyrka Friskola F-9
43802065,14.4,11.4,13.6,39.4,39.6,Elafskolan
38758770,13.2,12.1,14.0,39.3,39.5,Farsta grundskola
61056172,14.1,12.4,12.8,39.3,39.3,Centralskolan
98780182,16.1,10.4,12.7,39.2,39.4,Bodals skola
64167206,13.7,12.5,13.0,39.2,39.2,Hammarbyskolan
58286716,13.5,11.8,13.9,39.2,39.4,Norrbackaskolan
20683111,13.9,13.6,11.7,39.2,39.0,Bäckahagens skola
43133926,15.7,11.6,11.8,39.1,39.1,Bergshamraskolan
41584790,13.0,12.7,13.1,38.8,38.8,Järna friskola
22513261,12.8,10.6,15.4,38.8,39.3,Kista grundskola
82075850,14.1,11.9,12.8,38.8,38.9,Skarpatorpsskolan
11025388,13.9,13.0,11.8,38.7,38.6,Stenhamraskolan
31281674,13.2,11.5,14.0,38.7,39.0,Nyboda skola
13654969,15.1,11.4,12.2,38.7,38.8,Balingsnässkolan
73581523,14.0,12.1,12.6,38.7,38.8,Tallbackaskolan
61364360,13.5,12.3,12.9,38.7,38.8,Korallens Friskola
47204443,14.1,11.4,13.1,38.6,38.8,Mölnboskolan
40847752,13.8,12.7,12.1,38.6,38.5,Björkebyskolan
60624757,14.0,11.9,12.7,38.6,38.7,Farstavikens skola
58862351,14.1,12.7,11.7,38.5,38.4,Bergfotens skola
51341279,14.3,10.3,13.9,38.5,38.9,Grimstaskolan
99842607,13.8,12.7,11.9,38.4,38.3,Oxbacksskolan
45914893,14.7,11.3,12.4,38.4,38.5,Båtsmansskolan
60211862,12.1,12.8,13.5,38.4,38.5,Vikskolan
21997077,14.6,10.1,13.5,38.2,38.5,Norra Strandskolan
58385274,15.0,10.3,12.9,38.2,38.5,Skogsängsskolan
33624606,13.9,12.5,11.8,38.2,38.1,Måsöskolan
26568390,14.7,11.8,11.7,38.2,38.2,Primaskolan Farsta
84704913,13.4,13.2,11.5,38.1,37.9,Krusboda skola
93968806,13.1,10.5,14.3,37.9,38.3,Grönkullaskolan
10998117,13.1,11.0,13.8,37.9,38.2,Råbergsskolan
76400478,13.8,11.4,12.6,37.8,37.9,Runstensskolan
31018677,14.8,10.4,12.6,37.8,38.0,Väsby skola
37556682,14.2,12.1,11.5,37.8,37.7,Kista International School
15218794,14.4,10.9,12.5,37.8,38.0,Glömstaskolan
43238662,11.8,11.5,14.4,37.7,38.0,Björkhaga Skola
29416145,12.7,12.8,12.1,37.6,37.5,Grindskolan
97777849,11.8,10.2,15.6,37.6,38.1,Tallbohovskolan
77624936,13.4,12.1,12.0,37.5,37.5,Runby skola
17287315,14.2,11.6,11.7,37.5,37.5,Källtorpskolan
11914814,13.7,11.6,12.1,37.4,37.5,Rosenborgskolan
20054868,13.8,10.6,12.9,37.3,37.5,Odensala skola
18064456,13.3,11.8,12.1,37.2,37.2,Söderholmsskolan
80746043,12.9,11.1,13.2,37.2,37.4,Ribbybergsskolan
34671128,13.8,11.4,11.9,37.1,37.2,Solbergaskolan
93412255,12.1,11.2,13.8,37.1,37.4,Gubbängsskolan
65927702,13.1,10.8,13.0,36.9,37.1,Vendelsö Hage
30270791,13.5,11.4,12.0,36.9,37.0,Åbyskolan
86337537,13.1,9.9,13.8,36.8,37.2,Maltesholmsskolan
82624830,14.1,10.6,12.1,36.8,37.0,Solskiftesskolan
94791997,13.1,12.0,11.6,36.7,36.7,Svartbäcksskolan
77763178,13.4,10.9,12.3,36.6,36.7,Kvarnskolan
92406445,12.7,11.1,12.7,36.5,36.7,Säbytorp
36031993,13.9,11.8,10.8,36.5,36.4,Vällingbyskolan
48312263,14.4,9.7,12.3,36.4,36.7,Hanvikens skola
13124830,14.0,10.5,11.9,36.4,36.5,Sjöängsskolan
87838841,11.8,12.5,12.1,36.4,36.4,Hässelbygårdsskolan
50060022,13.6,10.2,12.5,36.3,36.5,Smedshagsskolan
75017455,14.5,9.9,11.8,36.2,36.4,Skytteholmsskolan
14040970,12.6,11.2,12.4,36.2,36.3,Stavsborgsskolan
73184416,12.0,11.5,12.4,35.9,36.0,Vanstaskolan 4-9
99749462,11.3,11.3,13.2,35.8,36.0,Långsjöskolan
50905672,12.4,11.1,12.3,35.8,35.9,Rådmansö skola
14682892,13.5,10.6,11.6,35.7,35.8,Valstaskolan 4-6
67742754,14.3,9.5,11.8,35.6,35.8,Karsby International School
72266104,12.8,11.1,11.7,35.6,35.7,Vendelsömalmsskolan
70182130,11.6,12.6,10.9,35.1,34.9,Drottningdal skola
21781901,12.0,11.8,11.3,35.1,35.1,Råbyskolan
70089804,11.7,9.6,13.8,35.1,35.5,Loviselundsskolan
87920455,13.0,11.3,10.6,34.9,34.8,Skönstaholmsskolan
19353396,12.8,10.7,11.2,34.7,34.8,Fruängens skola
35890890,11.2,10.6,12.9,34.7,34.9,Västerholms friskola
18534178,11.8,13.3,9.5,34.6,34.2,Storvretskolan
53319802,13.3,10.8,10.5,34.6,34.6,Ljusterö skola
37796564,12.4,11.6,10.6,34.6,34.5,Akalla grundskola F-9
33455004,10.9,11.7,12.0,34.6,34.6,Njupkärrs skola
36350546,12.3,10.0,11.3,33.6,33.7,Tunaskolan
43134105,12.5,10.7,10.4,33.6,33.6,Cordoba International School
90537318,11.5,11.5,10.5,33.5,33.4,Vikingaskolan
56858061,11.9,11.1,10.3,33.3,33.2,Söderby friskola
73184968,12.5,7.8,13.0,33.3,33.8,Brandbergsskolan
78703073,10.6,11.2,11.2,33.0,33.0,Sunnerbyskolan F-9
82110758,13.1,9.8,10.0,32.9,32.9,Hagsätraskolan
44227469,11.4,11.4,10.1,32.9,32.8,Grimsta skola
97655739,12.2,9.9,10.7,32.8,32.9,Järna grundskola
49862579,11.6,9.3,11.8,32.7,33.0,Fagersjöskolan
31772387,11.8,11.4,9.5,32.7,32.5,Hammarbacksskolan
72471883,11.7,9.7,11.2,32.6,32.8,Länna skola
72120589,12.2,11.2,9.1,32.5,32.3,Stålhamraskolan
39229061,13.2,8.9,10.3,32.4,32.5,Vretskolan
27740655,12.4,11.2,8.8,32.4,32.2,Sollentuna internat. school
46518352,10.3,11.0,10.6,31.9,31.9,Elmsta skola
51210001,11.5,8.7,11.7,31.9,32.2,Ronnaskolan
85796724,12.5,7.6,11.6,31.7,32.1,Källskolan Ekhammar
40175889,11.5,9.8,10.4,31.7,31.8,Soldalaskolan
75505688,11.6,8.8,11.3,31.7,32.0,Igelsta grundskola
34148887,11.2,10.0,10.4,31.6,31.6,Blombackaskolan
22738124,8.9,11.8,10.4,31.1,31.0,"Prolympia, Åkersberga"
52531425,11.1,8.4,11.3,30.8,31.1,Stimmets skola
24146389,10.8,9.2,10.5,30.5,30.6,Hallsta skola
76440567,13.1,7.7,9.5,30.3,30.5,Kvarnbäcksskolan
21724208,10.6,9.0,9.8,29.4,29.5,Sätraskolan
25918983,11.3,8.1,8.6,28.0,28.1,Hammerstaskolan
45984740,9.3,8.5,7.7,25.5,25.4,Helleborusskolan
72509254,8.2,5.1,5.8,19.1,19.2,Lunaskolan Bromma
12092203,3.7,6.5,6.8,17.0,17.0,Brage- skola och språkförskola
98515782,5.6,6.4,3.8,15.8,15.5,Ängkärrskolan i Solna
10661388,,,,,,Örjanskolan
10682125,,,,,,Magitaskolan
11442396,11.3,11.3,,,,Stockholm Internat. Academy
11532790,15.5,15.2,,,,Elma School
12377376,,,,,,"MBC skolan, Svedmyra"
14121892,12.1,11.5,,,,Bredängsskolan
14845171,,,,,,Funkis skola
14872951,,,,,,MBC skolan Södertälje
16061350,,,,,,Beta School
16223141,,,,,,Storvretskolan 1GR
16337532,,,,,,Svedenskolan Mälarhöjden
22030561,13.1,10.2,,,,Östbergaskolan
22202915,,,,,,Montessoriskolan Vintergatan
23414344,,,,,,Skolgrunden
24046791,,,,,,Farstaängsskolan
24374886,11.8,9.7,,,,Vittra Väsby
24754913,12.6,9.0,,,,Knutbyskolan
26804905,,,,,,Mora Parks skola
26943109,,,,,,Rösjöskolan Förberedelseklasser
28231215,,,,,,Drottningholmskolan
28778917,,,,,,Vittra Sjöstaden
29524966,13.6,9.6,,,,Freinetskolan Kastanjen
29705473,13.8,11.7,,,,Snösätraskolan
30490775,,,,,,Riala skola
31528772,,,,,,Mariaskolan
32585503,,,,,,Grisslehamns skola
34125463,,,,,,JAG KAN-skolan
36185466,,,,,,I Ur och Skur Utsikten skola
36232577,,,,,,Bromma Enskilda Skola ek.fören.
40631085,10.2,6.1,,,,Fittjaskolan Botkyrka Norra
41377165,,,,,,Sundby skola
41408780,,,,,,Akademiska skolan
42149666,14.6,10.4,,,,Husbygårdsskolan F-9
42202683,,,,,,Kungsholmens friskola
43236825,,,,,,Runbacka skolor/Fenix
43367445,,,,,,Gullvivaskolan
43632318,14.1,11.0,,,,Enbacksskolan
44031601,10.4,8.2,,,,Höglundaskolan
44373961,,,,,,Idunskolan Östra Stockholms Waldorfskola
44802890,,9.0,,,,Vittra Saltsjö-Boo
45536049,,,,,,Kungsskolan
45757947,10.8,12.2,,,,Tallidsskolan
45994471,,,,,,Solvikskolan
46581319,11.1,11.1,,,,Lillholmsskolan
46585145,17.8,17.0,,,,Vittra på Lidingö
47034991,,,,,,Muskö skola
47140640,,,,,,Utö skola
47727629,,,,,,Skärsta Friskola
48184058,,,,,,Aktiviaskolan
49669037,,,,,,Vätö skola
53147557,,,,,,Stefanskolan
53259263,,,,,,"Ingridskolan, grundskola"
53352683,,,,,,Viggbyskolan
53426548,11.6,10.1,,,,Brunnaskolan
54270895,,,,,,Hammerstaskolan 1GR
54752734,,,,,,Västra Ekoskolan
55508705,,,,,,"Josefinaskolan, grundskola"
56417100,10.6,10.3,,,,Kvarnhagsskolan
56568612,11.4,11.3,,,,Wasaskolan
57106833,,,,,,Vendestigens skola
57228484,8.9,8.3,,,,Grindtorpsskolan
57317316,,,,,,JENSEN grundskola Stockholm
57850353,,,,,,"Sverigefinska skolan, Botkyrka"
58173761,,,,,,Olovslundskolan
58653522,,,,,,Roslags Kulla skola
60308449,,,,,,Skarpnäcks Fria skola
60382920,9.5,10.7,,,,Rågsvedsskolan
62288230,13.0,11.9,,,,Lina grundskola
64949601,6.6,8.0,,,,Vårbyskolan
66455663,,,,,,Novia Engelska skolan
67362048,,,,,,"Särskolan i Värmdö, Grundskola"
67662754,,,,,,Vittra Telefonplan
67731691,,,,,,Lunaskolan Södra
67809355,17.3,13.8,,,,Jordens skola
68403656,,,,,,"Sverigefinska sk, Uppl Väsby"
68812584,13.4,9.5,,,,Askebyskolan
68837718,,,,,,Utbildning Silverdal Förberedelseklasser
69266159,14.0,9.8,,,,Hjulsta skola
71048800,14.2,14.0,,,,Borgskolan
71992738,12.8,10.3,,,,Fornbackaskolan
72074288,,,,,,Rydbo skola
72345466,15.2,11.5,,,,Kvarnbyskolan
72684556,15.3,11.3,,,,Stiftelsen Islamiska skolan
73075913,,,,,,Mikaelgården Läkeped. Institut
74396596,15.1,12.6,,,,Kvarnbackaskolan
74723082,12.6,10.1,,,,Gullingeskolan
76550010,,,,,,Tjustaskolan
76849293,,,,,,Rikstens skola/Trampolinen
76880740,,,,,,"Utbildning Silverdal, gr asp"
77002828,,,,,,Skebo skola
77656740,10.9,9.0,,,,Alzahraa Akademi
77701262,,,,,,Solbackens Montessori
79012683,12.8,9.2,,,,Annerstaskolan
80274643,,,,,,Skepptuna skola
80509560,16.0,12.8,,,,Engelska skolan Upplands Väsby
81746027,,,,,,Björkö-Arholma skola
82137009,11.2,9.5,,,,Hovsjöskolan
82438535,,,,,,Snitz Grundskola Nacka
82838118,7.1,3.4,,,,Alla Nationers Fria Skola
83810698,14.0,9.5,,,,Elinsborgsskolan
84230778,,,,,,Svalnäs skola
84585645,,,,,,Djurgårdens Waldorfskola
84891659,,,,,,Blåklintskolan 1GR
85200474,,,,,,Magelungens Grundskola Långbropark
86442938,,,,,,Söderbykarl skola
86917350,,,,,,Köpmanholms skola
87377212,,,,,,JENSEN grundskola Gärdet Sthlm
89701816,10.9,12.3,,,,Kästaskolan
89893224,,,,,,Svedenskolan Bergshamra
90711097,14.6,12.4,,,,Al-Azharskolan
91011718,13.9,14.2,,,,Fisksätraskolan
92127007,13.3,8.5,,,,Dialogskolan
92416778,,,,,,Hjorthagens skola
92791803,12.9,7.1,,,,Örskolan
93301103,,,,,,Aspdammskolan
94113162,,,,,,Österskärsskolan
96827136,,,,,,Gryningeskolan
98531789,,,,,,Rånäs skola
98705470,13.1,12.5,,,,Sv Interkulturella grundskolan
98760751,,,,,,Kristofferskolan
