school_kod,school_name,best_cnt,total_cnt,percent
81396509,Banérportsskolan,6,6,100
36066067,musikskolan lilla akademien,5,6,83
22777703,Johannes skola,4,6,66
90732940,Engelska Skolan i Bromma,4,6,66
64065082,fredrikshovs slotts skola,4,6,66
26172429,International School of the Stockholm Region,3,3,100
52965560,Europaskolan i Vasastan,3,4,75
96984023,Östermalmsskolan,3,6,50
79969356,Europaskolan Södermalm,3,6,50
36281817,höglandsskolan,2,6,33
74482611,Engelska skolan i Hässelby,2,6,33
62544265,Fria Maria Barnskola,2,5,40
27357778,Oxhagsskolan,2,6,33
83584296,Internationella Engelska Skolan Älvsjö,2,2,100
94943347,S:t Eriks Katolska Skola,1,6,16
45553352,Sthlms Int. Montessoriskola,1,6,16
10360193,Profilskolan,1,6,16
94677983,Tullgårdsskolan,1,6,16
97686250,rödabergsskolan,1,6,16
63321041,Kungliga Svenska Balettskolan,1,6,16
92750123,"Enskilda gymnasiet, gr",1,4,25
11018018,Pops Academy,1,3,33
35547286,carlssons skola,1,6,16
68939834,Hillelskolan,1,6,16
78508835,Sverigefinska skolan Sthlm,1,6,16
19942197,Sandåkraskolan,1,5,20
