count,school_kod,school_name
19,92750123,"Enskilda gymnasiet, gr"
8,64065082,Fredrikshovs slotts skola
7,36066067,Musikskolan Lilla Akademien
5,36281817,Höglandsskolan
4,42328518,Franska Skolan/Ecole francaise
3,99648792,Adolf Fredriks musikklasser
3,35547286,Carlssons skola
2,79969356,Europaskolan på Södermalm
2,45553352,Sthlms Int. Montessoriskola
2,73893187,Maria Elementarskola
1,52965560,Europaskolan i Vasastan
1,90732940,Engelska Skolan i Bromma
1,29371242,Campus Manilla
1,34540901,Estniska Skolan i Stockholm
1,29725531,Engelska Skolan Norr
