count,school_kod,school_name
20,86597125,hässelby villastads skola
20,72672270,aspuddens skola
20,98760751,"Kristofferskolan, gr"
20,21724208,sätraskolan
20,44673074,abrahamsbergsskolan
20,98705470,Sv Interkulturella grundskolan
20,43088454,björkhagens skola
20,15594566,äppelviksskolan
20,45436515,sofia skola
20,97683561,johan skytteskolan
20,82854505,martinskolan söders waldorfsk
20,94943347,S:t Eriks Katolska Skola
20,87838841,hässelbygårdsskolan
20,35547286,carlssons skola
20,72627865,alviksskolan
20,57184925,hökarängsskolan
20,77656740,Alzahraa Idealiska akademi
20,24716970,högalidsskolan
20,53175499,tyska skolan
20,85670099,Internat. school of Sthlm gr.
20,37796564,Akalla grundskola F-9
20,13124830,sjöängsskolan
20,97686250,rödabergsskolan
20,69266159,Hjulsta grundskola F-9
20,46165232,mälarhöjdens skola
20,16348406,matteusskolan
20,99648792,adolf fredriks musikklasser
20,13679897,bagarmossens skola
20,87521048,engelbrektsskolan
20,82110758,hagsätraskolan
20,92750123,"Enskilda gymnasiet, gr"
20,44046131,sundbyskolan
20,19353396,fruängens skola
20,37416253,rinkebyskolan
20,73893187,maria elementarskola
20,41176931,gärdesskolan
20,34540901,Estniska Skolan i Stockholm
20,20683111,bäckahagens skola
20,38758770,Farsta grundskola
20,72248694,enskede skola
20,14472068,Södermalmskyrkans Kristna sk.
20,48328583,årstaskolan
20,93412255,gubbängsskolan
20,14121892,bredängsskolan
20,94864296,åsö grundskola
20,17640364,"Spånga gymnasium, grundskolan"
20,52863414,vasa real
20,59249600,eriksdalsskolan
20,42328518,Franska Skolan/Ecole francaise
20,36281817,höglandsskolan
20,61686233,rålambshovsskolan
20,51341279,grimstaskolan
20,36031993,vällingbyskolan
19,16394249,Ellen Key skolan
19,38935587,Engelska Skolan i Enskede gr
19,64065082,fredrikshovs slotts skola
19,78508835,Sverigefinska skolan Sthlm
18,23414344,Skolgrunden
18,60382920,Rågsvedsskolan
18,88795871,Södra Ängby skola
18,23617768,Katarina Norra skola
18,40610606,Lycée Francais Saint Louis
18,75656508,Vasastans Montessoriskola
18,53147557,stefanskolan
18,28138418,Vintertullsskolan i Stockholm
17,34671128,solbergaskolan
17,11218326,ärvingeskolan
17,82140090,Blommensbergsskolan
17,23618510,Nytorpsskolan
16,69895255,Mariaskolan
16,91816093,Sturebyskolan
16,91352227,Studemaskolan
16,64736967,Västbergaskolan
16,36066067,musikskolan lilla akademien
16,59900714,Vittra Södermalm
16,83828066,Nya Elementar
16,93301103,Aspdammskolan
15,79969356,Europaskolan Södermalm
15,81266343,Kunskapsskolan Tyresö
15,16426165,Kunskapsskolan Enskede
15,27287797,bredbyskolan
15,29725531,Engelska Skolan Norr
15,76952966,skanskvarnsskolan
15,89605548,Trollbodaskolan
14,35784391,DiStra resursenhet City
14,29796042,Tornadoskolan
14,50060022,Smedshagsskolan
14,24671487,Kunskapsskolans Resursskola
14,11532790,Elma School
13,18016343,S:t Örjans skolor
13,63954028,Kunskapsskolan Fruängen
13,43632318,Enbacksskolan
13,18023801,husbyskolan
13,28778917,Vittra Sjöstaden
12,24172067,Kulturskolan Raketen
12,46581319,Lillholmsskolan
12,23066257,Kulturama gr. Hammarby Sjöstad
12,72509254,Lunaskolan
12,90732940,Engelska Skolan i Bromma
12,75614609,Södermalmsskolan
12,98098631,Kunskapsskolan Kista
11,90711097,Al-Azharskolan
11,82838118,alla nationers fria skola
11,46796995,Kunskapsskolan Spånga
11,35890890,Västerholms friskola
11,60308449,Skarpnäcks Fria skola
11,82850292,Vinstagårdsskolan
10,86086213,Sofiaängens skola
10,82448624,Tasava skola
10,10360193,Profilskolan
10,55628203,"ESS-gymnasiet, grund"
10,18000501,bergholmsskolan
9,18051601,Kunskapsskolan Skärholmen
9,34047582,"Stockholms Rh-gymnasium, grund"
9,38096510,Magelungens grundskola Älvsjö
9,18053801,DiStra skola-city
9,50848996,Raoul Wallenbergskolan Bromma
9,34880783,DiStra resursenhet-söder
9,57034070,MBC skolan Södermalm
9,18006401,österholmsskolan
9,72684556,Framstegsskolan i Stockholm
9,59468219,Slättgårdsskolan
8,18064456,Söderholmsskolan
8,18029307,Stadshagsskolan
8,76324672,DiStra Resursenhet Väst
8,53075005,Skarpnäcks skola
8,14283912,Nya Broskolan
8,92127007,Dialogskolan
8,90850620,Grundskolan Metapontum
8,15331669,Sjöstadsskolan
7,39975473,DiStra skola-syd
7,18059401,Central skola Al-Huda
7,95801750,Tätorpsskolan
7,18000402,kämpingeskolan
7,18006101,vårbergsskolan
7,29410344,Kungsholmens grundskola
7,42149666,Husbygårdsskolan F-9
7,87377212,JENSEN grundskola Vasastan Sthlm
6,66455663,Novia Engelska skolan
6,26568390,Primaskolan Farsta
6,57510246,snitz grundskola odenplan
6,63321041,Kungliga Svenska Balettskolan
5,18062101,DiStra skola-väst
5,19657993,"Fryshusets grundskola, Sthlm"
5,16061350,Beta School
5,70329261,Hägerstensåsens skola
5,74482611,Engelska skolan i Hässelby
4,18050601,Sonja Kovalevsky-skolan
4,18070401,Int. sk. gr.  rättvisa o fred
4,11442396,Stockholm Internat. Academy
4,45553352,Sthlms Int. Montessoriskola
4,67731691,Lunaskolan Södra
4,46646143,Jorielskolan
3,18016301,kedjebo internatskola
3,18016368,tjejgruppen svea
3,72066571,Internationella Engelska Skolan Skärholmen
3,26172429,International School of the Stockholm Region
3,97400863,Vinsta grundskola västra
3,22513261,Kista grundskola
3,84585645,Djurgårdens Waldorfskola
3,82075850,Skarpatorpsskolan
3,64167206,Hammarbyskolan
3,53398338,Klara Privata Gr. Södermalm
3,37556682,Kista International School
3,18016330,skolverkstadens skoldaghem
3,18016333,tallkrogens skoldaghem
3,18016338,marieborgs skoldaghem
3,18016340,bromma skoldaghem
3,18016341,fryshusets skoldaghem
3,18016348,järinge skoldaghem
3,18016349,tjejforum skoldaghem
3,18016356,akalla samverkansklass
3,18016359,sjöängens samverkansklass
3,18016364,M V A
2,18047901,Södra Ängby skola 6-9
2,18040701,Västbergaskolan
2,18073801,Ekenskolan
2,43367445,Gullvivaskolan
2,14945659,Almaskolan
2,67662754,Vittra Telefonplan
2,65487837,Futuraskolan Stockholm
2,87999453,Klara Privata Gr. Kungsholmen
2,18016306,LINGGÅRDENS SKOLHEM
2,18016355,SÄTRAGRUPPEN
2,18016304,BARNBYNS SKOLA SKÅ
2,18016352,nybohovsgruppen
1,29585072,Enskede byskola
1,12377376,Magelungens grundskola Svedmyra
1,17644819,Olympen Svea
1,43134105,Cordoba International School
1,52965560,Europaskolan i Vasastan
1,72624886,Internationella Engelska Skolan Liljeholmen
1,11018018,Pops Academy
1,17526606,Akademiska Skolan i Kista
1,86758230,Viktor Rydbergs skola Vasastan
1,29371242,Campus Manilla
1,82982309,Internationella Engelska Skolan Kista
1,57317316,JENSEN grundskola Stockholm
1,69004747,Fryshuset Grundskola Västra
1,18016376,Högdalsgruppen
1,56949296,Blackebergsskolan
1,18016319,ÄLVESTORPS INTERNATSKOLA
1,18016362,VASA REAL
