count,total_count,school_kod,school_name
20,,92750123,"Enskilda gymnasiet, gr"
20,,99648792,adolf fredriks musikklasser
20,,35547286,carlssons skola
20,,42328518,Franska Skolan/Ecole francaise
17,,64065082,fredrikshovs slotts skola
17,,36281817,höglandsskolan
16,,36066067,musikskolan lilla akademien
15,,73893187,maria elementarskola
14,,97686250,rödabergsskolan
11,,15594566,äppelviksskolan
11,,29725531,Engelska Skolan Norr
10,,79969356,Europaskolan Södermalm
10,,38935587,Engelska Skolan i Enskede gr
7,,90732940,Engelska Skolan i Bromma
6,,14472068,Södermalmskyrkans Kristna sk.
6,,41176931,gärdesskolan
6,,46165232,mälarhöjdens skola
5,,34540901,Estniska Skolan i Stockholm
5,,87521048,engelbrektsskolan
4,,63321041,Kungliga Svenska Balettskolan
3,,45553352,Sthlms Int. Montessoriskola
2,,78508835,Sverigefinska skolan Sthlm
2,,24172067,Kulturskolan Raketen
2,,72248694,enskede skola
1,,52965560,Europaskolan i Vasastan
1,,29371242,Campus Manilla
1,,65487837,Futuraskolan Stockholm
1,,11018018,Pops Academy
1,,52863414,vasa real
1,,90850620,Grundskolan Metapontum
1,,59900714,Vittra Södermalm
1,,16394249,Ellen Key skolan
1,,29796042,Tornadoskolan
1,,91352227,Studemaskolan
1,,74482611,Engelska skolan i Hässelby
1,,94943347,S:t Eriks Katolska Skola
