school_kod,school_name,best_cnt,total_cnt,percent
92750123,"Enskilda gymnasiet, gr",8,6,133
35547286,carlssons skola,7,6,116
79969356,Europaskolan Södermalm,6,6,100
36066067,musikskolan lilla akademien,5,6,83
52965560,Europaskolan i Vasastan,4,2,200
97686250,rödabergsskolan,3,6,50
64065082,fredrikshovs slotts skola,3,5,60
26172429,International School of the Stockholm Region,3,3,100
90850620,Grundskolan Metapontum,2,6,33
34540901,Estniska Skolan i Stockholm,2,6,33
45553352,Sthlms Int. Montessoriskola,2,5,40
11018018,Pops Academy,2,2,100
74482611,Engelska skolan i Hässelby,2,6,33
15594566,äppelviksskolan,2,6,33
38935587,Engelska Skolan i Enskede gr,1,6,16
73893187,maria elementarskola,1,6,16
42328518,Franska Skolan/Ecole francaise,1,6,16
29371242,Campus Manilla,1,2,50
72624886,Internationella Engelska Skolan Liljeholmen,1,2,50
65487837,Futuraskolan Stockholm,1,3,33
24172067,Kulturskolan Raketen,1,5,20
36281817,höglandsskolan,1,6,16
