count,school_kod,school_name
6,86597125,hässelby villastads skola
6,72672270,aspuddens skola
6,38935587,Engelska Skolan i Enskede gr
6,29410344,Kungsholmens grundskola
6,98760751,"Kristofferskolan, gr"
6,21724208,sätraskolan
6,44673074,abrahamsbergsskolan
6,90711097,Al-Azharskolan
6,53075005,Skarpnäcks skola
6,86086213,Sofiaängens skola
6,43088454,björkhagens skola
6,46581319,Lillholmsskolan
6,23414344,Skolgrunden
6,15594566,äppelviksskolan
6,79969356,Europaskolan Södermalm
6,69895255,Mariaskolan
6,45436515,sofia skola
6,82838118,alla nationers fria skola
6,97683561,johan skytteskolan
6,82854505,martinskolan söders waldorfsk
6,63954028,Kunskapsskolan Fruängen
6,94943347,S:t Eriks Katolska Skola
6,87838841,hässelbygårdsskolan
6,38096510,Magelungens grundskola Älvsjö
6,23066257,Kulturama gr. Hammarby Sjöstad
6,35547286,carlssons skola
6,72627865,alviksskolan
6,57184925,hökarängsskolan
6,91816093,Sturebyskolan
6,91352227,Studemaskolan
6,77656740,Alzahraa Idealiska akademi
6,81266343,Kunskapsskolan Tyresö
6,24716970,högalidsskolan
6,16426165,Kunskapsskolan Enskede
6,43632318,Enbacksskolan
6,46796995,Kunskapsskolan Spånga
6,26568390,Primaskolan Farsta
6,35784391,DiStra resursenhet City
6,64736967,Västbergaskolan
6,29796042,Tornadoskolan
6,35890890,Västerholms friskola
6,37796564,Akalla grundskola F-9
6,13124830,sjöängsskolan
6,88795871,Södra Ängby skola
6,23617768,Katarina Norra skola
6,97686250,rödabergsskolan
6,69266159,Hjulsta grundskola F-9
6,46165232,mälarhöjdens skola
6,82448624,Tasava skola
6,16348406,matteusskolan
6,50060022,Smedshagsskolan
6,19657993,"Fryshusets grundskola, Sthlm"
6,36066067,musikskolan lilla akademien
6,99648792,adolf fredriks musikklasser
6,13679897,bagarmossens skola
6,87521048,engelbrektsskolan
6,92127007,Dialogskolan
6,42149666,Husbygårdsskolan F-9
6,78508835,Sverigefinska skolan Sthlm
6,82110758,hagsätraskolan
6,59900714,Vittra Södermalm
6,92750123,"Enskilda gymnasiet, gr"
6,44046131,sundbyskolan
6,19353396,fruängens skola
6,90850620,Grundskolan Metapontum
6,37416253,rinkebyskolan
6,75656508,Vasastans Montessoriskola
6,73893187,maria elementarskola
6,72509254,Lunaskolan
6,15331669,Sjöstadsskolan
6,83828066,Nya Elementar
6,41176931,gärdesskolan
6,34540901,Estniska Skolan i Stockholm
6,57510246,snitz grundskola odenplan
6,20683111,bäckahagens skola
6,38758770,Farsta grundskola
6,72248694,enskede skola
6,10360193,Profilskolan
6,14472068,Södermalmskyrkans Kristna sk.
6,48328583,årstaskolan
6,90732940,Engelska Skolan i Bromma
6,75614609,Södermalmsskolan
6,93412255,gubbängsskolan
6,14121892,bredängsskolan
6,28778917,Vittra Sjöstaden
6,16061350,Beta School
6,94864296,åsö grundskola
6,17640364,"Spånga gymnasium, grundskolan"
6,70329261,Hägerstensåsens skola
6,89605548,Trollbodaskolan
6,28138418,Vintertullsskolan i Stockholm
6,74482611,Engelska skolan i Hässelby
6,52863414,vasa real
6,82140090,Blommensbergsskolan
6,59468219,Slättgårdsskolan
6,59249600,eriksdalsskolan
6,42328518,Franska Skolan/Ecole francaise
6,63321041,Kungliga Svenska Balettskolan
6,36281817,höglandsskolan
6,61686233,rålambshovsskolan
6,51341279,grimstaskolan
6,11532790,Elma School
6,36031993,vällingbyskolan
5,16394249,Ellen Key skolan
5,24172067,Kulturskolan Raketen
5,98705470,Sv Interkulturella grundskolan
5,66455663,Novia Engelska skolan
5,11442396,Stockholm Internat. Academy
5,24671487,Kunskapsskolans Resursskola
5,87377212,JENSEN grundskola Vasastan Sthlm
5,29725531,Engelska Skolan Norr
5,72684556,Framstegsskolan i Stockholm
5,64065082,fredrikshovs slotts skola
5,45553352,Sthlms Int. Montessoriskola
5,67731691,Lunaskolan Södra
5,57034070,MBC skolan Södermalm
5,93301103,Aspdammskolan
5,53147557,stefanskolan
4,50848996,Raoul Wallenbergskolan Bromma
4,72066571,Internationella Engelska Skolan Skärholmen
4,97400863,Vinsta grundskola västra
4,22513261,Kista grundskola
4,84585645,Djurgårdens Waldorfskola
4,82075850,Skarpatorpsskolan
4,64167206,Hammarbyskolan
4,53398338,Klara Privata Gr. Södermalm
4,37556682,Kista International School
4,60308449,Skarpnäcks Fria skola
3,34047582,"Stockholms Rh-gymnasium, grund"
3,34880783,DiStra resursenhet-söder
3,76324672,DiStra Resursenhet Väst
3,98098631,Kunskapsskolan Kista
3,26172429,International School of the Stockholm Region
3,43367445,Gullvivaskolan
3,14945659,Almaskolan
3,67662754,Vittra Telefonplan
3,65487837,Futuraskolan Stockholm
3,87999453,Klara Privata Gr. Kungsholmen
2,34671128,solbergaskolan
2,18064456,Söderholmsskolan
2,60382920,Rågsvedsskolan
2,95801750,Tätorpsskolan
2,11218326,ärvingeskolan
2,23618510,Nytorpsskolan
2,82850292,Vinstagårdsskolan
2,43134105,Cordoba International School
2,52965560,Europaskolan i Vasastan
2,72624886,Internationella Engelska Skolan Liljeholmen
2,11018018,Pops Academy
2,17526606,Akademiska Skolan i Kista
2,86758230,Viktor Rydbergs skola Vasastan
2,29371242,Campus Manilla
2,82982309,Internationella Engelska Skolan Kista
2,57317316,JENSEN grundskola Stockholm
2,69004747,Fryshuset Grundskola Västra
1,14283912,Nya Broskolan
1,27287797,bredbyskolan
1,17644819,Olympen Svea
1,76952966,skanskvarnsskolan
1,40610606,Lycée Francais Saint Louis
1,39171821,Örbyskolan
1,13582062,Järvaskolan
