count,school_kod,school_name
20,92750123,"Enskilda gymnasiet, gr"
20,99648792,Adolf Fredriks musikklasser
20,35547286,Carlssons skola
20,42328518,Franska Skolan/Ecole francaise
17,64065082,Fredrikshovs slotts skola
17,36281817,Höglandsskolan
16,36066067,Musikskolan Lilla Akademien
15,73893187,Maria Elementarskola
14,97686250,Rödabergsskolan
11,15594566,Äppelviksskolan
11,29725531,Engelska Skolan Norr
10,79969356,Europaskolan på Södermalm
10,38935587,Engelska Skolan i Enskede gr
7,90732940,Engelska Skolan i Bromma
6,14472068,Södermalmskyrkans Kristna sk.
6,41176931,Gärdesskolan
6,46165232,Mälarhöjdens skola
5,34540901,Estniska Skolan i Stockholm
5,87521048,Engelbrektsskolan
4,63321041,Kungl. Svenska Balettskolan gr
3,45553352,Sthlms Int. Montessoriskola
2,78508835,Sverigefinska skolan Sthlm
2,24172067,Kulturskolan Raketen
2,72248694,Enskede skola
1,52965560,Europaskolan i Vasastan
1,29371242,Campus Manilla
1,65487837,Futuraskolan Stockholm
1,11018018,Pops Academy
1,52863414,Vasa Real
1,90850620,Grundskolan Metapontum
1,59900714,Vittra Södermalm
1,16394249,Ellen Key skolan
1,29796042,Tornadoskolan AB
1,91352227,Studemaskolan
1,74482611,Engelska skolan i Hässelby
1,94943347,S:t Eriks Katolska Skola
