count,school_kod,school_name
8,92750123,"Enskilda gymnasiet, gr"
6,79969356,Europaskolan på Södermalm
6,35547286,Carlssons skola
5,36066067,Musikskolan Lilla Akademien
3,97686250,Rödabergsskolan
3,64065082,Fredrikshovs slotts skola
3,26172429,International School of the Stockholm Region
2,90850620,Grundskolan Metapontum
2,52965560,Europaskolan i Vasastan
2,45553352,Sthlms Int. Montessoriskola
2,15594566,Äppelviksskolan
1,38935587,Engelska Skolan i Enskede gr
1,73893187,Maria Elementarskola
1,42328518,Franska Skolan/Ecole francaise
1,34540901,Estniska Skolan i Stockholm
1,29371242,Campus Manilla
1,72624886,Internationella Engelska Skolan Liljeholmen
1,65487837,Futuraskolan Stockholm
1,74482611,Engelska skolan i Hässelby
