school_kod,school_name,best_cnt,total_cnt,percent
92750123,"Enskilda gymnasiet, gr",19,21,90
64065082,fredrikshovs slotts skola,9,20,45
36066067,musikskolan lilla akademien,7,17,41
36281817,höglandsskolan,5,21,23
42328518,Franska Skolan/Ecole francaise,4,21,19
99648792,adolf fredriks musikklasser,3,21,14
35547286,carlssons skola,3,21,14
45553352,Sthlms Int. Montessoriskola,3,5,60
79969356,Europaskolan Södermalm,2,16,12
73893187,maria elementarskola,2,21,9
11018018,Pops Academy,1,2,50
52965560,Europaskolan i Vasastan,1,2,50
90732940,Engelska Skolan i Bromma,1,13,7
29371242,Campus Manilla,1,2,50
34540901,Estniska Skolan i Stockholm,1,21,4
29725531,Engelska Skolan Norr,1,16,6
