﻿Kommun;Skola;Typ av huvudman;Huvudman;Skol-enhetskod;Antal elever;Genomsnittligt meritvärde (16);Andel som uppnått kunskapskraven i alla ämnen;Andel (%) behörig yrkesprog.;
Botkyrka;Björkhaga Skola;Kommunal;Botkyrka;43238662;80;214,7;70,0;78,8;
Botkyrka;Botkyrka Friskola F-9;Enskild;JPK Education AB;80378022;49;238,3;71,4;81,6;
Botkyrka;Broängsskolan;Kommunal;Botkyrka;38661388;85;233,2;80,0;92,9;
Botkyrka;Brunnaskolan;Kommunal;Botkyrka;53426548;50;218,8;62,0;82,0;
Botkyrka;Falkbergsskolan;Kommunal;Botkyrka;85558618;103;242,2;79,6;87,4;
Botkyrka;Falkbergsskolan 1GR;Kommunal;Botkyrka;23477041;..;..;..;..;
Botkyrka;Fittjaskolan Botkyrka Norra;Kommunal;Botkyrka;40631085;73;172,7;43,8;60,3;
Botkyrka;Freinetskolan Kastanjen;Enskild;Freinetskolan Kastanjen Ekonomisk Förening;29524966;15;173,2;..;..;
Botkyrka;Grindtorpsskolan;Kommunal;Botkyrka;57228484;51;180,0;43,1;62,7;
Botkyrka;Hammerstaskolan;Kommunal;Botkyrka;25918983;42;220,8;71,4;83,3;
Botkyrka;Hammerstaskolan 1GR;Kommunal;Botkyrka;54270895;..;..;.;.;
Botkyrka;Karsby International School;Kommunal;Botkyrka;67742754;54;173,8;35,2;59,3;
Botkyrka;Kunskapsskolan Tumba;Enskild;Kunskapsskolan I Sverige Aktiebolag;84411355;68;243,2;89,7;91,2;
Botkyrka;Kvarnhagsskolan;Kommunal;Botkyrka;56417100;47;224,1;63,8;83,0;
Botkyrka;Malmsjö skola;Kommunal;Botkyrka;86985859;50;236,1;86,0;~100;
Botkyrka;Storvretskolan;Kommunal;Botkyrka;18534178;19;195,0;68,4;73,7;
Botkyrka;Storvretskolan 1GR;Kommunal;Botkyrka;16223141;..;..;..;..;
Botkyrka;Sverigefinska skolan, Botkyrka;Enskild;Sverigefinska Skolan I Botkyrka Aktiebolag;57850353;..;..;..;..;
Botkyrka;Trädgårdsstadsskolan;Kommunal;Botkyrka;58310322;83;260,2;94,0;~100;
Botkyrka;Tunaskolan;Kommunal;Botkyrka;36350546;51;207,2;62,7;76,5;
Danderyd;Fribergaskolan;Kommunal;Danderyd;42986451;168;271,1;94,0;95,8;
Danderyd;Mörbyskolan;Kommunal;Danderyd;97174070;168;262,2;91,1;92,9;
Danderyd;Viktor Rydbergs Samskola;Enskild;Stiftelsen Viktor Rydbergs Skola;13493243;181;275,6;93,4;~100;
Ekerö;Birkaskolan;Enskild;Mälaröarnas Montessori, Ek. För.;27595656;32;279,1;96,9;100,0;
Ekerö;Tappströmsskolan;Kommunal;Ekerö;52217632;166;250,0;86,7;89,8;
Ekerö;Träkvista skola;Kommunal;Ekerö;66475520;44;252,2;95,5;~100;
Ekerö;Uppgårdskolan;Kommunal;Ekerö;95057356;101;233,4;86,1;91,1;
Haninge;Brandbergsskolan;Kommunal;Haninge;73184968;45;193,2;44,4;82,2;
Haninge;Dalarö skola;Kommunal;Haninge;47640376;21;254,8;85,7;~100;
Haninge;Deltaskolan;Enskild;Deltaskolan AB;73926940;39;220,9;76,9;~100;
Haninge;Funkis skola;Enskild;Funktionsanalys i Skolan Stockholm AB;14845171;..;..;.;..;
Haninge;HagaLyckebyskolan;Kommunal;Haninge;81680693;51;217,5;72,5;~100;
Haninge;Ribbyskolan;Kommunal;Haninge;59497255;170;227,5;81,2;90,0;
Haninge;Rudanskolan;Enskild;Pysslingen Förskolor Och Skolor Ab;17957898;118;249,4;92,4;~100;
Haninge;Söderbymalmsskolan;Kommunal;Haninge;10035236;146;206,8;61,0;76,7;
Haninge;Tungelsta skola;Kommunal;Haninge;38975788;95;222,9;80,0;87,4;
Haninge;Utö skola;Kommunal;Haninge;47140640;..;..;..;..;
Haninge;Vendelsömalmsskolan;Kommunal;Haninge;72266104;76;200,7;67,1;80,3;
Huddinge;Annerstaskolan;Kommunal;Huddinge;79012683;94;191,4;56,4;66,0;
Huddinge;Balingsnässkolan;Kommunal;Huddinge;13654969;60;224,1;86,7;90,0;
Huddinge;Edboskolan;Kommunal;Huddinge;98477278;83;269,8;89,2;91,6;
Huddinge;Internationella Engelska Skolan Huddinge;Enskild;Internationella Engelska Skolan i Sverige AB;97942210;153;276,3;90,8;~100;
Huddinge;Kungsklippeskolan;Kommunal;Huddinge;89510449;57;262,6;96,5;~100;
Huddinge;Kvarnbergsskolan;Kommunal;Huddinge;54516737;211;226,9;84,8;89,6;
Huddinge;Källbrinksskolan;Kommunal;Huddinge;41213404;124;244,5;91,1;95,2;
Huddinge;Segeltorpsskolan;Kommunal;Huddinge;15483394;87;216,5;75,9;75,9;
Huddinge;Södertörns friskola;Enskild;Södertörns Friskola Ekonomisk Förening;22019000;126;259,2;84,9;~100;
Huddinge;Trångsundsskolan;Kommunal;Huddinge;42601396;80;214,1;67,5;77,5;
Huddinge;Vistaskolan;Kommunal;Huddinge;50783450;62;230,7;75,8;83,9;
Huddinge;Vårbyskolan;Kommunal;Huddinge;64949601;29;196,7;55,2;65,5;
Huddinge;Östra grundskolan;Kommunal;Huddinge;39229061;91;228,0;74,7;80,2;
Järfälla;Björkebyskolan;Kommunal;Järfälla;40847752;142;224,5;75,4;80,3;
Järfälla;Engelska Skolan i Järfälla;Enskild;Internationella Engelska Skolan i Sverige AB;79093755;152;266,5;95,4;~100;
Järfälla;Fjällenskolan;Kommunal;Järfälla;15080815;110;233,3;74,5;95,5;
Järfälla;Kvarnskolan;Kommunal;Järfälla;77763178;95;220,6;74,7;78,9;
Järfälla;Källtorpskolan;Kommunal;Järfälla;17287315;104;195,9;65,4;76,0;
Järfälla;Tallbohovskolan;Kommunal;Järfälla;97777849;65;163,5;35,4;35,4;
Järfälla;Viksjöskolan;Kommunal;Järfälla;98925408;186;239,9;80,1;88,2;
Järfälla;Vittra Jakobsberg;Enskild;Vittraskolorna AB;66634449;51;261,4;88,2;90,2;
Lidingö;Bodals skola;Kommunal;Lidingö;98780182;19;222,2;73,7;~100;
Lidingö;Christinaskolan;Enskild;Lidingö Skola AB;46097781;53;270,0;94,3;100,0;
Lidingö;Futuraskolan International Lidingö;Enskild;Futuraskolan Ab;36276828;50;268,9;94,0;~100;
Lidingö;Högsätra skola;Kommunal;Lidingö;49631077;70;264,4;92,9;92,9;
Lidingö;Källängens skola;Kommunal;Lidingö;69329486;126;272,6;99,2;~100;
Lidingö;Käppala skola;Kommunal;Lidingö;20137688;72;269,6;91,7;~100;
Lidingö;Torsviks skola 7-9;Kommunal;Lidingö;45104329;113;264,6;92,9;~100;
Lidingö;Vittra på Lidingö;Enskild;Vittraskolorna AB;46585145;13;267,5;84,6;~100;
Nacka;Akademiska skolan;Enskild;Frihab AB;41408780;..;..;..;..;
Nacka;Björknässkolan;Kommunal;Nacka;75834458;135;242,1;75,6;88,1;
Nacka;Eklidens skola;Kommunal;Nacka;47243834;230;272,0;91,3;94,3;
Nacka;Engelska Skolan i Nacka;Enskild;Internationella Engelska Skolan i Sverige AB;74358019;147;286,3;95,9;100,0;
Nacka;Idunskolan Östra Stockholms Waldorfskola;Enskild;Idunstiftelsen För Waldorfpedagogik;44373961;13;290,6;100,0;100,0;
Nacka;Johannes Petri skola;Enskild;Pysslingen Förskolor Och Skolor Ab;32965692;73;260,1;89,0;91,8;
Nacka;Kunskapsskolan Nacka;Enskild;Kunskapsskolan I Sverige Aktiebolag;87425546;97;282,3;100,0;100,0;
Nacka;Kunskapsskolan Saltsjöbaden;Enskild;Kunskapsskolan I Sverige Aktiebolag;11496096;43;295,5;95,3;~100;
Nacka;Maestroskolan Nacka;Enskild;Maestro Svindersvik Aktiebolag;64065898;12;259,6;100,0;100,0;
Nacka;Montessoriskolan Castello;Enskild;Pysslingen Förskolor Och Skolor Ab;34135484;32;241,6;78,1;84,4;
Nacka;Myrsjöskolan;Kommunal;Nacka;84884375;193;272,7;94,8;96,9;
Nacka;Saltsjöbadens samskola;Kommunal;Nacka;11777750;77;273,8;94,8;~100;
Nacka;Skuru skola;Kommunal;Nacka;85321366;93;268,3;93,5;~100;
Nacka;Snitz Grundskola Nacka;Enskild;Pps Power Planning System Aktiebolag;82438535;12;118,4;..;..;
Nacka;Stavsborgsskolan;Kommunal;Nacka;14040970;82;249,2;85,4;91,5;
Nacka;Vittra Saltsjö-Boo;Enskild;Vittraskolorna AB;44802890;14;151,6;..;..;
Norrtälje;Balders Hus;Enskild;Utvecklingspedagogik Sverige Aktiebolag;56662185;..;.;.;.;
Norrtälje;Bålbro skola;Kommunal;Norrtälje;45874608;57;220,8;71,9;77,2;
Norrtälje;Ekebyholmsskolan, gr;Enskild;Ekebyholmsskolan Aktiebolag;98239828;17;256,8;88,2;100,0;
Norrtälje;Freinetskolan Hugin;Enskild;Freinetskolan Hugin Ekonomisk förening;89692072;25;250,0;92,0;~100;
Norrtälje;Freinetskolan Mimer;Enskild;Freinetskolan Mimer ekonomisk förening;45133950;24;266,4;95,8;100,0;
Norrtälje;Hallsta skola;Kommunal;Norrtälje;24146389;74;223,5;70,3;79,7;
Norrtälje;Långsjöskolan;Kommunal;Norrtälje;99749462;60;191,6;55,0;68,3;
Norrtälje;Länna skola;Kommunal;Norrtälje;72471883;50;194,3;66,0;80,0;
Norrtälje;Montessoriskolan - Gustafslund;Enskild;Montessori i Norrtälje AB;26281697;16;244,1;68,8;~100;
Norrtälje;Norrsundsskolan;Kommunal;Norrtälje;39351914;26;223,5;69,2;80,8;
Norrtälje;Roslagsskolan;Kommunal;Norrtälje;31851256;191;222,8;74,3;84,3;
Norrtälje;Rådmansö skola;Kommunal;Norrtälje;50905672;24;228,8;83,3;~100;
Norrtälje;Svanbergaskolan;Kommunal;Norrtälje;59975651;49;220,4;77,6;83,7;
Norrtälje;Viby friskola;Enskild;Ogenholts Friskola Ab;54806839;14;229,6;78,6;100,0;
Nykvarn;Lillhagaskolan;Kommunal;Nykvarn;99640618;145;240,6;89,7;93,8;
Nynäshamn;Gröndalsskolan F-9;Kommunal;Nynäshamn;65717061;88;199,9;65,9;77,3;
Nynäshamn;Sunnerbyskolan F-9;Kommunal;Nynäshamn;78703073;67;219,1;80,6;86,6;
Nynäshamn;Vanstaskolan 4-9;Kommunal;Nynäshamn;73184416;59;201,8;61,0;71,2;
Nynäshamn;Viaskolan 6-9;Kommunal;Nynäshamn;34814578;58;233,0;86,2;~100;
Salem;Nytorpsskolan;Kommunal;Salem;36262199;24;258,0;87,5;~100;
Salem;Rönninge skola;Kommunal;Salem;71677992;52;258,6;90,4;~100;
Salem;Skogsängsskolan;Kommunal;Salem;58385274;52;237,5;84,6;88,5;
Salem;Säbyskolan;Kommunal;Salem;92406445;53;226,9;88,7;~100;
Salem;Söderby friskola;Enskild;Söderby Friskola Ekonomisk Förening;56858061;27;232,0;88,9;~100;
Sigtuna;Ekillaskolan;Kommunal;Sigtuna;14261356;140;198,8;65,0;74,3;
Sigtuna;Josefinaskolan, grundskola;Enskild;Stiftelsen Josefinaskolan;55508705;26;246,3;92,3;~100;
Sigtuna;Sigtunaskolan hum. läroverket, gr;Enskild;Sigtuna Skolstiftelse;70883860;48;253,5;89,6;~100;
Sigtuna;Sigtunaskolan hum. läroverket, int gr;Enskild;Sigtuna Skolstiftelse;47969716;39;.;.;.;
Sigtuna;Skolan Bergius;Enskild;Sigtuna Friskola AB;35008423;63;260,7;95,2;~100;
Sigtuna;S:t Olofs skola;Kommunal;Sigtuna;13579948;154;223,1;85,1;87,0;
Sigtuna;Valstaskolan 7-9;Kommunal;Sigtuna;61234191;83;175,5;47,0;55,4;
Sollentuna;Brage- skola och språkförskola;Kommunal;Sollentuna;12092203;11;206,6;..;..;
Sollentuna;Edsbergsskolan;Kommunal;Sollentuna;38076081;125;255,1;81,6;89,6;
Sollentuna;Futuraskolan Hertig Karl;Enskild;Futuraskolan Ab;40467992;25;234,2;84,0;~100;
Sollentuna;Futuraskolan Rådan;Enskild;Futuraskolan Ab;47986219;26;295,6;96,2;~100;
Sollentuna;Förberedelseklasser Sofielundsskolan;Kommunal;Sollentuna;91113722;..;..;.;.;
Sollentuna;Gärdesskolan;Kommunal;Sollentuna;77585025;62;269,1;98,4;100,0;
Sollentuna;Helenelundsskolan;Kommunal;Sollentuna;15572902;122;270,4;94,3;~100;
Sollentuna;Helenelundsskolan Förberedelseklasser;Kommunal;Sollentuna;42651404;..;..;.;.;
Sollentuna;Häggviksskolan;Kommunal;Sollentuna;96594250;42;206,4;47,6;71,4;
Sollentuna;Häggviksskolan Förberedelseklasser;Kommunal;Sollentuna;37460427;..;..;.;.;
Sollentuna;Mikaelskolan;Enskild;Föreningen Mikaelskolan;85777315;22;274,9;90,9;~100;
Sollentuna;Norrvikens skola;Enskild;Norrviken Utbildning AB;47462120;52;266,4;94,2;~100;
Sollentuna;Runbacka skolor/Fenix;Kommunal;Sollentuna;43236825;..;..;..;..;
Sollentuna;Runbacka skolor/Runan;Kommunal;Sollentuna;62737044;56;272,9;96,4;~100;
Sollentuna;Sofielundsskolan;Kommunal;Sollentuna;68288321;54;246,2;75,9;~100;
Sollentuna;Sollentuna International school;Kommunal;Sollentuna;27740655;23;256,8;91,3;~100;
Sollentuna;Sollentuna International School RN;Kommunal;Sollentuna;91730309;..;..;..;..;
Sollentuna;Sollentuna musikklasser;Kommunal;Sollentuna;21871265;60;293,3;100,0;100,0;
Sollentuna;Utbildning Rotebro/Gillboskola;Kommunal;Sollentuna;59955409;59;239,9;84,7;91,5;
Sollentuna;Utbildning Silverdal Förberedelseklasser;Kommunal;Sollentuna;68837718;..;..;.;.;
Sollentuna;Utbildning Silverdal, gr;Kommunal;Sollentuna;67346137;52;269,0;96,2;~100;
Sollentuna;Utbildning Silverdal, gr asp;Kommunal;Sollentuna;76880740;12;189,8;..;..;
Sollentuna;Vibyskolan;Enskild;Vibyskolan Ekonomisk Förening;15547680;56;265,1;100,0;100,0;
Sollentuna;Vittra Sollentuna;Enskild;Vittraskolorna AB;58102266;35;247,7;65,7;77,1;
Solna;Alfaskolan;Enskild;Pysslingen Förskolor Och Skolor Ab;27323097;56;287,9;96,4;100,0;
Solna;Bergshamraskolan;Kommunal;Solna;43133926;40;226,4;62,5;80,0;
Solna;Ingridskolan, grundskola;Enskild;Ingridskolan Ab;53259263;15;199,5;..;~100;
Solna;Magelungens grundskola Solna;Enskild;Magelungen Utveckling AB;48791751;11;..;..;..;
Solna;Råsundaskolan;Kommunal;Solna;12768012;108;229,1;78,7;87,0;
Solna;Skytteholmsskolan;Kommunal;Solna;75017455;47;205,3;66,0;78,7;
Solna;Svedenskolan Bergshamra;Enskild;Utvecklingspedagogik Sverige Aktiebolag;89893224;..;..;..;..;
Solna;Tallbackaskolan;Kommunal;Solna;73581523;45;218,3;66,7;86,7;
Solna;Ulriksdalsskolan;Kommunal;Solna;46706680;44;232,3;72,7;88,6;
Solna;Vittra Frösunda;Enskild;Vittraskolorna AB;48760074;37;269,5;83,8;~100;
Solna;Ängkärrskolan i Solna;Enskild;Stiftelsen Nya Ängkärrsskolan;98515782;34;176,9;52,9;67,6;
Stockholm;Abrahamsbergsskolan;Kommunal;Stockholm;44673074;89;284,7;96,6;~100;
Stockholm;Adolf Fredriks musikklasser;Kommunal;Stockholm;99648792;194;286,9;95,4;95,4;
Stockholm;Akademiska Skolan i Kista;Enskild;Frihab AB;17526606;17;85,8;..;..;
Stockholm;Akalla grundskola F-9;Kommunal;Stockholm;37796564;49;231,8;75,5;81,6;
Stockholm;Al-Azharskolan;Enskild;Al-Azhar Stiftelsen;90711097;42;243,2;76,2;~100;
Stockholm;Alla Nationers Fria Skola;Enskild;Ideella Föreningen För Alla Nationers Fria Skola;82838118;16;108,4;..;..;
Stockholm;Almaskolan;Enskild;Almaskolan AB;14945659;38;249,5;97,4;~100;
Stockholm;Alviksskolan;Kommunal;Stockholm;72627865;84;236,9;78,6;81,0;
Stockholm;Alzahraa Akademi;Enskild;Al-Zahraa Akademi AB;77656740;21;192,0;47,6;71,4;
Stockholm;Aspdammskolan;Enskild;Aspdammskolan AB;93301103;..;..;..;..;
Stockholm;Aspuddens skola;Kommunal;Stockholm;72672270;137;246,8;87,6;94,9;
Stockholm;Bagarmossens skola;Kommunal;Stockholm;13679897;63;217,5;71,4;81,0;
Stockholm;Beta School;Enskild;Betaschool Handelsbolag;16061350;..;..;..;..;
Stockholm;Björkhagens skola;Kommunal;Stockholm;43088454;101;238,2;85,1;88,1;
Stockholm;Blommensbergsskolan;Kommunal;Stockholm;82140090;180;248,8;80,6;86,1;
Stockholm;Bredängsskolan;Kommunal;Stockholm;14121892;45;203,8;68,9;80,0;
Stockholm;Bäckahagens skola;Kommunal;Stockholm;20683111;86;201,7;60,5;67,4;
Stockholm;Campus Manilla;Enskild;Campus Manilla Utbildning AB;29371242;27;305,1;100,0;100,0;
Stockholm;Carlssons skola;Enskild;Föreningen För Carlssons Skola;35547286;65;292,4;98,5;~100;
Stockholm;Cordoba International School;Enskild;ALM Education AB;43134105;10;251,5;..;100,0;
Stockholm;Dialogskolan;Enskild;Stockholm Lära Aktiebolag;92127007;12;138,3;..;..;
Stockholm;Distra IRS;Enskild;Distans Strateg Sweden Ab;35784391;15;121,8;..;..;
Stockholm;Djurgårdens Waldorfskola;Enskild;Djurgårdens Waldorfskoleförening;84585645;20;242,3;85,0;~100;
Stockholm;Elma School;Enskild;Elma School AB;11532790;..;..;..;..;
Stockholm;Enbacksskolan;Kommunal;Stockholm;43632318;41;232,3;82,9;85,4;
Stockholm;Engelbrektsskolan;Kommunal;Stockholm;87521048;158;256,8;84,8;89,9;
Stockholm;Engelska Skolan i Bromma;Enskild;Internationella Engelska Skolan i Sverige AB;90732940;155;306,6;96,8;~100;
Stockholm;Engelska Skolan i Enskede gr;Enskild;Internationella Engelska Skolan i Sverige AB;38935587;145;279,2;95,9;~100;
Stockholm;Engelska skolan i Hässelby;Enskild;Internationella Engelska Skolan i Sverige AB;74482611;90;286,0;92,2;~100;
Stockholm;Enskede skola;Kommunal;Stockholm;72248694;120;263,1;93,3;95,8;
Stockholm;Enskilda gymnasiet, gr;Enskild;Enskilda Gymnasiet;92750123;59;305,0;96,6;100,0;
Stockholm;Eriksdalsskolan;Kommunal;Stockholm;59249600;163;225,0;71,8;76,7;
Stockholm;Estniska Skolan i Stockholm;Enskild;Estniska Skolan I Stockholm;34540901;18;277,9;88,9;100,0;
Stockholm;Europaskolan i Vasastan;Enskild;AB Parts & Paomees;52965560;20;313,6;95,0;100,0;
Stockholm;Europaskolan Södermalm;Enskild;AB Parts & Paomees;79969356;40;284,8;90,0;100,0;
Stockholm;Farsta grundskola;Kommunal;Stockholm;38758770;51;199,2;51,0;66,7;
Stockholm;Filosofiska i Skarpnäck;Enskild;Filosofiska i Sverige AB (svb);60308449;11;226,4;..;~100;
Stockholm;Framstegsskolan i Stockholm;Enskild;Stiftelsen Islamiska Skolan;72684556;13;247,9;76,9;~100;
Stockholm;Franska Skolan/Ecole francaise;Enskild;Stiftelsen Franska Skolan;42328518;94;292,4;96,8;100,0;
Stockholm;Fredrikshovs slotts skola;Enskild;Stiftelsen Carpe Diem;64065082;31;304,8;100,0;100,0;
Stockholm;Fruängens skola;Kommunal;Stockholm;19353396;61;212,3;68,9;78,7;
Stockholm;Fryshuset Grundskola Västra;Enskild;Stiftelsen Fryshuset;69004747;29;158,4;..;75,9;
Stockholm;Fryshusets grundskola, Sthlm;Enskild;Stiftelsen Fryshuset;19657993;73;207,1;49,3;89,0;
Stockholm;Futuraskolan Stockholm;Enskild;Futuraskolan Ab;65487837;13;304,0;100,0;100,0;
Stockholm;Grimstaskolan;Kommunal;Stockholm;51341279;83;214,5;68,7;78,3;
Stockholm;Grundskolan Metapontum;Enskild;Metapontum Ab;90850620;17;284,7;100,0;100,0;
Stockholm;Gubbängsskolan;Kommunal;Stockholm;93412255;65;220,4;72,3;83,1;
Stockholm;Gullvivaskolan;Enskild;STEG för framtiden Aktiebolag;43367445;..;..;..;..;
Stockholm;Gärdesskolan;Kommunal;Stockholm;41176931;130;267,0;89,2;93,1;
Stockholm;Hagsätraskolan;Kommunal;Stockholm;82110758;62;197,7;46,8;56,5;
Stockholm;Hammarbyskolan;Kommunal;Stockholm;64167206;..;..;..;..;
Stockholm;Hjulsta grundskola F-9;Kommunal;Stockholm;69266159;77;127,4;20,8;37,7;
Stockholm;Husbygårdsskolan F-9;Kommunal;Stockholm;42149666;53;169,0;43,4;56,6;
Stockholm;Hägerstensåsens skola;Kommunal;Stockholm;70329261;..;..;..;..;
Stockholm;Hässelby Villastads skola;Kommunal;Stockholm;86597125;106;243,9;85,8;90,6;
Stockholm;Hässelbygårdsskolan;Kommunal;Stockholm;87838841;71;209,9;53,5;69,0;
Stockholm;Högalidsskolan;Kommunal;Stockholm;24716970;75;233,6;77,3;81,3;
Stockholm;Höglandsskolan;Kommunal;Stockholm;36281817;70;296,3;85,7;85,7;
Stockholm;Hökarängsskolan;Kommunal;Stockholm;57184925;86;227,5;69,8;86,0;
Stockholm;Internationella Engelska Skolan Kista;Enskild;Internationella Engelska Skolan i Sverige AB;82982309;29;269,7;75,9;~100;
Stockholm;Internationella Engelska Skolan Liljeholmen;Enskild;Internationella Engelska Skolan i Sverige AB;72624886;58;282,0;93,1;~100;
Stockholm;Internationella Engelska Skolan Skärholmen;Enskild;Internationella Engelska Skolan i Sverige AB;72066571;95;260,2;64,2;~100;
Stockholm;JENSEN grundskola Södermalm Sthlm;Enskild;Jensen Education College Ab;57317316;30;252,3;86,7;100,0;
Stockholm;JENSEN grundskola Vasastan Sthlm;Enskild;Jensen Education College Ab;87377212;56;248,8;76,8;~100;
Stockholm;Johan Skytteskolan;Kommunal;Stockholm;97683561;174;263,9;90,2;94,3;
Stockholm;Katarina Norra skola;Kommunal;Stockholm;23617768;75;251,0;86,7;93,3;
Stockholm;Kista grundskola;Kommunal;Stockholm;22513261;109;183,2;49,5;67,0;
Stockholm;Kista International School;Enskild;Al-Kowneyn Utbildning Centrum;37556682;23;252,6;60,9;~100;
Stockholm;Kristofferskolan, gr;Enskild;Stiftelsen Kristofferskolan;98760751;54;271,3;94,4;~100;
Stockholm;Kulturama gr. Hammarby Sjöstad;Enskild;Medborgarskolan Stockholmsregionen;23066257;119;274,5;89,9;~100;
Stockholm;Kulturskolan Raketen;Enskild;Kulturskolan Raketen Ab;24172067;24;265,8;95,8;100,0;
Stockholm;Kungliga Svenska Balettskolan;Kommunal;Stockholm;63321041;15;290,6;86,7;~100;
Stockholm;Kungsholmens grundskola;Kommunal;Stockholm;29410344;89;255,4;88,8;88,8;
Stockholm;Kunskapsskolan Enskede;Enskild;Kunskapsskolan I Sverige Aktiebolag;16426165;125;268,3;96,0;~100;
Stockholm;Kunskapsskolan Fruängen;Enskild;Kunskapsskolan I Sverige Aktiebolag;63954028;93;261,7;90,3;~100;
Stockholm;Kunskapsskolan Spånga;Enskild;Kunskapsskolan I Sverige Aktiebolag;46796995;120;259,2;95,8;~100;
Stockholm;Kunskapsskolan Tyresö;Enskild;Kunskapsskolan I Sverige Aktiebolag;81266343;143;273,3;93,7;~100;
Stockholm;Lillholmsskolan;Kommunal;Stockholm;46581319;57;209,0;66,7;77,2;
Stockholm;Lunaskolan Bromma;Enskild;Utvecklingspedagogik Sverige Aktiebolag;72509254;25;140,0;..;56,0;
Stockholm;Lunaskolan Södra;Enskild;Utvecklingspedagogik Sverige Aktiebolag;67731691;12;160,4;..;..;
Stockholm;Lycée Francais Saint Louis, gr;Enskild;Lycée Francais Saint-Louis;40610606;53;.;.;.;
Stockholm;Magelungens grundskola Södermalm;Enskild;Magelungen Utveckling AB;57034070;..;..;.;..;
Stockholm;Magelungens grundskola Älvsjö;Enskild;Magelungen Utveckling AB;38096510;14;..;.;..;
Stockholm;Maria Elementarskola;Enskild;Stiftelsen Maria Elementarskola;73893187;21;281,9;90,5;~100;
Stockholm;Mariaskolan;Kommunal;Stockholm;69895255;89;248,7;86,5;88,8;
Stockholm;Martinskolan Söders waldorfsk;Enskild;Stiftelsen Martinskolan Söders Waldorfskola;82854505;25;244,5;84,0;~100;
Stockholm;Matteusskolan;Kommunal;Stockholm;16348406;82;261,2;81,7;89,0;
Stockholm;Musikskolan Lilla Akademien;Enskild;Musikskolan Lilla Akademien Ab;36066067;30;301,9;93,3;100,0;
Stockholm;Mälarhöjdens skola;Kommunal;Stockholm;46165232;128;269,2;92,2;93,8;
Stockholm;Novia Engelska skolan;Enskild;Global Bridge i Sverige AB;66455663;13;244,4;..;~100;
Stockholm;Nya Elementar;Kommunal;Stockholm;83828066;150;273,8;91,3;92,7;
Stockholm;Pops Academy;Enskild;Johan Sjölin Education AB;11018018;16;294,5;100,0;100,0;
Stockholm;Primaskolan Farsta;Enskild;Primaskolan i Sverige AB;26568390;29;216,3;69,0;79,3;
Stockholm;Profilskolan;Enskild;Uni-Partner Aktiebolag;10360193;13;238,3;76,9;100,0;
Stockholm;Raoul Wallenbergskolan Bromma;Enskild;Raoul Wallenbergskolorna AB;50848996;49;255,3;77,6;77,6;
Stockholm;Rinkebyskolan;Kommunal;Stockholm;37416253;82;155,0;25,6;37,8;
Stockholm;Rålambshovsskolan;Kommunal;Stockholm;61686233;162;257,2;84,6;93,8;
Stockholm;Rödabergsskolan;Kommunal;Stockholm;97686250;75;271,1;80,0;82,7;
Stockholm;Sjöstadsskolan;Kommunal;Stockholm;15331669;88;235,4;81,8;87,5;
Stockholm;Sjöängsskolan;Kommunal;Stockholm;13124830;94;226,4;71,3;79,8;
Stockholm;Skanskvarnsskolan;Kommunal;Stockholm;76952966;..;..;..;..;
Stockholm;Skarpatorpsskolan;Kommunal;Stockholm;82075850;29;185,3;51,7;69,0;
Stockholm;Skarpnäcks skola;Kommunal;Stockholm;53075005;67;242,3;80,6;85,1;
Stockholm;Skolgrunden;Enskild;Skolgrunden Aktiebolag;23414344;10;169,3;..;..;
Stockholm;Slättgårdsskolan;Kommunal;Stockholm;59468219;55;200,8;70,9;76,4;
Stockholm;Smedshagsskolan;Kommunal;Stockholm;50060022;35;182,7;34,3;60,0;
Stockholm;Snitz Grundskola Odenplan;Enskild;Pps Power Planning System Aktiebolag;57510246;20;184,9;..;50,0;
Stockholm;Sofia skola;Kommunal;Stockholm;45436515;90;247,8;83,3;91,1;
Stockholm;Sofiaängens skola;Enskild;Sofiaängen AB;86086213;..;..;..;..;
Stockholm;Spånga grundskola;Kommunal;Stockholm;17640364;164;252,7;87,2;90,2;
Stockholm;S:t Eriks Katolska Skola;Enskild;Stiftelsen S:T Eriks Katolska Skola;94943347;23;229,3;65,2;73,9;
Stockholm;Stefanskolan;Enskild;Föreningen Stefanskolan;53147557;11;230,9;..;..;
Stockholm;Sthlms Int. Montessoriskola;Enskild;International Montessori School Sweden AB;45553352;52;279,3;96,2;~100;
Stockholm;Stift. Sthlm Intern. School gr;Enskild;The International School Of Stockholm;85670099;66;.;.;.;
Stockholm;Studemaskolan;Enskild;Föreningen Aktiva Studier /Fas/;91352227;..;..;..;..;
Stockholm;Sturebyskolan;Kommunal;Stockholm;91816093;120;258,5;82,5;88,3;
Stockholm;Sundbyskolan;Kommunal;Stockholm;44046131;56;235,4;71,4;78,6;
Stockholm;Sv Interkulturella grundskolan;Enskild;Interkulturell Utbildning i Stockholm AB;98705470;34;137,6;29,4;29,4;
Stockholm;Sverigefinska skolan Sthlm;Enskild;Sverigefinska skolan i Stockholm AB;78508835;40;268,3;82,5;~100;
Stockholm;Sätraskolan;Kommunal;Stockholm;21724208;59;224,1;71,2;86,4;
Stockholm;Södermalmskyrkans Kristna sk.;Enskild;Södermalmskyrkan;14472068;40;262,9;92,5;~100;
Stockholm;Södermalmsskolan;Kommunal;Stockholm;75614609;97;240,8;80,4;85,6;
Stockholm;Södra Ängby skola;Kommunal;Stockholm;88795871;119;245,0;80,7;86,6;
Stockholm;Tasava skola;Enskild;Nytida Tasava AB;82448624;..;..;.;..;
Stockholm;Thea Privata Grundskola Kungsholmen;Enskild;Theducation Ab;87999453;45;259,2;84,4;~100;
Stockholm;Thea Privata Grundskola Södermalm;Enskild;Theducation Ab;53398338;51;238,7;76,5;100,0;
Stockholm;Tornadoskolan AB;Enskild;Tornadoskolan AB;29796042;16;278,8;87,5;~100;
Stockholm;Trollbodaskolan;Kommunal;Stockholm;89605548;95;257,4;87,4;91,6;
Stockholm;Tyska skolan;Enskild;Tyska Skolföreningen;53175499;42;.;.;.;
Stockholm;Vasa Real;Kommunal;Stockholm;52863414;223;265,9;90,6;95,1;
Stockholm;Vasastans Montessoriskola;Enskild;Vasastans Montessoriförskola;75656508;14;278,0;92,9;~100;
Stockholm;Viktor Rydbergs skola Vasastan;Enskild;Stiftelsen Viktor Rydbergs Skola;86758230;96;257,9;99,0;~100;
Stockholm;Vinsta grundskola västra;Kommunal;Stockholm;97400863;83;243,0;69,9;84,3;
Stockholm;Vintertullsskolan i Stockholm;Enskild;Vintertullsskolan I Stockholm Aktiebolag;28138418;13;129,2;..;..;
Stockholm;Vittra Sjöstaden;Enskild;Vittraskolorna AB;28778917;20;250,0;90,0;~100;
Stockholm;Vittra Södermalm;Enskild;Vittraskolorna AB;59900714;29;235,0;86,2;~100;
Stockholm;Vittra Telefonplan;Enskild;Vittraskolorna AB;67662754;23;257,6;95,7;~100;
Stockholm;Vällingbyskolan;Kommunal;Stockholm;36031993;84;235,4;78,6;82,1;
Stockholm;Västbergaskolan;Enskild;Västbergaskolan Ab;64736967;63;256,5;93,7;~100;
Stockholm;Västerholms friskola;Enskild;Västerholms Friskola Ab;35890890;89;218,9;51,7;78,7;
Stockholm;Årstaskolan;Kommunal;Stockholm;48328583;73;206,0;71,2;82,2;
Stockholm;Åsö grundskola;Kommunal;Stockholm;94864296;177;233,2;76,8;82,5;
Stockholm;Äppelviksskolan;Kommunal;Stockholm;15594566;170;284,0;92,4;93,5;
Sundbyberg;Grönkullaskolan;Kommunal;Sundbyberg;93968806;57;162,8;29,8;47,4;
Sundbyberg;Kulturama Grundsk. Sundbyberg;Enskild;Medborgarskolan Stockholmsregionen;37112288;80;250,7;81,3;91,3;
Sundbyberg;Vittra Brotorp;Enskild;Vittraskolorna AB;43138370;17;268,1;94,1;100,0;
Sundbyberg;Älvkvarnsskolan;Enskild;Pysslingen Förskolor Och Skolor Ab;67788311;49;238,3;77,6;89,8;
Sundbyberg;Ängskolan 7-9;Kommunal;Sundbyberg;65775192;106;243,6;71,7;87,7;
Södertälje;Blombackaskolan;Kommunal;Södertälje;34148887;89;221,5;65,2;84,3;
Södertälje;Brunnsängskolan;Kommunal;Södertälje;60570294;83;226,5;75,9;88,0;
Södertälje;Fornbackaskolan;Kommunal;Södertälje;71992738;..;..;.;.;
Södertälje;Hovsjöskolan;Kommunal;Södertälje;82137009;47;206,1;59,6;76,6;
Södertälje;Hölöskolan;Kommunal;Södertälje;79466321;36;223,9;80,6;83,3;
Södertälje;Igelsta grundskola;Kommunal;Södertälje;75505688;33;204,7;57,6;60,6;
Södertälje;Järna friskola;Enskild;Järna Friskola Aktiebolag;41584790;23;292,3;100,0;100,0;
Södertälje;Järna grundskolor;Kommunal;Södertälje;97655739;87;217,0;72,4;80,5;
Södertälje;Kringlaskolan;Enskild;Kringlaskolan AB;74489639;53;223,0;79,2;86,8;
Södertälje;Lina grundskola;Kommunal;Södertälje;62288230;35;199,9;45,7;71,4;
Södertälje;Magelungens grundskola Södertälje;Enskild;Magelungen Utveckling AB;14872951;..;..;..;..;
Södertälje;Mariaskolan;Enskild;Föreningen Maria Magdalena;31528772;..;..;..;..;
Södertälje;Mikaelgården Läkeped. Institut;Enskild;Föreningen Mikaelgårdens Läkepedagogiska Inst;73075913;..;..;..;..;
Södertälje;Mora Parks skola;Enskild;Stiftelsen Mora Parks Läkepedagogiska Institut;26804905;..;..;.;.;
Södertälje;Nyckelskolan;Enskild;Nyckelknippan Förskole Aktiebolag;16068461;29;268,4;100,0;100,0;
Södertälje;Oxbacksskolan;Kommunal;Södertälje;99842607;57;228,2;80,7;87,7;
Södertälje;Pershagenskolan;Kommunal;Södertälje;38653015;40;214,8;67,5;~100;
Södertälje;Ronnaskolan;Kommunal;Södertälje;51210001;80;211,4;61,3;72,5;
Södertälje;Rosenborgskolan;Kommunal;Södertälje;11914814;101;214,9;72,3;82,2;
Södertälje;Soldalaskolan;Kommunal;Södertälje;40175889;58;224,1;79,3;87,9;
Södertälje;Solvikskolan;Enskild;Stödföreningen För Solvikskolan;45994471;..;..;..;..;
Södertälje;Södertälje friskola;Enskild;Södertälje Friskola Aktiebolag;38394561;28;241,7;92,9;~100;
Södertälje;Vittra Östertälje;Enskild;Vittraskolorna AB;12757193;49;260,8;98,0;~100;
Södertälje;Wasaskolan;Kommunal;Södertälje;56568612;72;223,2;55,6;81,9;
Södertälje;Örjanskolan grund;Enskild;Föreningen Örjanskolan;10661388;24;271,6;87,5;~100;
Tyresö;Dalskolan;Kommunal;Tyresö;56130729;78;225,6;71,8;84,6;
Tyresö;Internationella Engelska Skolan Tyresö;Enskild;Internationella Engelska Skolan i Sverige AB;60904587;59;277,0;83,1;~100;
Tyresö;Kumla skola;Kommunal;Tyresö;37147254;131;231,4;80,9;86,3;
Tyresö;Nyboda skola;Kommunal;Tyresö;31281674;111;175,4;44,1;62,2;
Tyresö;Strandskolan;Kommunal;Tyresö;87665835;66;251,7;86,4;92,4;
Tyresö;Tyresö skola;Kommunal;Tyresö;83020784;99;256,3;90,9;93,9;
Täby;Byängsskolan;Enskild;Byängsskolan AB;65839656;74;267,7;95,9;100,0;
Täby;Capellaskolan åk 4-9;Enskild;Roslagen Utbildning AB;17537852;..;..;.;.;
Täby;Engelska Skolan i Täby;Enskild;Internationella Engelska Skolan i Sverige AB;12332278;182;289,4;97,3;~100;
Täby;Futuraskolan Bergtorp;Enskild;Futuraskolan Ab;24142153;173;276,1;94,2;~100;
Täby;Helleborusskolan;Enskild;Helleborusskolan AB;45984740;37;145,0;..;56,8;
Täby;Kunskapsskolan Täby;Enskild;Kunskapsskolan I Sverige Aktiebolag;25309669;59;260,0;98,3;~100;
Täby;Mellansjö skola;Enskild;Nytida Enigma AB;54332921;10;..;..;..;
Täby;Milstensskolan;Enskild;Pysslingen Förskolor Och Skolor Ab;23312767;23;281,7;95,7;~100;
Täby;Nya Tidens Montessorisk. Täby;Enskild;Nya Tidens Montessoriskola I Täby Aktiebolag;89424201;27;290,6;96,3;~100;
Täby;Näsbydalskolan;Kommunal;Täby;22807677;112;264,5;88,4;~100;
Täby;Näsbyparksskolan;Kommunal;Täby;96330648;87;254,9;82,8;85,1;
Täby;Skarpängsskolan;Kommunal;Täby;83454509;149;257,1;91,3;94,0;
Täby;Skolhagenskolan;Kommunal;Täby;69088221;88;251,5;92,0;92,0;
Täby;Solhagaskolan Jag Kan;Enskild;Nytida Enigma AB;34125463;..;..;..;..;
Täby;Svalnäs skola;Enskild;Svalnäs, ekonomisk förening;84230778;..;..;.;..;
Täby;Täby Friskola-Enhagen;Enskild;Täby Friskola Aktiebolag;32231541;90;271,0;91,1;~100;
Täby;Vallatorpsskolan;Kommunal;Täby;57206066;27;192,6;55,6;63,0;
Upplands Väsby;Grimsta skola;Kommunal;Upplands Väsby;44227469;152;212,7;57,2;69,1;
Upplands Väsby;Runby skola;Kommunal;Upplands Väsby;77624936;58;231,6;75,9;82,8;
Upplands Väsby;Sandbergska Competens;Enskild;Sandbergska Competens AB;97762139;24;237,1;75,0;79,2;
Upplands Väsby;Sverigefinska sk, Uppl Väsby;Enskild;Stift Sverigefinska Skolan I Uppl-Väsby;68403656;..;..;..;..;
Upplands Väsby;Södervikskolan;Enskild;Södervikskolan AB;49021135;113;257,7;92,9;~100;
Upplands Väsby;Vikskolan;Enskild;Magnetica Education AB;60211862;18;250,8;77,8;~100;
Upplands Väsby;Vittra Väsby;Enskild;Vittraskolorna AB;24374886;24;208,9;66,7;79,2;
Upplands Väsby;Väsby skola;Kommunal;Upplands Väsby;31018677;85;232,6;71,8;82,4;
Upplands-Bro;Broskolan;Kommunal;Upplands-Bro;16983719;104;221,7;69,2;82,7;
Upplands-Bro;Ekhammarskolan;Kommunal;Upplands-Bro;92284588;110;242,3;87,3;91,8;
Upplands-Bro;Hagnässkolan;Kommunal;Upplands-Bro;16969143;47;245,4;89,4;~100;
Upplands-Bro;Källskolan Ekhammar;Enskild;Föreningen För Kristen Skola I Upplands-Bro;85796724;16;238,8;68,8;~100;
Vallentuna;Aktiviaskolan;Enskild;Aktivia AB;48184058;..;..;..;..;
Vallentuna;Bällstabergsskolan;Kommunal;Vallentuna;52293921;30;209,5;83,3;~100;
Vallentuna;Ekebyskolan;Kommunal;Vallentuna;78821726;28;245,4;89,3;~100;
Vallentuna;Hammarbacksskolan;Kommunal;Vallentuna;31772387;56;211,6;67,9;82,1;
Vallentuna;Hjälmstaskolan;Kommunal;Vallentuna;16855764;85;208,5;71,8;83,5;
Vallentuna;Karbyskolan;Kommunal;Vallentuna;57370453;16;233,9;93,8;~100;
Vallentuna;Lovisedalsskolan;Kommunal;Vallentuna;29278599;38;256,3;86,8;~100;
Vallentuna;Vallentuna Friskola;Enskild;Vallentuna Friskola Ab;72378947;52;251,3;92,3;~100;
Vallentuna;Vittra Vallentuna;Enskild;Vittraskolorna AB;46206050;24;277,3;100,0;100,0;
Vaxholm;Norrbergsskolan;Kommunal;Vaxholm;24710426;120;241,3;84,2;94,2;
Värmdö;Brunns skola;Kommunal;Värmdö;42434583;75;228,1;84,0;90,7;
Värmdö;Farstavikens skola;Kommunal;Värmdö;60624757;90;191,9;60,0;66,7;
Värmdö;Hemmestaskolan;Kommunal;Värmdö;24561769;120;227,9;80,0;90,8;
Värmdö;Lemshaga Akademi;Enskild;Lemshagastiftelsen;11364996;52;280,5;98,1;100,0;
Värmdö;Värmdö Skärgårdsskola;Kommunal;Värmdö;77630712;39;247,0;94,9;~100;
Värmdö;Ösbyskolan;Kommunal;Värmdö;88283203;78;258,5;88,5;92,3;
Österåker;Fredsborgskolan;Enskild;Lära i Österåker AB;43869172;55;272,4;94,5;~100;
Österåker;Ljusterö skola;Kommunal;Österåker;53319802;12;241,0;..;..;
Österåker;Prolympia, Åkersberga;Enskild;Prolympia AB;22738124;53;256,2;79,2;90,6;
Österåker;Skärgårdsstadsskolan;Kommunal;Österåker;73272488;49;250,5;81,6;~100;
Österåker;Solskiftesskolan;Kommunal;Österåker;82624830;90;231,5;77,8;87,8;
Österåker;Söraskolan;Kommunal;Österåker;88712672;68;231,9;80,9;~100;
Österåker;Tråsättraskolan;Kommunal;Österåker;51305351;85;251,8;89,4;92,9;