﻿Kommun;Skola;Typ av huvudman;Huvudman;Skol-enhetskod;Antal elever;Genomsnittligt meritvärde (16);Andel som uppnått kunskapskraven i alla ämnen;Andel (%) behörig yrkesprog.;
Botkyrka;Björkhaga Skola;Kommunal;Botkyrka;43238662;100;217,8;75,0;85,0;
Botkyrka;Björkhaga Skola 1GR;Kommunal;Botkyrka;30755074;..;..;.;..;
Botkyrka;Botkyrka Friskola F-9;Enskild;JPK Education AB;80378022;40;242,7;97,5;~100;
Botkyrka;Broängsskolan;Kommunal;Botkyrka;38661388;102;230,8;94,1;100,0;
Botkyrka;Brunnaskolan;Kommunal;Botkyrka;53426548;56;189,5;53,6;60,7;
Botkyrka;Falkbergsskolan;Kommunal;Botkyrka;85558618;107;222,6;75,7;91,6;
Botkyrka;Falkbergsskolan 1GR;Kommunal;Botkyrka;23477041;..;..;.;..;
Botkyrka;Fittjaskolan Botkyrka Norra;Kommunal;Botkyrka;40631085;81;170,1;39,5;67,9;
Botkyrka;Freinetskolan Kastanjen;Enskild;Freinetskolan Kastanjen Ek. För.;29524966;17;219,7;76,5;~100;
Botkyrka;Grindtorpsskolan;Kommunal;Botkyrka;57228484;63;129,9;19,0;52,4;
Botkyrka;Hammerstaskolan;Kommunal;Botkyrka;25918983;50;206,8;66,0;82,0;
Botkyrka;Karsby International School;Kommunal;Botkyrka;67742754;74;175,2;37,8;58,1;
Botkyrka;Kunskapsskolan Botkyrka;Enskild;Kunskapsskolan i Sverige AB;84411355;51;225,4;74,5;78,4;
Botkyrka;Kvarnhagsskolan;Kommunal;Botkyrka;56417100;39;226,3;89,7;~100;
Botkyrka;Malmsjö skola;Kommunal;Botkyrka;86985859;56;228,4;89,3;~100;
Botkyrka;Storvretskolan 1GR;Kommunal;Botkyrka;16223141;..;..;..;..;
Botkyrka;Sverigefinska skolan, Botkyrka;Enskild;Sverigefinska Skolan i Botkyrka AB;57850353;..;..;..;..;
Botkyrka;Trädgårdsstadsskolan;Kommunal;Botkyrka;58310322;59;218,8;83,1;~100;
Botkyrka;Tunaskolan;Kommunal;Botkyrka;36350546;52;166,3;53,8;63,5;
Danderyd;Fribergaskolan;Kommunal;Danderyd;42986451;160;247,1;95,0;~100;
Danderyd;Mörbyskolan;Kommunal;Danderyd;97174070;129;243,4;88,4;~100;
Danderyd;Snitz Mörby;Enskild;PPS Power Planning System AB;13475641;..;..;..;..;
Danderyd;Viktor Rydbergs Samskola;Enskild;Stiftelsen Viktor Rydbergs Skola;13493243;179;248,2;96,6;~100;
Ekerö;Birkaskolan;Enskild;Mälaröarnas Montessori, Ek. För.;27595656;30;262,5;93,3;~100;
Ekerö;Drottningholmskolan;Enskild;Drottningholmskolan, Mälaröarnas Waldorfskola;28231215;12;253,8;91,7;100,0;
Ekerö;Ekebyhovskolan;Kommunal;Ekerö;99373839;22;249,9;86,4;~100;
Ekerö;Sundsgården skola;Enskild;Frälsningsarmén;14571770;..;..;.;..;
Ekerö;Tappströmsskolan;Kommunal;Ekerö;52217632;102;231,2;84,3;89,2;
Ekerö;Träkvista skola;Kommunal;Ekerö;66475520;45;226,0;84,4;100,0;
Ekerö;Uppgårdskolan;Kommunal;Ekerö;95057356;79;221,6;92,4;~100;
Haninge;Brandbergsskolan;Kommunal;Haninge;73184968;69;200,2;63,8;73,9;
Haninge;Dalarö skola;Kommunal;Haninge;74610376;17;237,5;94,1;100,0;
Haninge;Deltaskolan;Enskild;Mia Lundberg;73926940;13;218,1;..;100,0;
Haninge;HagaLyckebyskolan;Kommunal;Haninge;81680693;63;224,1;87,3;90,5;
Haninge;Ribbyskolan;Kommunal;Haninge;59497255;135;210,2;73,3;83,0;
Haninge;Rudanskolan;Enskild;Pysslingen Förskolor och Skolor AB;17957898;101;216,8;77,2;92,1;
Haninge;Söderbymalmsskolan;Kommunal;Haninge;10035236;177;188,7;63,3;73,4;
Haninge;Tungelsta skola;Kommunal;Haninge;38975788;74;204,3;73,0;82,4;
Haninge;Utö skola;Kommunal;Haninge;86577795;..;..;..;..;
Haninge;Vendelsömalmsskolan;Kommunal;Haninge;72266104;85;201,7;75,3;89,4;
Huddinge;Annerstaskolan;Kommunal;Huddinge;79012683;95;215,3;77,9;84,2;
Huddinge;Balingsnässkolan;Kommunal;Huddinge;13654969;48;228,3;91,7;~100;
Huddinge;Edboskolan;Kommunal;Huddinge;98477278;86;233,9;93,0;~100;
Huddinge;Kungsklippeskolan;Kommunal;Huddinge;89510449;43;222,5;79,1;83,7;
Huddinge;Kvarnbergsskolan;Kommunal;Huddinge;54516737;192;221,2;87,0;90,6;
Huddinge;Källbrinksskolan;Kommunal;Huddinge;41213404;121;229,9;96,7;~100;
Huddinge;Rosenhillskolan;Kommunal;Huddinge;16654786;..;..;.;.;
Huddinge;Segeltorpsskolan;Kommunal;Huddinge;15483394;81;220,0;87,7;93,8;
Huddinge;Södertörns friskola;Enskild;Södertörns Friskola Ek. För.;22019000;106;238,8;85,8;95,3;
Huddinge;Tomtbergaskolan;Kommunal;Huddinge;28313791;42;207,0;66,7;81,0;
Huddinge;Trångsundsskolan;Kommunal;Huddinge;42601396;70;212,6;80,0;91,4;
Huddinge;Vistaskolan;Kommunal;Huddinge;50783450;46;238,9;93,5;~100;
Huddinge;Vårbyskolan;Kommunal;Huddinge;64949601;29;182,2;..;58,6;
Huddinge;Östra grundskolan;Kommunal;Huddinge;39229061;106;216,9;75,5;80,2;
Järfälla;Björkebyskolan;Kommunal;Järfälla;40847752;81;211,5;76,5;87,7;
Järfälla;Engelska Skolan i Järfälla;Enskild;Internationella Engelska Skolan i Sverige AB;79093755;120;246,9;94,2;~100;
Järfälla;Fjällenskolan;Kommunal;Järfälla;15080815;110;214,6;70,0;90,9;
Järfälla;Källtorpskolan;Kommunal;Järfälla;17287315;106;210,0;76,4;88,7;
Järfälla;Tallbohovskolan;Kommunal;Järfälla;97777849;69;181,7;46,4;62,3;
Järfälla;Viksjöskolan;Kommunal;Järfälla;98925408;180;219,2;78,3;90,0;
Järfälla;Vittra Jakobsberg;Enskild;Vittraskolorna AB;66634449;43;235,9;83,7;~100;
Lidingö;Bodals skola;Kommunal;Lidingö;98780182;30;236,9;80,0;~100;
Lidingö;Futuraskolan, Lidingö;Enskild;Futuraskolan AB;47937226;35;282,1;91,4;~100;
Lidingö;Högsätra skola 6-9;Kommunal;Lidingö;49631077;70;231,2;81,4;92,9;
Lidingö;Källängens skola;Kommunal;Lidingö;69329486;126;256,3;96,0;100,0;
Lidingö;Käppala skola 5-9;Kommunal;Lidingö;20137688;58;240,0;94,8;~100;
Lidingö;Torsviks skola 7-9;Kommunal;Lidingö;45104329;123;253,1;95,9;~100;
Lidingö;Vittra på Lidingö;Enskild;Vittraskolorna AB;46585145;18;250,6;100,0;100,0;
Nacka;Alphyddeskolan;Kommunal;Nacka;30066063;..;.;.;.;
Nacka;Björknässkolan;Kommunal;Nacka;75834458;125;237,6;84,8;95,2;
Nacka;Centrumskolan;Kommunal;Nacka;35986188;..;..;.;..;
Nacka;Eklidens skola;Kommunal;Nacka;47243834;207;245,7;89,9;93,7;
Nacka;Engelska Skolan i Nacka;Enskild;Internationella Engelska Skolan i Sverige AB;74358019;148;253,3;90,5;~100;
Nacka;Johannes Petri skola;Enskild;Pysslingen Förskolor och Skolor AB;32965692;67;249,0;95,5;~100;
Nacka;Kunskapsskolan Nacka;Enskild;Kunskapsskolan i Sverige AB;87425546;77;262,5;97,4;~100;
Nacka;Kunskapsskolan Saltsjöbaden;Enskild;Kunskapsskolan i Sverige AB;11496096;29;281,1;96,6;100,0;
Nacka;Maestroskolan Nacka;Enskild;Maestro Svindersvik AB;64065898;..;..;..;..;
Nacka;Montessorisk. Castello Nacka;Enskild;Pysslingen Förskolor och Skolor AB;34135484;25;246,0;100,0;100,0;
Nacka;Myrsjöskolan;Kommunal;Nacka;84884375;166;248,0;93,4;~100;
Nacka;Saltsjöbadens samskola;Kommunal;Nacka;11777750;112;229,9;80,4;85,7;
Nacka;Skuru skola;Kommunal;Nacka;85321366;123;230,1;87,0;91,9;
Nacka;Snitz Grundskola Nacka;Enskild;PPS Power Planning System AB;82438535;..;..;..;..;
Nacka;Stavsborgsskolan;Kommunal;Nacka;14040970;81;218,0;79,0;~100;
Nacka;Vittra Saltsjö-Boo;Enskild;Vittraskolorna AB;44802890;..;..;..;..;
Norrtälje;Bålbro skola;Kommunal;Norrtälje;45874608;34;239,0;91,2;~100;
Norrtälje;Ekebyholmsskolan, gr;Enskild;Ekebyholmsskolan AB;98239828;21;228,0;71,4;~100;
Norrtälje;Freinetskolan Hugin;Enskild;Freinetskolan Hugin Ek. För.;89692072;20;218,5;60,0;~100;
Norrtälje;Freinetskolan Mimer;Enskild;Freinetskolan Mimer Ek. För.;45133950;11;214,3;..;100,0;
Norrtälje;Grindskolan;Kommunal;Norrtälje;29416145;21;190,8;71,4;76,2;
Norrtälje;Hallsta skola;Kommunal;Norrtälje;24146389;56;203,8;75,0;82,1;
Norrtälje;Lommarskolan;Kommunal;Norrtälje;15312030;34;187,0;47,1;64,7;
Norrtälje;Långsjöskolan;Kommunal;Norrtälje;99749462;32;173,8;53,1;71,9;
Norrtälje;Länna skola;Kommunal;Norrtälje;72471883;18;220,3;94,4;~100;
Norrtälje;Montessoriskolan i Norrtälje;Enskild;Montessoriskolan i Norrtälje AB;99665701;11;246,4;..;~100;
Norrtälje;Norrsund-Elmstaskolan;Kommunal;Norrtälje;61218902;39;240,1;87,2;~100;
Norrtälje;Roslagsskolan;Kommunal;Norrtälje;31851256;168;213,3;77,4;86,9;
Norrtälje;Rådmansö skola;Kommunal;Norrtälje;50905672;19;195,8;89,5;~100;
Norrtälje;Svanbergaskolan;Kommunal;Norrtälje;59975651;49;226,1;89,8;~100;
Norrtälje;Viby friskola;Enskild;Ogenholts Friskola AB;54806839;15;199,8;66,7;~100;
Nykvarn;Lillhagaskolan;Kommunal;Nykvarn;99640618;107;226,1;90,7;~100;
Nynäshamn;Gröndalsskolan F-9;Kommunal;Nynäshamn;65717061;77;203,6;79,2;90,9;
Nynäshamn;Sunnerbyskolan 1-9;Kommunal;Nynäshamn;78703073;59;189,6;72,9;81,4;
Nynäshamn;Vanstaskolan 4-9;Kommunal;Nynäshamn;73184416;48;204,8;66,7;75,0;
Nynäshamn;Viaskolan 6-9;Kommunal;Nynäshamn;34814578;55;210,5;81,8;~100;
Salem;Nytorpsskolan;Kommunal;Salem;36262199;28;249,8;89,3;~100;
Salem;Rönninge skola;Kommunal;Salem;71677992;57;247,7;96,5;~100;
Salem;Skogsängsskolan;Kommunal;Salem;58385274;59;200,6;62,7;72,9;
Salem;Säbytorp;Kommunal;Salem;92406445;60;227,4;75,0;91,7;
Salem;Söderby friskola;Enskild;Söderby Friskola Ek. För.;56858061;25;218,7;84,0;~100;
Sigtuna;Ekillaskolan;Kommunal;Sigtuna;14261356;146;216,5;77,4;81,5;
Sigtuna;Josefinaskolan, grundskola;Enskild;Stiftelsen Josefinaskolan;55508705;23;218,5;78,3;~100;
Sigtuna;Sigtunaskolan hum. läroverket, gr;Enskild;Sigtuna Skolstiftelse;70883860;40;240,9;90,0;~100;
Sigtuna;Skolan Bergius;Enskild;Sigtuna Friskola AB;35008423;60;240,5;96,7;100,0;
Sigtuna;S:t Olof;Kommunal;Sigtuna;13579948;125;228,1;87,2;95,2;
Sigtuna;Valstaskolan;Kommunal;Sigtuna;61234191;77;197,7;66,2;74,0;
Sollentuna;Djupdalsskolan, RH-enhet;Kommunal;Sollentuna;91730309;..;..;..;..;
Sollentuna;Edsbergsskolan;Kommunal;Sollentuna;38076081;107;241,6;90,7;~100;
Sollentuna;Edsbergsskolans Förberedelsekl;Kommunal;Sollentuna;85230659;..;..;.;.;
Sollentuna;Förberedelseklasser;Kommunal;Sollentuna;91113722;..;..;.;.;
Sollentuna;Gärdesskolan;Kommunal;Sollentuna;77585025;60;247,6;98,3;~100;
Sollentuna;Helenelundsskolan;Kommunal;Sollentuna;15572902;119;255,4;97,5;~100;
Sollentuna;Häggviksskolan;Kommunal;Sollentuna;96594250;30;233,8;86,7;~100;
Sollentuna;Häggviksskolan LSI;Kommunal;Sollentuna;68505032;..;..;..;..;
Sollentuna;Mikaelskolan;Enskild;Föreningen Mikaelskolan;85777315;14;255,5;92,9;100,0;
Sollentuna;Norrvikens skola;Enskild;Norrviken Utbildning AB;47462120;67;232,9;88,1;~100;
Sollentuna;Runbacka skolor/Fenix;Kommunal;Sollentuna;43236825;..;..;.;..;
Sollentuna;Runbacka skolor/Runan;Kommunal;Sollentuna;62737044;50;236,2;94,0;~100;
Sollentuna;Sofielundsskolan;Kommunal;Sollentuna;68288321;56;217,5;69,6;91,1;
Sollentuna;Sollentuna internat. school;Kommunal;Sollentuna;27740655;38;237,3;78,9;81,6;
Sollentuna;Sollentuna musikklasser;Kommunal;Sollentuna;21871265;63;268,1;98,4;100,0;
Sollentuna;Tal- o språkcentrum/Brageskola;Kommunal;Sollentuna;12092203;..;..;..;..;
Sollentuna;Utbildning Rotebro/Gillboskola;Kommunal;Sollentuna;59955409;69;236,7;87,0;~100;
Sollentuna;Utbildning Silverdal, gr;Kommunal;Sollentuna;67346137;38;270,6;92,1;100,0;
Sollentuna;Utbildning Silverdal, gr asp;Kommunal;Sollentuna;76880740;..;..;..;..;
Sollentuna;Vibyskolan;Enskild;Vibyskolan Ek. För.;15547680;29;252,8;100,0;100,0;
Sollentuna;Vittra Sollentuna;Enskild;Vittraskolorna AB;58102266;35;255,8;94,3;~100;
Solna;Alfaskolan;Enskild;Pysslingen Förskolor och Skolor AB;27323097;27;273,2;100,0;100,0;
Solna;Bagartorpsskolan 4-9;Kommunal;Solna;39508236;41;229,1;80,5;~100;
Solna;Bergshamraskolan;Kommunal;Solna;43133926;28;229,0;78,6;~100;
Solna;Ingridskolan, grundskola;Enskild;Ingridskolan AB;53259263;12;192,5;..;..;
Solna;MBC Skolan Solna;Enskild;Magelungen Utveckling AB;48791751;..;..;.;..;
Solna;Råsundaskolan 6-9;Kommunal;Solna;10775896;104;235,8;97,1;~100;
Solna;Skytteholmsskolan 4-9;Kommunal;Solna;75017455;46;216,5;76,1;82,6;
Solna;Svedenskolan Bergshamra;Enskild;Utvecklingspedagogik Sverige AB;89893224;..;..;..;..;
Solna;Tallbackaskolan;Kommunal;Solna;73581523;74;211,7;59,5;87,8;
Solna;Vittra Frösunda;Enskild;Vittraskolorna AB;48760074;43;264,5;93,0;~100;
Solna;Ängkärrskolan i Solna;Enskild;Stiftelsen Nya Ängkärrsskolan;98515782;27;166,3;59,3;70,4;
Stockholm;Abrahamsbergsskolan;Kommunal;Stockholm;44673074;68;249,2;92,6;~100;
Stockholm;Adolf Fredriks musikklasser;Kommunal;Stockholm;99648792;180;279,7;99,4;~100;
Stockholm;Akalla grundskola F-9;Kommunal;Stockholm;37796564;56;201,3;64,3;75,0;
Stockholm;Al-Azharskolan;Enskild;Al-Azhar Stiftelsen;90711097;42;233,5;64,3;~100;
Stockholm;Alla Nationers Fria Skola;Enskild;Ideella Föreningen För Alla Nationers Fria Skola;82838118;13;214,8;76,9;~100;
Stockholm;Alviksskolan;Kommunal;Stockholm;72627865;121;223,3;78,5;82,6;
Stockholm;Alzahraa Idealiska akademi;Enskild;Al-Zahraa Idealiska Akademi AB;77656740;46;204,7;54,3;82,6;
Stockholm;Aspdammskolan;Enskild;Aspdammskolan AB;93301103;..;..;..;..;
Stockholm;Aspuddens skola;Kommunal;Stockholm;72672270;112;224,6;82,1;94,6;
Stockholm;Bagarmossens skola;Kommunal;Stockholm;13679897;51;220,7;76,5;84,3;
Stockholm;Beta School;Enskild;Betaschool HB;16061350;..;..;..;..;
Stockholm;Björkhagens skola;Kommunal;Stockholm;43088454;96;238,3;89,6;~100;
Stockholm;Blommensbergsskolan;Kommunal;Stockholm;82140090;110;235,4;89,1;94,5;
Stockholm;Bredängsskolan;Kommunal;Stockholm;14121892;63;178,1;39,7;63,5;
Stockholm;Bågenskolan;Enskild;Distans Strateg Sweden AB;35784391;12;120,4;..;..;
Stockholm;Bäckahagens skola;Kommunal;Stockholm;20683111;49;211,6;51,0;75,5;
Stockholm;Carlssons skola;Enskild;Föreningen För Carlssons Skola;35547286;62;274,9;95,2;100,0;
Stockholm;Dialogskolan;Enskild;Stockholm Lära AB;92127007;22;212,8;54,5;~100;
Stockholm;Drakenskolan;Enskild;Distans Strateg Sweden AB;76324672;..;..;..;..;
Stockholm;Ellen Keyskolan, gr;Enskild;Stiftelsen Ellen Keyskolan;16394249;21;251,7;95,2;100,0;
Stockholm;Elma School;Enskild;Elma School AB;11532790;23;220,3;73,9;~100;
Stockholm;Enbacksskolan;Kommunal;Stockholm;43632318;36;212,4;72,2;86,1;
Stockholm;Engelbrektsskolan;Kommunal;Stockholm;87521048;101;224,9;75,2;94,1;
Stockholm;Engelska Skolan i Bromma;Enskild;Internationella Engelska Skolan i Sverige AB;90732940;155;273,5;90,3;~100;
Stockholm;Engelska Skolan i Enskede gr;Enskild;Internationella Engelska Skolan i Sverige AB;38935587;155;250,3;95,5;~100;
Stockholm;Engelska skolan i Hässelby;Enskild;Internationella Engelska Skolan i Sverige AB;74482611;91;252,3;84,6;~100;
Stockholm;Engelska Skolan Norr;Enskild;Engelska Skolan Norr AB;29725531;50;282,2;92,0;~100;
Stockholm;Engelska skolan på Kungsholmen;Enskild;Global Bridge i Sverige AB;66455663;11;194,5;..;~100;
Stockholm;Enskede skola;Kommunal;Stockholm;72248694;119;231,3;87,4;92,4;
Stockholm;Enskilda gymnasiet, gr;Enskild;Enskilda Gymnasiet;92750123;60;288,3;100,0;100,0;
Stockholm;Eriksdalsskolan;Kommunal;Stockholm;59249600;191;207,3;64,9;77,5;
Stockholm;Estniska Skolan i Stockholm;Enskild;Estniska Skolan i Stockholm;34540901;20;248,4;75,0;~100;
Stockholm;Europaskolan på Södermalm;Enskild;Stiftelsen Docendo Discimus;79969356;48;261,9;91,7;100,0;
Stockholm;Farsta grundskola;Kommunal;Stockholm;38758770;80;204,0;51,3;78,8;
Stockholm;Franska Skolan/Ecole francaise;Enskild;Stiftelsen Franska Skolan;42328518;64;273,9;98,4;100,0;
Stockholm;Fredrikshovs slotts skola;Enskild;Stiftelsen Carpe Diem;64065082;31;289,4;100,0;100,0;
Stockholm;Fruängens skola;Kommunal;Stockholm;19353396;49;185,3;67,3;75,5;
Stockholm;Fryshusets grundskola, Sthlm;Enskild;Stiftelsen Kfum Söder Fryshuset;19657993;78;215,0;73,1;~100;
Stockholm;Grimstaskolan;Kommunal;Stockholm;51341279;49;205,3;61,2;75,5;
Stockholm;Grundskolan Metapontum;Enskild;Metapontum AB;90850620;18;267,5;100,0;100,0;
Stockholm;Gubbängsskolan;Kommunal;Stockholm;93412255;103;210,8;76,7;89,3;
Stockholm;Gärdesskolan;Kommunal;Stockholm;41176931;139;255,1;92,1;~100;
Stockholm;Hagsätraskolan;Kommunal;Stockholm;82110758;56;178,4;46,4;55,4;
Stockholm;Hammarbyskolan Södra;Kommunal;Stockholm;23618510;..;..;.;..;
Stockholm;Hjulsta skola;Kommunal;Stockholm;69266159;97;152,3;26,8;50,5;
Stockholm;Husbygårdsskolan F-9;Kommunal;Stockholm;42149666;52;198,4;55,8;73,1;
Stockholm;Hägerstensåsens skola;Kommunal;Stockholm;70329261;..;..;..;..;
Stockholm;Hässelby Villastads skola;Kommunal;Stockholm;86597125;97;240,6;84,5;91,8;
Stockholm;Hässelbygårdsskolan;Kommunal;Stockholm;87838841;73;183,9;50,7;63,0;
Stockholm;Högalidsskolan;Kommunal;Stockholm;24716970;53;235,0;86,8;~100;
Stockholm;Höglandsskolan;Kommunal;Stockholm;36281817;30;278,3;96,7;~100;
Stockholm;Hökarängsskolan;Kommunal;Stockholm;57184925;79;187,3;55,7;65,8;
Stockholm;International School of the Stockholm Region;Kommunal;Stockholm;26172429;25;204,7;.;44,0;
Stockholm;JENSEN grundskola Vasastan Sthlm;Enskild;JENSEN education college AB;87377212;31;234,1;67,7;~100;
Stockholm;Johan Skytteskolan;Kommunal;Stockholm;97683561;135;241,4;88,9;94,1;
Stockholm;Katarina Norra skola;Kommunal;Stockholm;23617768;67;247,8;95,5;100,0;
Stockholm;Kristofferskolan, gr;Enskild;Stiftelsen Kristofferskolan;98760751;55;255,4;87,3;~100;
Stockholm;Kulturama gr. Hammarby Sjöstad;Enskild;Medborgarskolan Stockholmsregionen;23066257;75;249,1;85,3;~100;
Stockholm;Kungliga Svenska Balettskolan;Kommunal;Stockholm;63321041;15;258,5;93,3;100,0;
Stockholm;Kungsholmens grundskola;Kommunal;Stockholm;29410344;47;234,8;85,1;~100;
Stockholm;Kunskapsskolan Enskede;Enskild;Kunskapsskolan i Sverige AB;16426165;121;248,5;95,9;~100;
Stockholm;Kunskapsskolan Fruängen;Enskild;Kunskapsskolan i Sverige AB;63954028;94;242,7;94,7;~100;
Stockholm;Kunskapsskolan Kista;Enskild;Kunskapsskolan i Sverige AB;98098631;36;213,0;58,3;77,8;
Stockholm;Kunskapsskolan Spånga;Enskild;Kunskapsskolan i Sverige AB;46796995;122;239,0;86,9;94,3;
Stockholm;Kunskapsskolan Tyresö;Enskild;Kunskapsskolan i Sverige AB;81266343;123;252,1;96,7;~100;
Stockholm;Kunskapsskolans Resursskola;Enskild;Kunskapsskolan i Sverige AB;24671487;..;..;..;..;
Stockholm;Lillholmsskolan;Kommunal;Stockholm;46581319;67;219,3;67,2;76,1;
Stockholm;Lunaskolan;Enskild;Stockholms Barn & Ungdomsstöd AB;72509254;24;169,8;50,0;62,5;
Stockholm;Lunaskolan Södra;Enskild;Stockholms Barn & Ungdomsstöd AB;67731691;..;.;.;.;
Stockholm;Lycée Francais Saint Louis, gr;Enskild;Lycée Francais Saint-Louis;40610606;57;203,0;.;54,4;
Stockholm;Maria Elementarskola;Enskild;Stiftelsen Maria Elementarskola;73893187;26;264,2;96,2;100,0;
Stockholm;Mariaskolan;Kommunal;Stockholm;69895255;86;232,5;86,0;90,7;
Stockholm;Martinskolan Söders waldorfsk;Enskild;Stiftelsen Martinskolan Söders Waldorfskola;82854505;25;238,7;96,0;100,0;
Stockholm;Matteusskolan;Kommunal;Stockholm;16348406;70;243,1;91,4;~100;
Stockholm;MBC skolan Södermalm;Enskild;Magelungen Utveckling AB;57034070;17;79,6;.;..;
Stockholm;MBC skolan Älvsjö;Enskild;Magelungen Utveckling AB;38096510;10;..;..;..;
Stockholm;Mosebackeskolan;Enskild;Distans Strateg Sweden AB;34880783;..;..;.;.;
Stockholm;Musikskolan Lilla Akademien;Enskild;Musikskolan Lilla Akademien AB;36066067;30;277,2;86,7;~100;
Stockholm;Mälarhöjdens skola;Kommunal;Stockholm;46165232;121;259,9;94,2;~100;
Stockholm;Nya Elementar;Kommunal;Stockholm;83828066;136;247,5;90,4;95,6;
Stockholm;Nytorpsskolan/Österholm grund;Kommunal;Stockholm;34047582;..;..;..;..;
Stockholm;Primaskolan Farsta;Enskild;Primaskolan i Sverige AB;26568390;17;191,9;64,7;~100;
Stockholm;Profilskolan;Enskild;UNI-PARTNER AB;10360193;17;215,7;58,8;~100;
Stockholm;Raoul Wallenbergskolan Bromma;Enskild;International Swedish School AB;50848996;120;235,8;83,3;93,3;
Stockholm;Rinkebyskolan;Kommunal;Stockholm;37416253;142;148,5;28,9;48,6;
Stockholm;Rågsvedsskolan;Kommunal;Stockholm;60382920;60;124,4;25,0;26,7;
Stockholm;Rålambshovsskolan;Kommunal;Stockholm;61686233;148;248,6;96,6;~100;
Stockholm;Rödabergsskolan;Kommunal;Stockholm;97686250;78;257,4;91,0;93,6;
Stockholm;Sjöstadsskolan;Kommunal;Stockholm;15331669;57;241,1;84,2;~100;
Stockholm;Sjöängsskolan;Kommunal;Stockholm;13124830;86;208,1;77,9;87,2;
Stockholm;Skarpatorpsskolan 4-9;Kommunal;Stockholm;95801750;54;203,5;68,5;83,3;
Stockholm;Skarpnäcks skola;Kommunal;Stockholm;53075005;54;221,1;85,2;90,7;
Stockholm;Skolgrunden;Enskild;Skolgrunden AB;23414344;..;..;..;..;
Stockholm;Slättgårdsskolan;Kommunal;Stockholm;59468219;34;197,0;61,8;73,5;
Stockholm;Smedshagsskolan;Kommunal;Stockholm;50060022;22;187,5;50,0;63,6;
Stockholm;Snitz Grundskola Odenplan;Enskild;PPS Power Planning System AB;57510246;19;157,9;..;63,2;
Stockholm;Sofia skola;Kommunal;Stockholm;45436515;111;227,2;80,2;85,6;
Stockholm;Sofiaängens skola;Enskild;Sofiaängen AB;86086213;..;..;.;..;
Stockholm;Solbergaskolan;Kommunal;Stockholm;34671128;11;..;.;.;
Stockholm;Spånga grundskola;Kommunal;Stockholm;17640364;129;233,6;80,6;93,0;
Stockholm;S:t Eriks Katolska Skola;Enskild;Stiftelsen s:t Eriks Katolska Skola;94943347;23;239,1;65,2;100,0;
Stockholm;Stefanskolan;Enskild;Föreningen Stefanskolan;53147557;..;..;..;..;
Stockholm;Sthlms Int. Montessoriskola;Enskild;International Montessori School Sweden AB;45553352;37;289,5;100,0;100,0;
Stockholm;Stift. Sthlm Intern. School gr;Enskild;The International School Of Stockholm;85670099;57;.;.;.;
Stockholm;Stiftelsen Islamiska skolan;Enskild;Stiftelsen Islamiska Skolan;72684556;18;254,0;94,4;100,0;
Stockholm;Stockholm Internat. Academy;Enskild;Mubarak Utbildning & Service;11442396;18;182,1;..;..;
Stockholm;Studemaskolan;Enskild;Föreningen Aktiva Studier;91352227;13;244,2;..;..;
Stockholm;Sturebyskolan;Kommunal;Stockholm;91816093;116;236,4;90,5;94,0;
Stockholm;Sundbyskolan;Kommunal;Stockholm;44046131;48;227,0;66,7;70,8;
Stockholm;Sv Interkulturella grundskolan;Enskild;Interkulturell Utbildning i Stockholm AB;98705470;13;178,5;..;..;
Stockholm;Sverigefinska skolan Sthlm;Enskild;Sverigefinska Skolan i Stockholm AB;78508835;29;254,6;82,8;~100;
Stockholm;Sätraskolan;Kommunal;Stockholm;21724208;54;166,3;50,0;61,1;
Stockholm;Söderholmsskolan;Kommunal;Stockholm;18064456;50;217,3;74,0;82,0;
Stockholm;Södermalmskyrkans Kristna sk.;Enskild;Södermalmskyrkan;14472068;20;245,9;95,0;~100;
Stockholm;Södermalmsskolan;Kommunal;Stockholm;75614609;88;228,4;83,0;90,9;
Stockholm;Södra Ängby skola;Kommunal;Stockholm;88795871;87;235,3;86,2;94,3;
Stockholm;Tasava skola;Enskild;Tasava AB;82448624;..;..;.;.;
Stockholm;Tornadoskolan;Enskild;Tornadoskolan AB;29796042;15;216,7;66,7;~100;
Stockholm;Trollbodaskolan;Kommunal;Stockholm;89605548;119;229,7;85,7;91,6;
Stockholm;Tyska skolan;Enskild;Tyska Skolföreningen;53175499;41;.;.;.;
Stockholm;Vasa Real;Kommunal;Stockholm;52863414;189;257,9;95,2;100,0;
Stockholm;Vasastans Montessoriskola;Enskild;Vasastans Montessoriförskola;75656508;12;238,5;100,0;100,0;
Stockholm;Vinstagårdsskolan;Kommunal;Stockholm;82850292;83;221,7;67,5;81,9;
Stockholm;Vintertullsskolan i Stockholm;Enskild;Vintertullsskolan i Stockholm AB;28138418;15;168,5;..;~100;
Stockholm;Vittra Sjöstaden;Enskild;Vittraskolorna AB;28778917;26;253,0;88,5;~100;
Stockholm;Vittra Södermalm;Enskild;Vittraskolorna AB;59900714;65;208,8;66,2;86,2;
Stockholm;Vällingbyskolan;Kommunal;Stockholm;36031993;92;217,7;75,0;76,1;
Stockholm;Västbergaskolan;Enskild;Västbergaskolan AB;64736967;65;226,8;80,0;92,3;
Stockholm;Västerholms friskola;Enskild;Västerholms Friskola AB;35890890;87;189,1;28,7;64,4;
Stockholm;Årstaskolan;Kommunal;Stockholm;48328583;52;207,9;78,8;84,6;
Stockholm;Åsö grundskola;Kommunal;Stockholm;94864296;167;234,2;82,0;91,0;
Stockholm;Äppelviksskolan;Kommunal;Stockholm;15594566;156;271,5;98,7;100,0;
Stockholm;Ärvingeskolan;Kommunal;Stockholm;11218326;62;201,1;77,4;88,7;
Sundbyberg;Grönkullaskolan;Kommunal;Sundbyberg;93968806;42;186,0;42,9;71,4;
Sundbyberg;Kulturama Grundsk. Sundbyberg;Enskild;Medborgarskolan Stockholmsregionen;37112288;76;252,6;90,8;~100;
Sundbyberg;Ängskolan 7-9;Kommunal;Sundbyberg;65775192;119;216,9;74,8;82,4;
Södertälje;Blombackaskolan;Kommunal;Södertälje;34148887;116;201,6;62,1;80,2;
Södertälje;Brunnsängskolan;Kommunal;Södertälje;60570294;84;200,2;66,7;84,5;
Södertälje;Hovsjöskolan;Kommunal;Södertälje;82137009;49;181,5;44,9;65,3;
Södertälje;Hölöskolan;Kommunal;Södertälje;79466321;40;204,1;77,5;80,0;
Södertälje;Järna friskola;Enskild;Järna Friskola AB;41584790;23;230,7;87,0;~100;
Södertälje;Järna grundskolor;Kommunal;Södertälje;97655739;69;232,5;85,5;92,8;
Södertälje;Kringlaskolan;Enskild;Kringlaskolan AB;74489639;47;198,9;74,5;~100;
Södertälje;Lina grundskola;Kommunal;Södertälje;62288230;41;181,3;41,5;61,0;
Södertälje;Mariaskolan;Enskild;Föreningen Maria Magdalena;31528772;..;..;..;..;
Södertälje;MBC skolan Södertälje;Enskild;Magelungen Utveckling AB;14872951;..;..;.;..;
Södertälje;Mikaelgården Läkeped. Institut;Enskild;Föreningen Mikaelgårdens Läkepedagogiska Inst;73075913;..;..;..;..;
Södertälje;Nyckelskolan;Enskild;Nyckelknippan Förskole AB;16068461;28;251,3;96,4;100,0;
Södertälje;Pershagenskolan;Kommunal;Södertälje;38653015;53;226,4;86,8;90,6;
Södertälje;Ronnaskolan;Kommunal;Södertälje;51210001;65;193,9;52,3;72,3;
Södertälje;Rosenborgskolan;Kommunal;Södertälje;11914814;125;210,4;73,6;87,2;
Södertälje;Soldalaskolan;Kommunal;Södertälje;40175889;53;186,8;58,5;79,2;
Södertälje;Solvikskolan;Enskild;Stödföreningen För Solvikskolan;45994471;21;241,1;90,5;100,0;
Södertälje;Södertälje friskola;Enskild;Södertälje Friskola AB;38394561;27;218,6;77,8;~100;
Södertälje;Vittra Östertälje;Enskild;Vittraskolorna AB;12757193;61;239,2;93,4;~100;
Södertälje;Wasaskolan;Kommunal;Södertälje;56568612;61;213,7;63,9;~100;
Södertälje;Örjanskolan grund;Enskild;Föreningen Örjanskolan;10661388;18;242,5;72,2;~100;
Tyresö;Dalskolan;Kommunal;Tyresö;56130729;81;203,0;79,0;91,4;
Tyresö;Kumla skola;Kommunal;Tyresö;37147254;136;218,3;85,3;87,5;
Tyresö;Nyboda skola;Kommunal;Tyresö;31281674;125;201,2;67,2;73,6;
Tyresö;Strandskolan;Kommunal;Tyresö;87665835;62;225,0;91,9;~100;
Tyresö;Tyresö skola;Kommunal;Tyresö;83020784;75;250,4;94,7;100,0;
Tyresö;Yggdrasil resursskola;Enskild;Skolgrunden AB;97439385;..;..;..;..;
Täby;Attundaskolan;Kommunal;Täby;85045274;..;..;.;..;
Täby;Byängsskolan;Enskild;Byängsskolan AB;65839656;51;234,6;94,1;~100;
Täby;Engelska Skolan i Täby;Enskild;Internationella Engelska Skolan i Sverige AB;12332278;178;256,4;97,8;~100;
Täby;Futuraskolan Bergtorp;Enskild;Futuraskolan AB;24142153;164;249,3;89,6;~100;
Täby;Gribby Gård;Kommunal;Täby;20587249;..;..;..;..;
Täby;Helleborusskolan;Enskild;ZACU AB;45984740;16;193,0;68,8;~100;
Täby;Kristinaskolan;Enskild;Specialpedagogiskt Forum TRT AB;16244673;..;..;.;.;
Täby;Kunskapsskolan Täby;Enskild;Kunskapsskolan i Sverige AB;25309669;43;256,0;95,3;100,0;
Täby;Mellansjö skola;Enskild;Enigma Omsorg AB;54332921;..;..;.;..;
Täby;Milstensskolan;Enskild;Pysslingen Förskolor och Skolor AB;23312767;14;240,9;100,0;100,0;
Täby;Nya Tidens Montessorisk. Täby;Enskild;Nya Tidens Montessoriskola i Täby AB;89424201;22;225,7;63,6;100,0;
Täby;Näsbydalskolan;Kommunal;Täby;22807677;103;251,5;95,1;~100;
Täby;Näsbyparksskolan;Kommunal;Täby;96330648;48;230,7;79,2;85,4;
Täby;Skarpängsskolan;Kommunal;Täby;83454509;125;223,5;92,8;~100;
Täby;Skolhagenskolan;Kommunal;Täby;69088221;71;230,9;93,0;~100;
Täby;Svalnäs skola;Enskild;Svalnäs, Ek. För.;84230778;..;..;.;.;
Täby;Täby Friskola-Enhagen;Enskild;Täby Friskola AB;32231541;79;270,4;98,7;100,0;
Täby;Vallatorpsskolan;Kommunal;Täby;57206066;82;222,0;90,2;92,7;
Upplands Väsby;Grimsta skola;Kommunal;Upplands Väsby;44227469;119;199,1;66,4;81,5;
Upplands Väsby;Runby skola;Kommunal;Upplands Väsby;77624936;53;205,9;66,0;71,7;
Upplands Väsby;Sandbergska skolan;Enskild;Sandbergska skolan AB;97762139;20;234,4;80,0;100,0;
Upplands Väsby;Smedby skola;Kommunal;Upplands Väsby;36789655;15;184,3;..;..;
Upplands Väsby;Sverigefinska sk, Uppl Väsby;Enskild;Stiftelsen Språkskolan i Upplands Väsby;68403656;..;..;..;..;
Upplands Väsby;Södervikskolan;Enskild;Södervikskolan AB;49021135;87;225,7;85,1;92,0;
Upplands Väsby;Vittra Väsby;Enskild;Vittraskolorna AB;24374886;31;212,3;77,4;~100;
Upplands Väsby;Väsby skola;Kommunal;Upplands Väsby;31018677;83;193,7;57,8;72,3;
Upplands-Bro;Broskolan;Kommunal;Upplands-Bro;16983719;92;232,0;81,5;91,3;
Upplands-Bro;Ekhammarskolan;Kommunal;Upplands-Bro;92284588;77;207,0;71,4;88,3;
Upplands-Bro;Hagnässkolan;Kommunal;Upplands-Bro;16969143;52;228,5;88,5;~100;
Upplands-Bro;Källskolan;Enskild;Föreningen För Kristen Skola i Upplands-Bro;69098787;30;218,6;83,3;~100;
Vallentuna;Aktiviaskolan;Enskild;Aktivia AB;48184058;..;..;.;.;
Vallentuna;Atlas, resursklass;Kommunal;Vallentuna;40724774;..;..;..;..;
Vallentuna;Bällstabergsskolan;Kommunal;Vallentuna;52293921;18;218,8;88,9;100,0;
Vallentuna;Clavis, resursklass;Kommunal;Vallentuna;42652939;..;..;..;..;
Vallentuna;Ekebyskolan;Kommunal;Vallentuna;78821726;33;199,2;48,5;66,7;
Vallentuna;Hammarbacksskolan;Kommunal;Vallentuna;31772387;45;225,0;88,9;~100;
Vallentuna;Hjälmstaskolan;Kommunal;Vallentuna;16855764;57;215,9;80,7;~100;
Vallentuna;Karbyskolan;Kommunal;Vallentuna;57370453;36;227,6;91,7;~100;
Vallentuna;Lovisedalsskolan;Kommunal;Vallentuna;29278599;53;226,3;92,5;~100;
Vallentuna;Strix Hammarbacksskolans;Kommunal;Vallentuna;97468609;..;..;.;.;
Vallentuna;Tunaskolan, resursklass;Kommunal;Vallentuna;56878797;..;..;..;..;
Vallentuna;Vallen, resursklass;Kommunal;Vallentuna;48822997;..;..;.;.;
Vallentuna;Vallentuna Friskola;Enskild;Vallentuna Friskola AB;72378947;49;224,8;89,8;~100;
Vallentuna;Vittra Vallentuna;Enskild;Vittraskolorna AB;46206050;32;250,8;96,9;100,0;
Vaxholm;Norrbergsskolan;Kommunal;Vaxholm;24710426;87;221,4;83,9;~100;
Värmdö;Brunns skola;Kommunal;Värmdö;42434583;59;229,0;88,1;~100;
Värmdö;Farstavikens skola;Kommunal;Värmdö;60624757;91;222,8;75,8;81,3;
Värmdö;Hemmestaskolan;Kommunal;Värmdö;24561769;84;214,8;83,3;94,0;
Värmdö;Kullsvedskolan, Grundskola;Kommunal;Värmdö;67362048;..;..;..;..;
Värmdö;Lemshaga Akademi;Enskild;Lemshagastiftelsen;11364996;52;263,2;100,0;100,0;
Värmdö;Värmdö Skärgårdsskola;Kommunal;Värmdö;77630712;39;217,4;94,9;~100;
Värmdö;Ösbyskolan;Kommunal;Värmdö;88283203;76;243,3;89,5;~100;
Österåker;Akers friskola F-9;Enskild;Österåkers Friskola AB;10715898;23;238,4;95,7;100,0;
Österåker;Ljusterö skola;Kommunal;Österåker;53319802;11;222,0;..;~100;
Österåker;Prolympia, Åkersberga;Enskild;Prolympia AB;22738124;81;210,7;75,3;~100;
Österåker;Skärgårdsstadsskolan;Kommunal;Österåker;73272488;34;220,9;82,4;~100;
Österåker;Solskiftesskolan;Kommunal;Österåker;82624830;108;228,4;83,3;93,5;
Österåker;Söraskolan;Kommunal;Österåker;88712672;72;193,6;58,3;72,2;
Österåker;Tråsättraskolan;Kommunal;Österåker;51305351;79;218,5;78,5;84,8;