﻿Kommun;Skola;Typ av huvudman;Huvudman;Skol-enhetskod;Antal elever;Genomsnittligt meritvärde (16);Andel som uppnått kunskapskraven i alla ämnen;Andel (%) behöriga till nationella program;
Botkyrka;Albyskolan;Kommunal;Botkyrka;012700901;93;147,9;37,6;62,4;
Botkyrka;Björkhaga skola;Kommunal;Botkyrka;43238662;98;208,4;73,5;91,8;
Botkyrka;Borgskolan;Kommunal;Botkyrka;71048800;39;163,6;25,6;53,8;
Botkyrka;Botkyrka friskola 6-9;Enskild;;012703803;36;210,1;86,1;~100;
Botkyrka;Broängsskolan;Kommunal;Botkyrka;38661388;89;216,1;77,5;94,4;
Botkyrka;Brunnaskolan;Kommunal;Botkyrka;53426548;39;204,7;69,2;76,9;
Botkyrka;Falkbergsskolan;Kommunal;Botkyrka;85558618;153;190,6;60,1;91,5;
Botkyrka;Fittjaskolan;Kommunal;Botkyrka;40631085;62;132,0;24,2;51,6;
Botkyrka;Freinetskolan Kastanjen;Enskild;;29524966;18;227,2;77,8;100,0;
Botkyrka;Kunskapsskolan i Botkyrka;Enskild;;84411355;86;206,4;74,4;86,0;
Botkyrka;Kärsbyskolan F-9;Kommunal;Botkyrka;67742754;85;164,8;47,1;61,2;
Botkyrka;Storvretskolan;Kommunal;Botkyrka;18534178;78;187,2;51,3;91,0;
Botkyrka;Sverigefinska skolan, Botkyrka;Enskild;;57850353;15;202,3;..;~100;
Botkyrka;Tunaskolan;Kommunal;Botkyrka;36350546;18;199,7;72,2;100,0;
Danderyd;Djursholms samskola;Kommunal;Danderyd;016201801;107;249,3;89,7;95,3;
Danderyd;Framnäs skola och terapicenter;Enskild;;13475641;..;..;.;.;
Danderyd;Fribergaskolan;Kommunal;Danderyd;42986451;139;242,5;90,6;~100;
Danderyd;Mörbyskolan;Kommunal;Danderyd;97174070;146;240,7;93,8;~100;
Ekerö;Ekebyhovskolan;Kommunal;Ekerö;99373839;36;221,3;80,6;~100;
Ekerö;Färingeskolan;Enskild;;012502201;..;..;..;..;
Ekerö;Mälaröarnas waldorfskola;Enskild;;28231215;11;.;.;.;
Ekerö;Sundsgården;Enskild;;14571770;..;..;..;..;
Ekerö;Tappströmsskolan;Kommunal;Ekerö;52217632;90;221,6;86,7;91,1;
Ekerö;Träkvista skola;Kommunal;Ekerö;66475520;72;209,4;77,8;84,7;
Ekerö;Uppgårdskolan;Kommunal;Ekerö;95057356;102;213,5;82,4;94,1;
Haninge;Brandbergsskolan;Kommunal;Haninge;73184968;123;193,0;53,7;85,4;
Haninge;Dalarö skola;Kommunal;Haninge;74610376;15;191,0;86,7;~100;
Haninge;Jordbromalmsskolan;Kommunal;Haninge;013600307;108;175,4;38,9;58,3;
Haninge;Lyckebyskolan;Kommunal;Haninge;81680693;87;207,2;73,6;~100;
Haninge;Ribbyskolan;Kommunal;Haninge;59497255;112;182,8;51,8;79,5;
Haninge;Söderbymalmsskolan;Kommunal;Haninge;10035236;146;191,9;54,8;86,3;
Haninge;Tungelsta skola;Kommunal;Haninge;38975788;78;194,9;57,7;84,6;
Haninge;Utö skola;Kommunal;Haninge;86577795;..;..;..;..;
Haninge;Vendelsömalmsskolan;Kommunal;Haninge;72266104;121;189,8;63,6;90,1;
Huddinge;Annerstaskolan;Kommunal;Huddinge;79012683;50;193,6;60,0;70,0;
Huddinge;Brandsprutans samunderv.klass;Kommunal;Huddinge;012602505;..;..;.;.;
Huddinge;Edboskolan;Kommunal;Huddinge;98477278;83;216,6;88,0;100,0;
Huddinge;Kungsklippeskolan;Kommunal;Huddinge;89510449;50;207,3;82,0;~100;
Huddinge;Kvarnbergsskolan;Kommunal;Huddinge;54516737;235;216,5;83,4;~100;
Huddinge;Källbrinksskolan;Kommunal;Huddinge;41213404;139;204,6;83,5;92,8;
Huddinge;Resursskolan;Kommunal;Huddinge;012602504;..;..;.;..;
Huddinge;Segeltorpsskolan;Kommunal;Huddinge;15483394;92;222,8;87,0;~100;
Huddinge;Skogåsskolan;Kommunal;Huddinge;93760143;73;194,2;63,0;91,8;
Huddinge;Södertörns friskola;Enskild;;22019000;134;186,7;61,2;81,3;
Huddinge;Trångsundsskolan;Kommunal;Huddinge;42601396;49;211,4;77,6;~100;
Huddinge;Vistaskolan;Kommunal;Huddinge;50783450;13;192,1;..;..;
Huddinge;Vretskolan;Kommunal;Huddinge;39229061;54;197,2;64,8;90,7;
Huddinge;Vårbyskolan;Kommunal;Huddinge;64949601;44;180,9;40,9;56,8;
Järfälla;Al-Mustafa skolan;Enskild;;012305201;..;..;..;..;
Järfälla;Björkebyskolan;Kommunal;Järfälla;40847752;195;221,9;79,0;94,4;
Järfälla;Fjällenskolan;Kommunal;Järfälla;15080815;70;202,9;80,0;~100;
Järfälla;Internat. Engelska sk Järfälla;Enskild;;79093755;30;224,3;66,7;~100;
Järfälla;Källtorpskolan;Kommunal;Järfälla;17287315;118;183,4;56,8;78,8;
Järfälla;Nibbleskolan;Kommunal;Järfälla;012300401;17;217,6;76,5;~100;
Järfälla;Sjöbergska skolan;Enskild;;66634449;32;212,5;87,5;~100;
Järfälla;Tallbohovskolan;Kommunal;Järfälla;97777849;80;208,6;75,0;85,0;
Järfälla;Viksjöskolan;Kommunal;Järfälla;98925408;238;210,0;81,1;95,0;
Lidingö;Bodals skola;Kommunal;Lidingö;98780182;80;239,9;93,8;~100;
Lidingö;Forsbergska;Enskild;;46585145;33;249,8;97,0;100,0;
Lidingö;Högsätra skola;Kommunal;Lidingö;95431374;65;219,5;83,1;~100;
Lidingö;Källan;Kommunal;Lidingö;13696709;..;..;.;..;
Lidingö;Källängens skola;Kommunal;Lidingö;69329486;84;235,1;85,7;91,7;
Lidingö;Käppala skola;Kommunal;Lidingö;11145649;59;240,8;93,2;100,0;
Lidingö;Lidingö Schoolaris;Enskild;;018602301;..;..;..;..;
Lidingö;Resursskolan 4-9;Kommunal;Lidingö;36280955;..;..;.;..;
Lidingö;Torsviks skola;Kommunal;Lidingö;90564565;99;240,9;93,9;~100;
Nacka;Björknässkolan;Kommunal;Nacka;75834458;94;234,9;84,0;~100;
Nacka;Eklidens skola;Kommunal;Nacka;47243834;155;228,6;81,9;94,2;
Nacka;Internationella skolan i Nacka;Kommunal;Nacka;91011718;64;231,8;64,1;89,1;
Nacka;Kunskapsskolan i Nacka;Enskild;;87425546;47;213,4;51,1;89,4;
Nacka;Montessoriskolan Castello;Enskild;;34135484;21;247,4;100,0;100,0;
Nacka;Myrsjöskolan;Kommunal;Nacka;84884375;186;233,4;85,5;96,8;
Nacka;Nyholmska skolan;Enskild;;44802890;44;251,0;88,6;100,0;
Nacka;Saltsjöbadens samskola;Kommunal;Nacka;11777750;136;245,2;80,9;100,0;
Nacka;Skuru skola;Kommunal;Nacka;85321366;98;237,1;79,6;~100;
Nacka;Stavsborgsskolan;Kommunal;Nacka;14040970;133;217,6;75,9;94,7;
Norrtälje;Bålbro skola;Kommunal;Norrtälje;45874608;46;201,4;78,3;~100;
Norrtälje;Centralskolan;Kommunal;Norrtälje;018803201;77;180,9;59,7;81,8;
Norrtälje;Ekebyholmsskolan;Enskild;;98239828;24;240,6;70,8;~100;
Norrtälje;Flygskolan;Kommunal;Norrtälje;018804801;37;184,3;62,2;86,5;
Norrtälje;Flygskolan förberedelseklass;Kommunal;Norrtälje;018804704;..;.;.;.;
Norrtälje;Freinetskolan Mimer Ek.för.;Enskild;;45133950;17;225,3;70,6;100,0;
Norrtälje;Lommarskolan;Kommunal;Norrtälje;15312030;67;191,7;70,1;82,1;
Norrtälje;Långsjöskolan;Kommunal;Norrtälje;99749462;72;200,6;73,6;87,5;
Norrtälje;Länna skola;Kommunal;Norrtälje;72471883;26;209,8;76,9;100,0;
Norrtälje;Norrsundsskolan;Kommunal;Norrtälje;61218902;73;203,1;80,8;84,9;
Norrtälje;Norrtälje Fria skola;Enskild;;018805901;20;200,8;85,0;~100;
Norrtälje;Roslagsskolan;Kommunal;Norrtälje;31851256;159;213,1;67,9;91,8;
Norrtälje;Skoldaghemmet Örnen;Kommunal;Norrtälje;018804710;..;..;.;.;
Norrtälje;Smaraskolan;Enskild;;018805601;..;..;.;..;
Norrtälje;Svanbergaskolan;Kommunal;Norrtälje;59975651;44;205,3;61,4;88,6;
Norrtälje;Viby friskola;Enskild;;54806839;..;..;..;..;
Nykvarn;Björkestaskolan;Kommunal;Nykvarn;68422076;44;202,3;70,5;81,8;
Nykvarn;Turingeskolan;Kommunal;Nykvarn;93844270;65;220,2;72,3;~100;
Nynäshamn;Gröndalsskolan;Kommunal;Nynäshamn;65717061;57;172,2;59,6;82,5;
Nynäshamn;Sunnerbyskolan;Kommunal;Nynäshamn;78703073;72;211,4;79,2;~100;
Nynäshamn;Svandammsskolan;Kommunal;Nynäshamn;18193338;57;199,7;66,7;91,2;
Nynäshamn;Vanstaskolan;Kommunal;Nynäshamn;73184416;97;199,5;69,1;92,8;
Nynäshamn;Viaskolan;Kommunal;Nynäshamn;14376467;60;226,6;85,0;~100;
Salem;Rönninge skola;Kommunal;Salem;71677992;54;221,6;92,6;~100;
Salem;Säbyskolan;Kommunal;Salem;92406445;100;189,5;62,0;74,0;
Salem;Söderby friskola;Enskild;;56858061;39;220,6;82,1;~100;
Sigtuna;Centralskolan;Kommunal;Sigtuna;61056172;51;201,2;68,6;78,4;
Sigtuna;Ekillaskolan;Kommunal;Sigtuna;14261356;143;192,0;62,9;80,4;
Sigtuna;Josefinaskolan;Enskild;;55508705;21;.;.;.;
Sigtuna;Sigtunaskolan hum. läroverket;Enskild;;70883860;56;241,1;69,6;~100;
Sigtuna;S:t Olof;Kommunal;Sigtuna;13579948;86;213,8;77,9;~100;
Sigtuna;Valstaskolan;Kommunal;Sigtuna;61234191;102;196,8;56,9;84,3;
Sollentuna;Edsbergsskolan;Kommunal;Sollentuna;38076081;164;217,6;74,4;97,0;
Sollentuna;Gillbo skola;Kommunal;Sollentuna;59955409;57;201,7;80,7;87,7;
Sollentuna;Helenelundsskolan;Kommunal;Sollentuna;15572902;84;214,3;79,8;~100;
Sollentuna;Hertig Karls friskolor;Enskild;;40467992;21;218,3;85,7;100,0;
Sollentuna;Häggviksskolan;Kommunal;Sollentuna;96594250;87;206,8;78,2;88,5;
Sollentuna;Johanssons Törnskogen utb.;Enskild;;58102266;45;242,2;95,6;~100;
Sollentuna;Mikaelskolan;Enskild;;85777315;19;200,0;..;73,7;
Sollentuna;Runan;Kommunal;Sollentuna;62737044;53;209,4;73,6;~100;
Sollentuna;Sollentuna internat. school;Kommunal;Sollentuna;27740655;47;254,6;85,1;~100;
Sollentuna;Sollentuna musikklasser;Kommunal;Sollentuna;21871265;55;246,5;83,6;~100;
Sollentuna;Trollholmen;Kommunal;Sollentuna;96318226;28;208,9;71,4;~100;
Sollentuna;Turebergsskolan;Kommunal;Sollentuna;016300802;56;191,5;67,9;85,7;
Sollentuna;Vibyskolan;Enskild;;15547680;52;217,1;88,5;~100;
Solna;Bergshamraskolan;Kommunal;Solna;43133926;87;213,5;55,2;90,8;
Solna;Hagalundsskolan;Kommunal;Solna;018400201;87;188,5;62,1;86,2;
Solna;Ingridskolan;Enskild;;53259263;..;..;.;..;
Solna;Råsunda skola;Kommunal;Solna;69725476;110;204,4;66,4;92,7;
Solna;Tallbackaskolan;Kommunal;Solna;73581523;82;209,5;75,6;92,7;
Solna;Ängkärrsskolan i Solna;Enskild;;98515782;25;174,4;68,0;80,0;
Stockholm;Abrahamsbergsskolan;Kommunal;Stockholm;44673074;111;231,9;89,2;~100;
Stockholm;Adolf Fredriks musikklasser;Kommunal;Stockholm;99648792;180;255,0;96,1;~100;
Stockholm;Akallaskolan;Kommunal;Stockholm;37796564;73;198,1;71,2;84,9;
Stockholm;Alviksskolan;Kommunal;Stockholm;72627865;72;222,8;75,0;88,9;
Stockholm;Alzahraa Idealiska akademi;Enskild;;77656740;20;200,5;50,0;75,0;
Stockholm;Aspdammssk., Dampkonsult Sthlm;Enskild;;93301103;..;..;.;..;
Stockholm;Aspuddens skola;Kommunal;Stockholm;72672270;101;211,7;73,3;89,1;
Stockholm;Bagarmossens skola;Kommunal;Stockholm;13679897;98;199,1;67,3;86,7;
Stockholm;Bergholmsskolan;Kommunal;Stockholm;018000501;117;200,0;79,5;91,5;
Stockholm;Björkhagens skola;Kommunal;Stockholm;43088454;87;207,6;80,5;90,8;
Stockholm;Blommensbergsskolan;Kommunal;Stockholm;82140090;81;228,5;86,4;~100;
Stockholm;Bredbyskolan;Kommunal;Stockholm;27287797;40;148,8;32,5;45,0;
Stockholm;Bredängsskolan;Kommunal;Stockholm;14121892;44;177,6;56,8;72,7;
Stockholm;Bäckahagens skola;Kommunal;Stockholm;20683111;90;209,4;70,0;86,7;
Stockholm;Carlssons skola;Enskild;;35547286;60;258,5;93,3;100,0;
Stockholm;Ellen Key skolan;Enskild;;16394249;29;.;.;.;
Stockholm;Engelbrektsskolan;Kommunal;Stockholm;87521048;151;254,3;79,5;95,4;
Stockholm;Engelska skolan, Norr 0-9;Enskild;;29725531;22;274,8;95,5;100,0;
Stockholm;Engelska skolan, Söder/grundsk;Enskild;;38935587;122;257,5;82,0;~100;
Stockholm;Enskede skola;Kommunal;Stockholm;72248694;84;240,5;84,5;100,0;
Stockholm;Enskilda gymnasiet;Enskild;;92750123;61;287,3;98,4;100,0;
Stockholm;Eriksdalsskolan;Kommunal;Stockholm;59249600;194;225,1;77,3;88,7;
Stockholm;Estniska skolan;Enskild;;34540901;19;240,0;84,2;100,0;
Stockholm;Europaskolan;Enskild;;79969356;16;278,4;100,0;100,0;
Stockholm;Franska skolan/Ecole francaise;Enskild;;42328518;64;258,3;87,5;~100;
Stockholm;Fredrikshovs slotts skola;Enskild;;64065082;31;273,2;96,8;100,0;
Stockholm;Fruängens skola;Kommunal;Stockholm;19353396;87;189,4;56,3;86,2;
Stockholm;Grimstaskolan;Kommunal;Stockholm;51341279;103;193,3;61,2;76,7;
Stockholm;Gubbängsskolan;Kommunal;Stockholm;93412255;113;217,2;78,8;91,2;
Stockholm;Gärdesskolan;Kommunal;Stockholm;41176931;168;253,6;92,3;~100;
Stockholm;Hagsätraskolan;Kommunal;Stockholm;82110758;53;191,5;62,3;88,7;
Stockholm;Hjulstaskolan;Kommunal;Stockholm;69266159;100;170,7;41,0;66,0;
Stockholm;Husbyskolan;Kommunal;Stockholm;018023801;80;164,0;43,8;61,3;
Stockholm;Hässelby Villastads skola;Kommunal;Stockholm;86597125;87;211,6;71,3;93,1;
Stockholm;Hässelbygårdsskolan;Kommunal;Stockholm;87838841;101;205,8;72,3;91,1;
Stockholm;Högalidsskolan;Kommunal;Stockholm;24716970;113;236,9;87,6;100,0;
Stockholm;Höglandsskolan;Kommunal;Stockholm;36281817;31;275,6;100,0;100,0;
Stockholm;Hökarängsskolan;Kommunal;Stockholm;57184925;104;173,7;50,0;75,0;
Stockholm;Internat. school of Sthlm gr.;Enskild;;85670099;20;.;.;.;
Stockholm;Johan Skytteskolan;Kommunal;Stockholm;97683561;211;218,4;83,9;93,4;
Stockholm;Katarina Norra skola;Kommunal;Stockholm;23617768;62;227,5;87,1;~100;
Stockholm;Kristofferskolan;Enskild;;98760751;59;.;.;.;
Stockholm;Kunskapsskolan i Enskede;Enskild;;16426165;107;203,1;74,8;89,7;
Stockholm;Kunskapsskolan Skärholmen;Enskild;;018051601;74;201,6;50,0;77,0;
Stockholm;Kunskapsskolan Tyresö;Enskild;;81266343;84;195,4;61,9;90,5;
Stockholm;Kunskapsskolans Resursskola;Enskild;;24671487;..;..;.;.;
Stockholm;Kvickenstorpsskolan;Kommunal;Stockholm;38758770;100;178,5;51,0;81,0;
Stockholm;Kämpingeskolan;Kommunal;Stockholm;018000402;77;162,1;33,8;57,1;
Stockholm;L´estradska grundskolan;Enskild;;59900714;73;250,0;86,3;~100;
Stockholm;Lycée Francais Saint Louis;Enskild;;40610606;..;..;..;..;
Stockholm;Maria Elementarskola;Enskild;;73893187;56;259,6;96,4;100,0;
Stockholm;Mariaskolan;Kommunal;Stockholm;69895255;83;223,9;69,9;~100;
Stockholm;Martinskolan Söders waldorfsk;Enskild;;82854505;48;.;.;.;
Stockholm;Matteusskolan;Kommunal;Stockholm;16348406;114;227,4;77,2;95,6;
Stockholm;Musikskolan Lilla Akademien;Enskild;;36066067;24;270,4;83,3;100,0;
Stockholm;Mälarhöjdens skola;Kommunal;Stockholm;46165232;111;239,1;84,7;91,9;
Stockholm;Nya Elementar;Kommunal;Stockholm;83828066;120;242,5;92,5;~100;
Stockholm;Nytorpsskolan;Kommunal;Stockholm;23618510;42;192,6;66,7;73,8;
Stockholm;Rinkebyskolan;Kommunal;Stockholm;37416253;146;169,8;38,4;66,4;
Stockholm;Rågsvedsskolan;Kommunal;Stockholm;60382920;57;192,2;54,4;70,2;
Stockholm;Rålambshovsskolan;Kommunal;Stockholm;61686233;132;229,1;84,1;96,2;
Stockholm;Rödabergsskolan;Kommunal;Stockholm;97686250;44;255,7;90,9;~100;
Stockholm;Sjöängsskolan;Kommunal;Stockholm;13124830;120;196,4;70,8;82,5;
Stockholm;Skanskvarnsskolan;Kommunal;Stockholm;76952966;..;..;.;.;
Stockholm;Skolgrunden;Enskild;;23414344;..;..;..;..;
Stockholm;Sofia skola;Kommunal;Stockholm;45436515;159;235,3;86,2;~100;
Stockholm;Solbergaskolan;Kommunal;Stockholm;34671128;36;196,5;61,1;77,8;
Stockholm;Spånga gymnasium, grundskolan;Kommunal;Stockholm;17640364;118;240,2;88,1;~100;
Stockholm;S:t Eriks katolska skola;Enskild;;94943347;20;223,3;75,0;100,0;
Stockholm;S:t Örjans skolor;Kommunal;Stockholm;018016343;67;90,6;..;38,8;
Stockholm;Stadshagsskolan;Kommunal;Stockholm;018029307;74;226,4;74,3;90,5;
Stockholm;Stefanskolan;Enskild;;53147557;17;241,2;76,5;100,0;
Stockholm;Studemaskolan;Enskild;;91352227;..;..;..;..;
Stockholm;Sturebyskolan;Kommunal;Stockholm;91816093;70;225,3;95,7;100,0;
Stockholm;Sundbyskolan;Kommunal;Stockholm;44046131;106;207,5;74,5;90,6;
Stockholm;Svenska Interkulturella skolan;Enskild;;98705470;23;201,3;52,2;65,2;
Stockholm;Sverigefinska skolan i Sthlm;Enskild;;78508835;25;249,4;92,0;100,0;
Stockholm;Sätraskolan;Kommunal;Stockholm;21724208;46;169,6;52,2;73,9;
Stockholm;Södermalmskyrkans skola;Enskild;;14472068;21;218,5;76,2;~100;
Stockholm;Södra Ängby skola F-9;Kommunal;Stockholm;88795871;104;207,5;69,2;90,4;
Stockholm;Trollbodaskolan;Kommunal;Stockholm;89605548;112;225,6;81,3;95,5;
Stockholm;Tyska skolan;Enskild;;53175499;39;.;.;.;
Stockholm;Vasa Real;Kommunal;Stockholm;52863414;221;237,6;84,2;95,5;
Stockholm;Vasastans Montessoriskola;Enskild;;75656508;..;..;..;..;
Stockholm;Vintertullsskolan i Stockholm;Enskild;;28138418;18;128,6;..;~100;
Stockholm;Vårbergsskolan;Kommunal;Stockholm;018006101;49;182,7;46,9;71,4;
Stockholm;Vällingbyskolan;Kommunal;Stockholm;36031993;147;224,0;81,0;96,6;
Stockholm;Västbergaskolan;Enskild;;64736967;46;215,3;73,9;~100;
Stockholm;Årstaskolan;Kommunal;Stockholm;48328583;58;212,7;72,4;~100;
Stockholm;Åsö grundskola;Kommunal;Stockholm;94864296;93;220,8;67,7;92,5;
Stockholm;Äppelviksskolan;Kommunal;Stockholm;15594566;133;257,1;97,0;100,0;
Stockholm;Ärvingeskolan;Kommunal;Stockholm;11218326;107;212,2;60,7;87,9;
Stockholm;Österholmsskolan;Kommunal;Stockholm;018006401;147;205,0;68,7;84,4;
Sundbyberg;Hallonbergskolan;Kommunal;Sundbyberg;018300601;72;175,5;52,8;83,3;
Sundbyberg;Resursskolan/Furuvägen;Kommunal;Sundbyberg;018302201;..;..;.;..;
Sundbyberg;Rissneskolan;Kommunal;Sundbyberg;76870977;90;208,2;73,3;93,3;
Sundbyberg;Ängskolan;Kommunal;Sundbyberg;22847273;92;206,7;79,3;92,4;
Södertälje;Blombackaskolan;Kommunal;Södertälje;34148887;136;195,6;75,7;87,5;
Södertälje;Brunnsängskolan;Kommunal;Södertälje;60570294;100;211,8;79,0;94,0;
Södertälje;Ene/Ådalskolan;Kommunal;Södertälje;97655739;70;185,4;62,9;88,6;
Södertälje;Fornbackaskolan;Kommunal;Södertälje;71992738;46;183,0;60,9;65,2;
Södertälje;Freya Flickhem, grundskola;Enskild;;018110201;..;..;.;..;
Södertälje;Hovsjöskolan;Kommunal;Södertälje;82137009;76;157,1;40,8;65,8;
Södertälje;Hölöskolan;Kommunal;Södertälje;79466321;51;204,9;80,4;86,3;
Södertälje;Järna friskola;Enskild;;41584790;12;185,4;91,7;~100;
Södertälje;Krishnaskolan;Enskild;;018109601;..;..;..;..;
Södertälje;Mariaskolan;Enskild;;31528772;19;.;.;.;
Södertälje;Mikaelgården Läkeped. Institut;Enskild;;73075913;..;.;.;.;
Södertälje;Nyckelskolan;Enskild;;16068461;20;236,0;95,0;100,0;
Södertälje;Pershagenskolan;Kommunal;Södertälje;38653015;42;230,6;88,1;100,0;
Södertälje;Robert Anbergs skola;Kommunal;Södertälje;018110001;..;..;..;..;
Södertälje;Ronnaskolan;Kommunal;Södertälje;51210001;82;191,0;58,5;76,8;
Södertälje;Rosenborgskolan;Kommunal;Södertälje;11914814;92;181,3;64,1;77,2;
Södertälje;Saltåskolan grundskola;Enskild;;018108603;..;.;.;.;
Södertälje;Soldalaskolan;Kommunal;Södertälje;40175889;64;199,4;70,3;89,1;
Södertälje;Solvikskolan;Enskild;;45994471;..;..;.;..;
Södertälje;Södertälje friskola;Enskild;;38394561;25;183,8;52,0;~100;
Södertälje;Vatt-Annas projektskola;Kommunal;Södertälje;018109701;..;..;..;..;
Södertälje;Wasaskolan MH;Kommunal;Södertälje;56568612;101;189,7;68,3;81,2;
Södertälje;Örjanskolan;Enskild;;10661388;25;.;.;.;
Tyresö;Dalskolan;Kommunal;Tyresö;56130729;74;205,8;90,5;~100;
Tyresö;Forellskolan;Kommunal;Tyresö;013800101;118;197,4;61,0;~100;
Tyresö;Kumla skola F-9;Kommunal;Tyresö;37147254;104;217,4;76,0;95,2;
Tyresö;Nyboda skola F-9;Kommunal;Tyresö;013800201;123;184,7;56,9;78,9;
Tyresö;Strandskolan;Kommunal;Tyresö;87665835;61;211,3;86,9;~100;
Täby;Bergtorpsskolan;Enskild;;24142153;159;221,2;73,6;94,3;
Täby;FKC Mellansjö skola;Enskild;;54332921;..;..;.;.;
Täby;IMR-skolan;Enskild;;64580337;18;246,9;83,3;~100;
Täby;Kunskapsskolan i Täby;Enskild;;25309669;81;213,1;74,1;93,8;
Täby;Näsbydalskolan;Kommunal;Täby;22807677;174;219,5;81,6;93,7;
Täby;Näsbyparksskolan;Kommunal;Täby;96330648;72;201,3;72,2;77,8;
Täby;Skarpängsskolan;Kommunal;Täby;83454509;115;222,3;88,7;~100;
Täby;Skolhagenskolan;Kommunal;Täby;69088221;135;233,6;88,9;100,0;
Täby;Täby friskola;Enskild;;32231541;61;240,6;98,4;~100;
Upplands Väsby;Grimsta skola;Kommunal;Upplands Väsby;44227469;114;195,6;71,9;86,0;
Upplands Väsby;Parkskolan;Kommunal;Upplands Väsby;011402001;..;..;.;..;
Upplands Väsby;Runby skola;Kommunal;Upplands Väsby;77624936;61;192,1;54,1;90,2;
Upplands Väsby;Smedbynavet;Kommunal;Upplands Väsby;36789655;38;152,8;36,8;73,7;
Upplands Väsby;Sverigefinska sk, Uppl Väsby;Enskild;;68403656;19;206,3;..;~100;
Upplands Väsby;Södervikskolan;Kommunal;Upplands Väsby;011402201;72;205,1;69,4;91,7;
Upplands Väsby;Väsbyskolan;Kommunal;Upplands Väsby;31018677;110;202,4;52,7;83,6;
Upplands-Bro;Broskolan;Kommunal;Upplands-Bro;16983719;114;185,3;64,0;90,4;
Upplands-Bro;Ekhammarskolan;Kommunal;Upplands-Bro;92284588;93;201,3;78,5;92,5;
Upplands-Bro;Hagnässkolan;Kommunal;Upplands-Bro;16969143;66;197,4;75,8;84,8;
Upplands-Bro;Källskolan;Enskild;;69098787;21;190,0;76,2;~100;
Vallentuna;Hammarbacksskolan;Kommunal;Vallentuna;31772387;93;191,6;64,5;92,5;
Vallentuna;Hjälmstaskolan;Kommunal;Vallentuna;16855764;153;206,8;69,3;93,5;
Vallentuna;Karbyskolan;Kommunal;Vallentuna;57370453;55;196,3;70,9;87,3;
Vaxholm;Norrbergsskolan;Kommunal;Vaxholm;24710426;95;209,5;81,1;91,6;
Värmdö;BIBS;Kommunal;Värmdö;012002601;..;..;.;..;
Värmdö;Brunns skola;Kommunal;Värmdö;42434583;44;215,8;72,7;~100;
Värmdö;Djurö skola;Kommunal;Värmdö;60606792;28;218,2;85,7;~100;
Värmdö;Hemmestaskolan 6-9;Kommunal;Värmdö;69982204;137;206,4;81,0;96,4;
Värmdö;Kvarnbergsskolan;Kommunal;Värmdö;80158922;61;191,6;65,6;86,9;
Värmdö;Lemshaga Akademi Barn o Ungdom;Enskild;;11364996;21;232,1;90,5;100,0;
Värmdö;Möja skola;Kommunal;Värmdö;53821266;..;..;..;..;
Värmdö;Runmarö skola;Kommunal;Värmdö;012000904;..;..;..;..;
Värmdö;Svartsö skola;Kommunal;Värmdö;012000902;..;..;..;..;
Värmdö;Ösbyskolan;Kommunal;Värmdö;88283203;71;218,0;83,1;~100;
Österåker;Akers friskola F-9;Enskild;;10715898;22;232,7;95,5;100,0;
Österåker;Bergaskolan;Kommunal;Österåker;011700301;92;192,9;62,0;83,7;
Österåker;Ljusterö skola;Kommunal;Österåker;53319802;26;231,9;92,3;~100;
Österåker;Sjökarbyskolan;Kommunal;Österåker;23756252;24;187,7;62,5;~100;
Österåker;Solskiftesskolan;Kommunal;Österåker;82624830;51;186,5;58,8;88,2;
Österåker;Söraskolan;Kommunal;Österåker;88712672;113;204,5;76,1;86,7;
Österåker;Tråsätraskolan;Kommunal;Österåker;51305351;112;201,2;74,1;90,2;