﻿Kommun;Skola;Typ av huvudman;Huvudman;Skol-enhetskod;Antal elever;Genomsnittligt meritvärde (16);Andel som uppnått kunskapskraven i alla ämnen;Andel (%) behöriga till nationella program;
Botkyrka;Björkhaga skola;Kommunal;Botkyrka;43238662;75;225,7;90,7;~100;
Botkyrka;Borgskolan;Kommunal;Botkyrka;71048800;53;199,0;62,3;67,9;
Botkyrka;Botkyrka Friskola F-9;Enskild;;80378022;42;222,3;88,1;~100;
Botkyrka;Botkyrkas förberedelseklasser;Kommunal;Botkyrka;012706001;42;71,9;.;..;
Botkyrka;Broängsskolan;Kommunal;Botkyrka;38661388;154;226,6;90,3;96,1;
Botkyrka;Brunnaskolan;Kommunal;Botkyrka;53426548;31;175,6;61,3;67,7;
Botkyrka;Falkbergsskolan;Kommunal;Botkyrka;85558618;123;214,7;81,3;92,7;
Botkyrka;Fittjaskolan Botkyrka Norra;Kommunal;Botkyrka;40631085;61;176,0;50,8;73,8;
Botkyrka;Freinetskolan Kastanjen;Enskild;;29524966;22;230,2;68,2;100,0;
Botkyrka;Grindtorpsskolan;Kommunal;Botkyrka;57228484;..;..;.;..;
Botkyrka;Kunskapsskolan Botkyrka;Enskild;;84411355;112;233,2;69,6;95,5;
Botkyrka;Kvarnhagsskolan;Kommunal;Botkyrka;56417100;77;187,7;53,2;71,4;
Botkyrka;Kärsbyskolan F-9;Kommunal;Botkyrka;67742754;89;199,9;62,9;80,9;
Botkyrka;Storvretskolan;Kommunal;Botkyrka;18534178;70;189,0;54,3;72,9;
Botkyrka;Sverigefinska skolan, Botkyrka;Enskild;;57850353;17;238,2;88,2;100,0;
Botkyrka;Trädgårdsstadsskolan;Kommunal;Botkyrka;58310322;81;219,9;91,4;100,0;
Botkyrka;Tunaskolan;Kommunal;Botkyrka;36350546;82;183,4;61,0;79,3;
Danderyd;Framnäsgruppen AB skolan;Enskild;;13475641;..;..;.;..;
Danderyd;Fribergaskolan;Kommunal;Danderyd;42986451;152;244,0;95,4;~100;
Danderyd;Mörbyskolan;Kommunal;Danderyd;97174070;157;244,6;87,9;~100;
Danderyd;Viktor Rydbergs Samskola;Enskild;;13493243;158;255,1;94,9;100,0;
Ekerö;Birkaskolan;Enskild;;27595656;30;264,7;96,7;100,0;
Ekerö;Ekebyhovskolan;Kommunal;Ekerö;99373839;58;215,7;81,0;~100;
Ekerö;Färingeskolan;Enskild;;012502201;..;.;.;.;
Ekerö;Stockbyskolan;Kommunal;Ekerö;012501803;..;..;.;..;
Ekerö;Sundsgården;Enskild;;14571770;..;..;..;..;
Ekerö;Tappströmsskolan;Kommunal;Ekerö;52217632;126;232,2;82,5;~100;
Ekerö;Träkvista skola;Kommunal;Ekerö;66475520;39;217,3;79,5;~100;
Ekerö;Uppgårdskolan;Kommunal;Ekerö;95057356;106;195,8;77,4;87,7;
Haninge;Brandbergsskolan;Kommunal;Haninge;73184968;117;210,0;76,1;85,5;
Haninge;Dalarö skola;Kommunal;Haninge;74610376;30;204,5;80,0;~100;
Haninge;Jordbromalmsskolan;Kommunal;Haninge;013600307;91;158,5;28,6;56,0;
Haninge;Lyckebyskolan;Kommunal;Haninge;81680693;83;223,7;92,8;~100;
Haninge;Ribbyskolan;Kommunal;Haninge;59497255;167;200,0;65,3;87,4;
Haninge;Rudanskolan;Enskild;;17957898;95;191,2;69,5;81,1;
Haninge;Söderbymalmsskolan;Kommunal;Haninge;10035236;159;193,9;60,4;79,9;
Haninge;Tungelsta skola;Kommunal;Haninge;38975788;85;186,7;55,3;76,5;
Haninge;Utö skola;Kommunal;Haninge;86577795;..;..;..;..;
Haninge;Vendelsömalmsskolan 6-9;Kommunal;Haninge;72266104;117;224,5;78,6;94,0;
Huddinge;Annerstaskolan;Kommunal;Huddinge;79012683;108;177,3;50,9;65,7;
Huddinge;Balingsnässkolan;Kommunal;Huddinge;13654969;55;226,8;87,3;~100;
Huddinge;Beatebergsskolan;Kommunal;Huddinge;012602504;..;..;.;..;
Huddinge;Brandsprutan 2;Kommunal;Huddinge;012602505;..;..;.;..;
Huddinge;Carat;Kommunal;Huddinge;012602509;..;..;.;..;
Huddinge;Edboskolan;Kommunal;Huddinge;98477278;75;207,9;84,0;~100;
Huddinge;Kungsklippeskolan;Kommunal;Huddinge;89510449;51;227,7;84,3;~100;
Huddinge;Kvarnbergsskolan;Kommunal;Huddinge;54516737;259;218,7;87,6;95,0;
Huddinge;Källbrinksskolan;Kommunal;Huddinge;41213404;91;209,7;80,2;91,2;
Huddinge;Segeltorpsskolan;Kommunal;Huddinge;15483394;104;216,9;83,7;93,3;
Huddinge;Skogåsskolan;Kommunal;Huddinge;93760143;52;197,2;69,2;82,7;
Huddinge;Södertörns friskola;Enskild;;22019000;89;203,8;79,8;92,1;
Huddinge;Tomtbergaskolan;Kommunal;Huddinge;28313791;43;209,7;67,4;86,0;
Huddinge;Trångsundsskolan;Kommunal;Huddinge;42601396;64;225,2;90,6;~100;
Huddinge;Vistaskolan;Kommunal;Huddinge;50783450;37;192,2;70,3;86,5;
Huddinge;Vretskolan;Kommunal;Huddinge;39229061;80;209,2;77,5;91,3;
Huddinge;Vårbyskolan;Kommunal;Huddinge;64949601;72;171,1;37,5;58,3;
Järfälla;Al-Mustafa skolan;Enskild;;012305201;13;157,7;..;..;
Järfälla;Björkebyskolan;Kommunal;Järfälla;40847752;163;225,8;73,0;91,4;
Järfälla;Engelska Skolan i Järfälla;Enskild;;79093755;120;227,0;82,5;~100;
Järfälla;Fjällenskolan;Kommunal;Järfälla;15080815;102;223,0;83,3;93,1;
Järfälla;Källtorpskolan;Kommunal;Järfälla;17287315;127;201,5;68,5;83,5;
Järfälla;Tallbohovskolan;Kommunal;Järfälla;97777849;70;188,1;60,0;70,0;
Järfälla;Viksjöskolan;Kommunal;Järfälla;98925408;208;204,2;78,4;92,8;
Järfälla;Vittra i Jakobsberg;Enskild;;66634449;43;249,3;100,0;100,0;
Lidingö;Bodals skola;Kommunal;Lidingö;98780182;70;233,9;91,4;~100;
Lidingö;Dalskolan;Kommunal;Lidingö;76738650;..;..;.;..;
Lidingö;Högsätra sk. förberedelseklass;Kommunal;Lidingö;83975668;..;.;.;.;
Lidingö;Högsätra skola;Kommunal;Lidingö;95431374;81;237,8;87,7;~100;
Lidingö;Källängens skola;Kommunal;Lidingö;69329486;113;254,6;97,3;~100;
Lidingö;Käppala skola;Kommunal;Lidingö;11145649;82;246,8;87,8;~100;
Lidingö;Kärnskolan;Kommunal;Lidingö;13696709;..;..;.;..;
Lidingö;Parkskolan;Kommunal;Lidingö;36280955;..;.;.;.;
Lidingö;Torsviks skola;Kommunal;Lidingö;90564565;120;255,6;96,7;~100;
Lidingö;Vittra på Lidingö;Enskild;;46585145;36;268,2;97,2;100,0;
Nacka;Alphyddeskolan;Kommunal;Nacka;30066063;..;..;.;..;
Nacka;Björknässkolan;Kommunal;Nacka;75834458;144;234,9;81,9;~100;
Nacka;Centrumskolan;Kommunal;Nacka;35986188;10;..;.;..;
Nacka;Eklidens skola;Kommunal;Nacka;47243834;190;244,9;86,8;96,8;
Nacka;Fisksätraskolan;Kommunal;Nacka;91011718;39;219,0;61,5;66,7;
Nacka;Kunskapsskolan Nacka;Enskild;;87425546;82;235,2;80,5;~100;
Nacka;Maestroskolan Nacka;Enskild;;64065898;..;..;..;..;
Nacka;Montessoriskolan Castello;Enskild;;34135484;26;249,6;84,6;~100;
Nacka;Myrsjöskolan;Kommunal;Nacka;84884375;194;237,0;91,2;~100;
Nacka;Qvarnholmens skola;Enskild;;018207501;35;197,7;60,0;80,0;
Nacka;Saltsjöbadens samskola;Kommunal;Nacka;11777750;150;245,2;84,7;96,0;
Nacka;Skuru skola;Kommunal;Nacka;85321366;165;247,8;92,7;~100;
Nacka;Snitz Resursskola;Enskild;;82438535;..;..;.;..;
Nacka;Stavsborgsskolan;Kommunal;Nacka;14040970;157;231,2;85,4;94,9;
Nacka;Vittra i Saltsjö-Boo;Enskild;;44802890;30;226,0;76,7;~100;
Norrtälje;Bålbro skola;Kommunal;Norrtälje;45874608;53;168,9;54,7;71,7;
Norrtälje;Centralskolan;Kommunal;Norrtälje;018803201;85;192,4;58,8;82,4;
Norrtälje;Ekebyholmsskolan;Enskild;;98239828;33;219,5;51,5;~100;
Norrtälje;Flygskolan;Kommunal;Norrtälje;018804801;46;183,5;56,5;82,6;
Norrtälje;Freinetskolan Mimer;Enskild;;45133950;21;237,4;90,5;~100;
Norrtälje;Heraskolan;Kommunal;Norrtälje;018804710;..;..;.;.;
Norrtälje;Lommarskolan;Kommunal;Norrtälje;15312030;37;188,6;62,2;~100;
Norrtälje;Lommarskolan resursklass;Kommunal;Norrtälje;018800307;..;..;..;..;
Norrtälje;Lommarskolan samverkansklass;Kommunal;Norrtälje;018800306;..;..;.;.;
Norrtälje;Långsjöskolan;Kommunal;Norrtälje;99749462;102;211,9;79,4;90,2;
Norrtälje;Länna skola;Kommunal;Norrtälje;72471883;64;192,1;62,5;73,4;
Norrtälje;Montessoriskolan i Norrtälje;Enskild;;99665701;16;213,1;87,5;100,0;
Norrtälje;Norrsundsskolan;Kommunal;Norrtälje;61218902;69;208,0;75,4;89,9;
Norrtälje;Norrtälje Fria skola;Enskild;;018805901;34;194,8;52,9;85,3;
Norrtälje;Roslagsskolan;Kommunal;Norrtälje;31851256;174;212,3;70,1;89,1;
Norrtälje;Rådmansö skola;Kommunal;Norrtälje;50905672;23;224,8;87,0;~100;
Norrtälje;Svanbergaskolan;Kommunal;Norrtälje;59975651;50;230,9;88,0;90,0;
Norrtälje;Viby friskola;Enskild;;54806839;26;170,6;65,4;~100;
Nykvarn;Björkestaskolan;Kommunal;Nykvarn;68422076;44;212,0;95,5;~100;
Nykvarn;Lillhagaskolan;Kommunal;Nykvarn;99640618;54;199,3;75,9;~100;
Nykvarn;Turingeskolan;Kommunal;Nykvarn;93844270;51;227,7;92,2;~100;
Nynäshamn;Gröndalsskolan 6-9;Kommunal;Nynäshamn;019201501;91;191,6;61,5;86,8;
Nynäshamn;Sunnerbyskolan 7-9;Kommunal;Nynäshamn;019202101;88;210,7;76,1;93,2;
Nynäshamn;Svandammsskolan 6-9;Kommunal;Nynäshamn;019201601;57;207,1;75,4;~100;
Nynäshamn;Vanstaskolan F-9;Kommunal;Nynäshamn;73184416;101;202,7;68,3;89,1;
Nynäshamn;Viaskolan 6-9;Kommunal;Nynäshamn;019201401;60;211,3;90,0;~100;
Salem;Nytorpsskolan;Kommunal;Salem;36262199;28;256,4;100,0;100,0;
Salem;Rönninge skola;Kommunal;Salem;71677992;58;244,9;98,3;100,0;
Salem;Skogsängsskolan;Kommunal;Salem;58385274;82;204,5;68,3;76,8;
Salem;Säbyskolan;Kommunal;Salem;92406445;67;211,2;79,1;~100;
Salem;Söderby friskola;Enskild;;56858061;22;231,8;77,3;~100;
Sigtuna;Centralskolan;Kommunal;Sigtuna;61056172;47;223,3;87,2;89,4;
Sigtuna;Ekillaskolan;Kommunal;Sigtuna;14261356;195;202,4;70,8;85,1;
Sigtuna;Josefinaskolan, grundskola;Enskild;;55508705;28;.;.;.;
Sigtuna;Sigtunaskolan hum. läroverket;Enskild;;70883860;70;253,1;84,3;~100;
Sigtuna;S:t Olof;Kommunal;Sigtuna;13579948;102;210,5;84,3;89,2;
Sigtuna;Valstaskolan;Kommunal;Sigtuna;61234191;135;196,9;63,0;83,7;
Sollentuna;Djupdalsskolan, RH-enhet;Kommunal;Sollentuna;91730309;..;..;..;..;
Sollentuna;Edsbergsskolan;Kommunal;Sollentuna;38076081;147;223,0;76,9;93,9;
Sollentuna;Förberedelseklasser;Kommunal;Sollentuna;91113722;..;.;.;.;
Sollentuna;Gillboskolorna;Kommunal;Sollentuna;59955409;84;211,2;82,1;94,0;
Sollentuna;Gärdesskolan;Kommunal;Sollentuna;77585025;57;216,9;75,4;~100;
Sollentuna;Helenelundsskolan;Kommunal;Sollentuna;15572902;145;224,1;86,2;91,7;
Sollentuna;Hertig Karls friskolor;Enskild;;40467992;26;208,3;92,3;100,0;
Sollentuna;Häggviksskolan;Kommunal;Sollentuna;96594250;124;207,4;78,2;91,1;
Sollentuna;Mikaelskolan;Enskild;;85777315;14;183,2;..;~100;
Sollentuna;Rotsunda skolor;Kommunal;Sollentuna;96318226;58;216,0;77,6;~100;
Sollentuna;Runan;Kommunal;Sollentuna;62737044;49;236,0;91,8;~100;
Sollentuna;Sofielundsskolan;Kommunal;Sollentuna;68288321;48;232,7;79,2;85,4;
Sollentuna;Sollentuna internat. school;Kommunal;Sollentuna;27740655;26;245,0;61,5;~100;
Sollentuna;Sollentuna musikklasser;Kommunal;Sollentuna;21871265;57;261,2;93,0;~100;
Sollentuna;Tal- o språkcentrum Sollentuna;Kommunal;Sollentuna;12092203;10;..;.;.;
Sollentuna;Vibyskolan;Enskild;;15547680;29;231,9;93,1;100,0;
Sollentuna;Vittra i Sollentuna;Enskild;;58102266;53;231,2;86,8;~100;
Solna;Alfaskolan;Enskild;;27323097;22;239,3;100,0;100,0;
Solna;Bagartorpsskolan;Kommunal;Solna;39508236;29;214,8;69,0;~100;
Solna;Bergshamraskolan;Kommunal;Solna;43133926;65;220,2;73,8;87,7;
Solna;Hagalundsskolan;Kommunal;Solna;018400201;56;186,3;64,3;80,4;
Solna;Ingridskolan, grundskola;Enskild;;53259263;12;175,8;..;~100;
Solna;Nybodaskolan;Kommunal;Solna;018406301;..;..;.;..;
Solna;Råsunda skola;Kommunal;Solna;69725476;113;225,6;86,7;100,0;
Solna;Skytteholmsskolan;Kommunal;Solna;84278529;75;222,1;77,3;~100;
Solna;Svedenskolan grundskola;Enskild;;89893224;..;..;.;.;
Solna;Tallbackaskolan;Kommunal;Solna;73581523;93;214,6;66,7;94,6;
Solna;Vittra i Frösunda;Enskild;;48760074;30;214,5;86,7;~100;
Solna;Ängkärrsskolan i Solna;Enskild;;98515782;27;161,5;37,0;66,7;
Stockholm;Abrahamsbergsskolan;Kommunal;Stockholm;44673074;141;237,0;83,0;~100;
Stockholm;Adolf Fredriks musikklasser;Kommunal;Stockholm;99648792;183;274,7;95,6;~100;
Stockholm;Akallaskolan;Kommunal;Stockholm;37796564;80;200,3;65,0;82,5;
Stockholm;Al-Azharskolan;Enskild;;90711097;21;206,0;66,7;~100;
Stockholm;Alla Nationers Fria skola;Enskild;;82838118;14;215,4;..;~100;
Stockholm;Alviksskolan;Kommunal;Stockholm;72627865;104;213,8;76,0;83,7;
Stockholm;Alzahraa Idealiska akademi;Enskild;;77656740;19;178,4;57,9;68,4;
Stockholm;AspDampForum;Enskild;;93301103;..;..;.;..;
Stockholm;Aspuddens skola;Kommunal;Stockholm;72672270;144;222,2;87,5;~100;
Stockholm;Bagarmossens skola;Kommunal;Stockholm;13679897;75;205,2;53,3;85,3;
Stockholm;Björkhagens skola;Kommunal;Stockholm;43088454;133;235,6;85,0;96,2;
Stockholm;Blommensbergsskolan;Kommunal;Stockholm;82140090;108;228,7;75,0;92,6;
Stockholm;Bredbyskolan;Kommunal;Stockholm;27287797;36;172,8;50,0;80,6;
Stockholm;Bredängsskolan;Kommunal;Stockholm;14121892;78;191,2;53,8;80,8;
Stockholm;Bäckahagens skola;Kommunal;Stockholm;20683111;130;206,1;62,3;88,5;
Stockholm;Carlssons skola;Enskild;;35547286;60;270,6;98,3;100,0;
Stockholm;Central skola Al-Huda;Enskild;;018059401;..;..;..;..;
Stockholm;DiStra resursenhet City;Enskild;;35784391;..;..;..;..;
Stockholm;DiStra Resursenhet Väst;Enskild;;76324672;..;..;.;..;
Stockholm;DiStra resursenhet-söder;Enskild;;34880783;..;..;.;..;
Stockholm;DiStra skola-city;Enskild;;018053801;21;223,6;71,4;~100;
Stockholm;DiStra skola-syd;Enskild;;39975473;27;206,3;88,9;~100;
Stockholm;DiStra skola-väst;Enskild;;018062101;20;224,0;65,0;~100;
Stockholm;Ellen Key skolan;Enskild;;16394249;22;.;.;.;
Stockholm;Enbacksskolan;Kommunal;Stockholm;43632318;30;195,2;53,3;83,3;
Stockholm;Engelbrektsskolan;Kommunal;Stockholm;87521048;178;246,4;72,5;95,5;
Stockholm;Engelska Skolan i Bromma;Enskild;;90732940;178;258,2;84,3;96,1;
Stockholm;Engelska Skolan i Enskede gr;Enskild;;38935587;178;252,5;88,8;~100;
Stockholm;Engelska Skolan Norr;Enskild;;29725531;50;249,9;88,0;~100;
Stockholm;Enskede byskola;Enskild;;29585072;..;..;.;..;
Stockholm;Enskede skola;Kommunal;Stockholm;72248694;117;235,5;91,5;~100;
Stockholm;Enskilda gymnasiet;Enskild;;92750123;59;286,8;98,3;100,0;
Stockholm;Eriksdalsskolan;Kommunal;Stockholm;59249600;205;232,3;82,9;91,7;
Stockholm;ESS-gymnasiet, grund;Kommunal;Stockholm;55628203;..;..;.;.;
Stockholm;Estniska skolan;Enskild;;34540901;18;242,4;66,7;~100;
Stockholm;Europaskolan på Södermalm;Enskild;;79969356;20;283,4;95,0;~100;
Stockholm;Franska Skolan/Ecole francaise;Enskild;;42328518;62;268,3;95,2;100,0;
Stockholm;Fredrikshovs slotts skola;Enskild;;64065082;30;266,5;96,7;100,0;
Stockholm;Fruängens skola;Kommunal;Stockholm;19353396;90;199,0;75,6;91,1;
Stockholm;Första Sportskolan;Enskild;;10360193;32;239,2;84,4;~100;
Stockholm;Grimstaskolan;Kommunal;Stockholm;51341279;45;184,9;55,6;77,8;
Stockholm;Gubbängsskolan;Kommunal;Stockholm;93412255;120;209,9;82,5;87,5;
Stockholm;Gärdesskolan;Kommunal;Stockholm;41176931;189;250,1;88,9;97,4;
Stockholm;Hagsätraskolan;Kommunal;Stockholm;82110758;71;176,2;62,0;71,8;
Stockholm;Hjulstaskolan;Kommunal;Stockholm;69266159;143;146,1;29,4;41,3;
Stockholm;Husbyskolan;Kommunal;Stockholm;018023801;58;163,5;31,0;55,2;
Stockholm;Hässelby Villastads skola;Kommunal;Stockholm;86597125;111;235,4;88,3;~100;
Stockholm;Hässelbygårdsskolan;Kommunal;Stockholm;87838841;114;171,5;48,2;64,9;
Stockholm;Högalidsskolan;Kommunal;Stockholm;24716970;136;237,8;78,7;~100;
Stockholm;Höglandsskolan;Kommunal;Stockholm;36281817;29;265,3;86,2;100,0;
Stockholm;Hökarängsskolan;Kommunal;Stockholm;57184925;92;192,5;59,8;69,6;
Stockholm;Internat. school of Sthlm gr.;Enskild;;85670099;36;175,3;.;..;
Stockholm;Johan Skytteskolan;Kommunal;Stockholm;97683561;181;231,9;79,6;95,6;
Stockholm;Katarina Norra skola;Kommunal;Stockholm;23617768;71;238,7;87,3;91,5;
Stockholm;Kristofferskolan;Enskild;;98760751;54;246,9;88,9;~100;
Stockholm;Kulturama Musikdramatiska grsk;Enskild;;23066257;57;254,0;94,7;~100;
Stockholm;Kulturskolan Raketen;Enskild;;24172067;23;257,6;100,0;100,0;
Stockholm;Kunskapsskolan Enskede;Enskild;;16426165;132;248,2;93,2;96,2;
Stockholm;Kunskapsskolan Fruängen;Enskild;;63954028;125;240,2;83,2;~100;
Stockholm;Kunskapsskolan Kista;Enskild;;98098631;75;227,4;73,3;93,3;
Stockholm;Kunskapsskolan Skärholmen;Enskild;;018051601;24;206,0;70,8;~100;
Stockholm;Kunskapsskolan Spånga;Enskild;;46796995;68;219,3;83,8;91,2;
Stockholm;Kunskapsskolan Tyresö;Enskild;;81266343;126;251,8;92,9;~100;
Stockholm;Kunskapsskolans Resursskola;Enskild;;24671487;..;..;..;..;
Stockholm;Kvickenstorpsskolan;Kommunal;Stockholm;38758770;106;194,2;63,2;81,1;
Stockholm;Lillholmsskolan;Kommunal;Stockholm;46581319;61;225,0;67,2;85,2;
Stockholm;Lunaskolan;Enskild;;72509254;..;..;..;..;
Stockholm;Lycée Francais Saint Louis;Enskild;;40610606;25;222,6;64,0;68,0;
Stockholm;Maria Elementarskola;Enskild;;73893187;28;260,9;92,9;100,0;
Stockholm;Mariaskolan;Kommunal;Stockholm;69895255;81;227,7;86,4;~100;
Stockholm;Martinskolan Söders waldorfsk;Enskild;;82854505;21;.;.;.;
Stockholm;Matteusskolan;Kommunal;Stockholm;16348406;112;238,3;76,8;~100;
Stockholm;MBC skolan Södermalm;Enskild;;57034070;10;..;.;..;
Stockholm;MBC skolan Älvsjö;Enskild;;38096510;..;..;.;..;
Stockholm;Musikskolan Lilla Akademien;Enskild;;36066067;24;267,5;95,8;100,0;
Stockholm;Mälarhöjdens skola;Kommunal;Stockholm;46165232;130;253,7;93,8;~100;
Stockholm;Nya Elementar;Kommunal;Stockholm;83828066;130;235,9;80,8;95,4;
Stockholm;Nytorpsskolan;Kommunal;Stockholm;23618510;65;198,9;72,3;78,5;
Stockholm;Raoul Wallenbergskolan Bromma;Enskild;;50848996;80;239,0;70,0;~100;
Stockholm;Rinkebyskolan;Kommunal;Stockholm;37416253;103;195,8;45,6;68,0;
Stockholm;Rågsvedsskolan;Kommunal;Stockholm;60382920;46;162,4;39,1;56,5;
Stockholm;Rålambshovsskolan;Kommunal;Stockholm;61686233;159;248,8;89,9;~100;
Stockholm;Rödabergsskolan;Kommunal;Stockholm;97686250;81;271,0;91,4;~100;
Stockholm;Sjöängsskolan;Kommunal;Stockholm;13124830;104;204,7;64,4;85,6;
Stockholm;Skanskvarnsskolan;Kommunal;Stockholm;76952966;..;..;.;.;
Stockholm;Skarpnäcks Fria skola;Enskild;;60308449;14;236,8;92,9;100,0;
Stockholm;Skolgrunden;Enskild;;23414344;11;144,5;..;..;
Stockholm;Smedshagsskolan;Kommunal;Stockholm;50060022;23;183,0;47,8;69,6;
Stockholm;Sofia skola;Kommunal;Stockholm;45436515;158;221,4;69,0;90,5;
Stockholm;Sofiaängens skola;Enskild;;86086213;..;..;.;..;
Stockholm;Solbergaskolan;Kommunal;Stockholm;34671128;54;216,3;66,7;87,0;
Stockholm;Sonja Kovalevsky-skolan;Enskild;;018050601;16;237,5;75,0;~100;
Stockholm;Spånga gymnasium, grundskolan;Kommunal;Stockholm;17640364;119;215,3;71,4;94,1;
Stockholm;S:t Eriks katolska skola;Enskild;;94943347;24;234,4;75,0;100,0;
Stockholm;S:t Örjans skolor;Kommunal;Stockholm;018016343;57;112,1;..;50,9;
Stockholm;Stadshagsskolan;Kommunal;Stockholm;018029307;73;216,5;69,9;89,0;
Stockholm;Stefanskolan;Enskild;;53147557;..;..;..;..;
Stockholm;Stockholms Rh-gymnasium, grund;Kommunal;Stockholm;34047582;..;..;.;..;
Stockholm;Stockholms Språkskola;Enskild;;11532790;..;..;..;..;
Stockholm;Studemaskolan;Enskild;;91352227;12;236,3;..;100,0;
Stockholm;Sturebyskolan;Kommunal;Stockholm;91816093;113;227,1;91,2;95,6;
Stockholm;Sundbyskolan;Kommunal;Stockholm;44046131;78;207,9;74,4;85,9;
Stockholm;Sv Interkulturella grundskolan;Enskild;;98705470;18;196,4;72,2;~100;
Stockholm;Sverigefinska skolan Sthlm;Enskild;;78508835;33;226,7;57,6;100,0;
Stockholm;Sätraskolan;Kommunal;Stockholm;21724208;64;180,2;54,7;67,2;
Stockholm;Söderholmsskolan;Kommunal;Stockholm;18064456;47;215,6;72,3;87,2;
Stockholm;Södermalmskyrkans Kristna sk.;Enskild;;14472068;17;262,1;94,1;100,0;
Stockholm;Södermalmsskolan;Kommunal;Stockholm;75614609;75;239,8;88,0;~100;
Stockholm;Södra Ängby skola F-9;Kommunal;Stockholm;88795871;117;243,5;86,3;90,6;
Stockholm;Tasava skola;Enskild;;82448624;..;..;.;..;
Stockholm;Tornadoskolan;Enskild;;29796042;25;220,8;88,0;~100;
Stockholm;Trollbodaskolan;Kommunal;Stockholm;89605548;84;217,3;54,8;85,7;
Stockholm;Tyska skolan;Enskild;;53175499;40;.;.;.;
Stockholm;Tätorpsskolan;Kommunal;Stockholm;95801750;129;202,0;73,6;86,8;
Stockholm;Vasa Real;Kommunal;Stockholm;52863414;180;252,7;82,8;97,2;
Stockholm;Vasastans Montessoriskola;Enskild;;75656508;..;..;..;..;
Stockholm;Vinstagårdsskolan;Kommunal;Stockholm;82850292;185;222,0;73,5;86,5;
Stockholm;Vintertullsskolan i Stockholm;Enskild;;28138418;..;..;..;..;
Stockholm;Vittra i Sjöstaden;Enskild;;28778917;16;227,5;75,0;100,0;
Stockholm;Vittra på Södermalm;Enskild;;59900714;75;229,9;86,7;~100;
Stockholm;Vällingbyskolan;Kommunal;Stockholm;36031993;90;219,3;82,2;92,2;
Stockholm;Västbergaskolan;Enskild;;64736967;60;208,3;71,7;86,7;
Stockholm;Västerholms friskola;Enskild;;35890890;68;212,0;61,8;80,9;
Stockholm;Årstaskolan;Kommunal;Stockholm;48328583;77;196,2;55,8;85,7;
Stockholm;Åsö grundskola;Kommunal;Stockholm;94864296;173;239,2;77,5;95,4;
Stockholm;Äppelviksskolan;Kommunal;Stockholm;15594566;147;266,0;95,9;100,0;
Stockholm;Ärvingeskolan;Kommunal;Stockholm;11218326;85;195,9;57,6;82,4;
Sundbyberg;Freinetskolan Vandraren;Enskild;;30083081;..;..;..;..;
Sundbyberg;Rissneskolan;Kommunal;Sundbyberg;76870977;117;190,0;59,0;86,3;
Sundbyberg;Ängskolan;Kommunal;Sundbyberg;22847273;114;215,7;77,2;90,4;
Södertälje;Blombackaskolan;Kommunal;Södertälje;34148887;126;201,7;69,8;88,1;
Södertälje;Brunnsängskolan;Kommunal;Södertälje;60570294;122;218,3;78,7;88,5;
Södertälje;Hovsjöskolan;Kommunal;Södertälje;82137009;75;167,9;38,7;52,0;
Södertälje;Hölöskolan;Kommunal;Södertälje;79466321;65;218,1;81,5;87,7;
Södertälje;Järna friskola;Enskild;;41584790;23;230,7;91,3;~100;
Södertälje;Järna Grundskola;Kommunal;Södertälje;97655739;114;210,6;65,8;89,5;
Södertälje;Kringlaskolan;Enskild;;74489639;19;179,7;68,4;73,7;
Södertälje;Mariaskolan;Enskild;;31528772;18;.;.;.;
Södertälje;Mikaelgården Läkeped. Institut;Enskild;;73075913;..;.;.;.;
Södertälje;Nyckelskolan;Enskild;;16068461;18;218,6;94,4;~100;
Södertälje;Pershagenskolan;Kommunal;Södertälje;38653015;64;227,0;89,1;~100;
Södertälje;Ronnaskolan;Kommunal;Södertälje;51210001;131;177,4;48,9;60,3;
Södertälje;Rosenborgskolan;Kommunal;Södertälje;11914814;178;200,4;70,2;78,1;
Södertälje;Solvikskolan;Enskild;;45994471;20;.;.;.;
Södertälje;Södertälje friskola;Enskild;;38394561;44;209,4;70,5;81,8;
Södertälje;Vittra i Östertälje;Enskild;;12757193;40;232,0;90,0;~100;
Södertälje;Wasaskolan MH;Kommunal;Södertälje;56568612;99;176,7;49,5;60,6;
Södertälje;Örjanskolan;Enskild;;10661388;29;.;.;.;
Tyresö;Dalskolan;Kommunal;Tyresö;56130729;90;213,3;85,6;~100;
Tyresö;Forellskolan;Kommunal;Tyresö;013800101;130;203,2;71,5;88,5;
Tyresö;Kumla skola F-9;Kommunal;Tyresö;37147254;128;214,8;75,0;93,0;
Tyresö;Nyboda skola;Kommunal;Tyresö;013800201;125;211,3;76,0;88,0;
Tyresö;Strandskolan;Kommunal;Tyresö;87665835;51;213,8;78,4;~100;
Tyresö;Tyresö skola;Kommunal;Tyresö;83020784;77;237,1;84,4;~100;
Tyresö;Yggdrasil resursskola;Enskild;;97439385;..;..;.;.;
Täby;Bergtorpsskolan;Enskild;;24142153;161;233,3;81,4;~100;
Täby;Byängsskolan;Enskild;;65839656;71;221,3;83,1;~100;
Täby;Engelska Skolan i Täby;Enskild;;12332278;88;252,5;85,2;~100;
Täby;FKC Mellansjö skola;Enskild;;54332921;..;..;..;..;
Täby;Gribby Gård;Kommunal;Täby;20587249;85;218,0;89,4;~100;
Täby;Kristinaskolan;Enskild;;16244673;..;..;..;..;
Täby;Kunskapsskolan Täby;Enskild;;25309669;59;245,2;83,1;~100;
Täby;Nya Tidens Montessorisk. Täby;Enskild;;89424201;11;242,7;90,9;100,0;
Täby;Nytorps friskola;Enskild;;64580337;16;206,6;75,0;100,0;
Täby;Näsbydalskolan;Kommunal;Täby;22807677;108;225,1;78,7;86,1;
Täby;Näsbyparksskolan;Kommunal;Täby;96330648;85;225,1;85,9;91,8;
Täby;Prolympia, Täby;Enskild;;22738124;53;235,8;88,7;~100;
Täby;Skarpängsskolan;Kommunal;Täby;83454509;155;226,5;94,2;~100;
Täby;Skolhagenskolan;Kommunal;Täby;69088221;105;228,6;81,0;~100;
Täby;Stiftelsen Frejaskolan;Enskild;;39474355;14;.;.;.;
Täby;Täby friskola;Enskild;;32231541;64;243,6;89,1;~100;
Täby;Vallatorpsskolan;Kommunal;Täby;57206066;47;215,0;72,3;~100;
Upplands Väsby;Förberedelseklass ISKI;Kommunal;Upplands Väsby;011402501;..;..;.;.;
Upplands Väsby;Grimsta skola;Kommunal;Upplands Väsby;44227469;132;215,7;81,8;90,9;
Upplands Väsby;Parkskolan;Kommunal;Upplands Väsby;011402001;..;..;.;..;
Upplands Väsby;Runby skola;Kommunal;Upplands Väsby;77624936;71;215,7;66,2;93,0;
Upplands Väsby;Smedby skola;Kommunal;Upplands Väsby;36789655;46;196,9;60,9;76,1;
Upplands Väsby;Sverigefinska sk, Uppl Väsby;Enskild;;68403656;15;225,0;80,0;~100;
Upplands Väsby;Södervikskolan;Kommunal;Upplands Väsby;011402201;105;219,6;81,9;~100;
Upplands Väsby;Väsby skola;Kommunal;Upplands Väsby;31018677;96;220,9;75,0;85,4;
Upplands-Bro;Broskolan;Kommunal;Upplands-Bro;16983719;124;200,3;75,0;89,5;
Upplands-Bro;Ekhammarskolan;Kommunal;Upplands-Bro;92284588;115;195,4;71,3;85,2;
Upplands-Bro;Hagnässkolan;Kommunal;Upplands-Bro;16969143;63;222,8;85,7;92,1;
Upplands-Bro;Källskolan;Enskild;;69098787;23;187,3;52,2;73,9;
Vallentuna;Bällstabergsskolan;Kommunal;Vallentuna;52293921;81;206,8;65,4;84,0;
Vallentuna;Ekebyskolan;Kommunal;Vallentuna;78821726;46;206,2;73,9;87,0;
Vallentuna;Hammarbacksskolan;Kommunal;Vallentuna;31772387;70;208,9;85,7;~100;
Vallentuna;Hjälmstaskolan;Kommunal;Vallentuna;16855764;70;226,3;87,1;~100;
Vallentuna;Karbyskolan;Kommunal;Vallentuna;57370453;70;209,6;85,7;100,0;
Vallentuna;Resursklasserna (Clavis);Kommunal;Vallentuna;42652939;..;..;..;..;
Vallentuna;Roslagens Resursskola;Enskild;;48184058;..;..;.;..;
Vallentuna;Samverkansklass (Atlas);Kommunal;Vallentuna;40724774;..;..;.;..;
Vallentuna;Språkklasserna (Vallen);Kommunal;Vallentuna;48822997;..;..;.;.;
Vallentuna;Tunaskolan skoldaghem;Kommunal;Vallentuna;56878797;..;..;.;..;
Vallentuna;Vallentuna Friskola;Enskild;;72378947;46;232,1;97,8;100,0;
Vaxholm;Norrbergsskolan;Kommunal;Vaxholm;24710426;56;211,0;89,3;~100;
Vaxholm;Söderfjärdsskolan;Kommunal;Vaxholm;21576764;75;214,7;85,3;92,0;
Värmdö;Brunns skola;Kommunal;Värmdö;42434583;66;224,2;92,4;~100;
Värmdö;Djurö skola;Kommunal;Värmdö;60606792;50;207,3;80,0;100,0;
Värmdö;Hemmestaskolan 6-9;Kommunal;Värmdö;69982204;104;203,8;78,8;92,3;
Värmdö;Kvarnbergsskolan;Kommunal;Värmdö;80158922;111;207,4;68,5;92,8;
Värmdö;Lemshaga Akademi Barn o Ungdom;Enskild;;11364996;51;261,8;96,1;100,0;
Värmdö;Skärgårdsskolan;Kommunal;Värmdö;53821266;..;..;..;..;
Värmdö;Värmdö kommuns Resursskolor;Kommunal;Värmdö;012002601;10;128,5;.;..;
Värmdö;Ösbyskolan;Kommunal;Värmdö;88283203;109;227,1;83,5;92,7;
Österåker;Akers friskola F-9;Enskild;;10715898;22;231,6;95,5;~100;
Österåker;Bergaskolan;Kommunal;Österåker;011700301;129;205,9;76,7;89,1;
Österåker;Ljusterö skola;Kommunal;Österåker;53319802;25;209,8;84,0;~100;
Österåker;Skärgårdsstadsskolan;Kommunal;Österåker;73272488;50;235,3;96,0;~100;
Österåker;Solskiftesskolan;Kommunal;Österåker;82624830;84;216,5;77,4;92,9;
Österåker;Söraskolan;Kommunal;Österåker;88712672;89;218,8;85,4;93,3;
Österåker;Tråsättraskolan;Kommunal;Österåker;51305351;79;220,6;77,2;~100;